analog_multiplier/data/R212kR1100kV100mv.csv

Record Length,2500,Points,-1.2500E-3,-94.000004E-3,,Record Length,2500,Points,-1.2500E-3,-98.000005E-3,,Record Length,2500,Points,-1.2500E-3,92.000008E-3,,Record Length,2500,Points,-1.2500E-3,826.000035E-3,
Sample Interval,1.000E-6,s,-1.2490E-3,-96.000001E-3,,Sample Interval,1.000E-6,s,-1.2490E-3,-96.000001E-3,,Sample Interval,1.000E-6,s,-1.2490E-3,92.000008E-3,,Sample Interval,1.000E-6,s,-1.2490E-3,826.000035E-3,
Trigger Point,1.2500E3,Samples,-1.2480E-3,-96.000001E-3,,Trigger Point,1.2500E3,Samples,-1.2480E-3,-100.0000E-3,,Trigger Point,1.2500E3,Samples,-1.2480E-3,94.000004E-3,,Trigger Point,1.2500E3,Samples,-1.2480E-3,826.000035E-3,
,,,-1.2470E-3,-94.000004E-3,,,,,-1.2470E-3,-96.000001E-3,,,,,-1.2470E-3,90.000004E-3,,,,,-1.2470E-3,824.000061E-3,
,,,-1.2460E-3,-100.0000E-3,,,,,-1.2460E-3,-104.0000E-3,,,,,-1.2460E-3,94.000004E-3,,,,,-1.2460E-3,826.000035E-3,
,,,-1.2450E-3,-98.000005E-3,,,,,-1.2450E-3,-96.000001E-3,,,,,-1.2450E-3,94.000004E-3,,,,,-1.2450E-3,828.000069E-3,
Source,CH1,,-1.2440E-3,-98.000005E-3,,Source,CH2,,-1.2440E-3,-96.000001E-3,,Source,CH3,,-1.2440E-3,94.000004E-3,,Source,CH4,,-1.2440E-3,830.000043E-3,
Vertical Units,Volts,,-1.2430E-3,-98.000005E-3,,Vertical Units,Volts,,-1.2430E-3,-96.000001E-3,,Vertical Units,Volts,,-1.2430E-3,96.000001E-3,,Vertical Units,Volts,,-1.2430E-3,830.000043E-3,
Vertical Scale,50.00000E-3,,-1.2420E-3,-98.000005E-3,,Vertical Scale,50.00000E-3,,-1.2420E-3,-96.000001E-3,,Vertical Scale,50.00000E-3,,-1.2420E-3,100.0000E-3,,Vertical Scale,50.00000E-3,,-1.2420E-3,832.000017E-3,
Vertical Offset,0,,-1.2410E-3,-98.000005E-3,,Vertical Offset,0,,-1.2410E-3,-96.000001E-3,,Vertical Offset,0,,-1.2410E-3,100.0000E-3,,Vertical Offset,0,,-1.2410E-3,832.000017E-3,
Horizontal Units,s,,-1.2400E-3,-98.000005E-3,,Horizontal Units,s,,-1.2400E-3,-96.000001E-3,,Horizontal Units,s,,-1.2400E-3,98.000005E-3,,Horizontal Units,s,,-1.2400E-3,828.000069E-3,
Horizontal Scale,250.00000E-6,,-1.2390E-3,-100.0000E-3,,Horizontal Scale,250.00000E-6,,-1.2390E-3,-98.000005E-3,,Horizontal Scale,250.00000E-6,,-1.2390E-3,98.000005E-3,,Horizontal Scale,250.00000E-6,,-1.2390E-3,832.000017E-3,
Pt Fmt,Y,,-1.2380E-3,-100.0000E-3,,Pt Fmt,Y,,-1.2380E-3,-98.000005E-3,,Pt Fmt,Y,,-1.2380E-3,100.0000E-3,,Pt Fmt,Y,,-1.2380E-3,834.000051E-3,
Yzero,0.0,,-1.2370E-3,-100.0000E-3,,Yzero,0.0,,-1.2370E-3,-100.0000E-3,,Yzero,0.0,,-1.2370E-3,98.000005E-3,,Yzero,-14.4000,,-1.2370E-3,834.000051E-3,
Probe Atten,1.000,,-1.2360E-3,-102.0000E-3,,Probe Atten,1.000,,-1.2360E-3,-98.000005E-3,,Probe Atten,1.000,,-1.2360E-3,100.0000E-3,,Probe Atten,1.000,,-1.2360E-3,834.000051E-3,
,,,-1.2350E-3,-102.0000E-3,,,,,-1.2350E-3,-98.000005E-3,,,,,-1.2350E-3,98.000005E-3,,,,,-1.2350E-3,836.000025E-3,
Note,TDS 224 - 3:04:04 PM   11/13/2015,,-1.2340E-3,-100.0000E-3,,Note,TDS 224 - 3:04:04 PM   11/13/2015,,-1.2340E-3,-100.0000E-3,,Note,TDS 224 - 3:04:04 PM   11/13/2015,,-1.2340E-3,98.000005E-3,,Note,TDS 224 - 3:04:04 PM   11/13/2015,,-1.2340E-3,834.000051E-3,
,,,-1.2330E-3,-102.0000E-3,,,,,-1.2330E-3,-102.0000E-3,,,,,-1.2330E-3,98.000005E-3,,,,,-1.2330E-3,834.000051E-3,
,,,-1.2320E-3,-100.0000E-3,,,,,-1.2320E-3,-100.0000E-3,,,,,-1.2320E-3,98.000005E-3,,,,,-1.2320E-3,834.000051E-3,
,,,-1.2310E-3,-100.0000E-3,,,,,-1.2310E-3,-104.0000E-3,,,,,-1.2310E-3,96.000001E-3,,,,,-1.2310E-3,832.000017E-3,
,,,-1.2300E-3,-100.0000E-3,,,,,-1.2300E-3,-100.0000E-3,,,,,-1.2300E-3,96.000001E-3,,,,,-1.2300E-3,832.000017E-3,
,,,-1.2290E-3,-100.0000E-3,,,,,-1.2290E-3,-100.0000E-3,,,,,-1.2290E-3,100.0000E-3,,,,,-1.2290E-3,830.000043E-3,
,,,-1.2280E-3,-100.0000E-3,,,,,-1.2280E-3,-104.0000E-3,,,,,-1.2280E-3,94.000004E-3,,,,,-1.2280E-3,828.000069E-3,
,,,-1.2270E-3,-100.0000E-3,,,,,-1.2270E-3,-100.0000E-3,,,,,-1.2270E-3,96.000001E-3,,,,,-1.2270E-3,832.000017E-3,
,,,-1.2260E-3,-98.000005E-3,,,,,-1.2260E-3,-98.000005E-3,,,,,-1.2260E-3,94.000004E-3,,,,,-1.2260E-3,828.000069E-3,
,,,-1.2250E-3,-98.000005E-3,,,,,-1.2250E-3,-98.000005E-3,,,,,-1.2250E-3,96.000001E-3,,,,,-1.2250E-3,830.000043E-3,
,,,-1.2240E-3,-98.000005E-3,,,,,-1.2240E-3,-98.000005E-3,,,,,-1.2240E-3,94.000004E-3,,,,,-1.2240E-3,832.000017E-3,
,,,-1.2230E-3,-98.000005E-3,,,,,-1.2230E-3,-96.000001E-3,,,,,-1.2230E-3,94.000004E-3,,,,,-1.2230E-3,830.000043E-3,
,,,-1.2220E-3,-96.000001E-3,,,,,-1.2220E-3,-96.000001E-3,,,,,-1.2220E-3,94.000004E-3,,,,,-1.2220E-3,828.000069E-3,
,,,-1.2210E-3,-96.000001E-3,,,,,-1.2210E-3,-96.000001E-3,,,,,-1.2210E-3,92.000008E-3,,,,,-1.2210E-3,828.000069E-3,
,,,-1.2200E-3,-96.000001E-3,,,,,-1.2200E-3,-96.000001E-3,,,,,-1.2200E-3,94.000004E-3,,,,,-1.2200E-3,830.000043E-3,
,,,-1.2190E-3,-96.000001E-3,,,,,-1.2190E-3,-96.000001E-3,,,,,-1.2190E-3,96.000001E-3,,,,,-1.2190E-3,828.000069E-3,
,,,-1.2180E-3,-94.000004E-3,,,,,-1.2180E-3,-96.000001E-3,,,,,-1.2180E-3,94.000004E-3,,,,,-1.2180E-3,830.000043E-3,
,,,-1.2170E-3,-94.000004E-3,,,,,-1.2170E-3,-96.000001E-3,,,,,-1.2170E-3,94.000004E-3,,,,,-1.2170E-3,830.000043E-3,
,,,-1.2160E-3,-94.000004E-3,,,,,-1.2160E-3,-94.000004E-3,,,,,-1.2160E-3,94.000004E-3,,,,,-1.2160E-3,830.000043E-3,
,,,-1.2150E-3,-94.000004E-3,,,,,-1.2150E-3,-96.000001E-3,,,,,-1.2150E-3,90.000004E-3,,,,,-1.2150E-3,826.000035E-3,
,,,-1.2140E-3,-94.000004E-3,,,,,-1.2140E-3,-94.000004E-3,,,,,-1.2140E-3,90.000004E-3,,,,,-1.2140E-3,828.000069E-3,
,,,-1.2130E-3,-94.000004E-3,,,,,-1.2130E-3,-96.000001E-3,,,,,-1.2130E-3,92.000008E-3,,,,,-1.2130E-3,824.000061E-3,
,,,-1.2120E-3,-92.000008E-3,,,,,-1.2120E-3,-98.000005E-3,,,,,-1.2120E-3,90.000004E-3,,,,,-1.2120E-3,826.000035E-3,
,,,-1.2110E-3,-92.000008E-3,,,,,-1.2110E-3,-94.000004E-3,,,,,-1.2110E-3,88.000007E-3,,,,,-1.2110E-3,822.000027E-3,
,,,-1.2100E-3,-92.000008E-3,,,,,-1.2100E-3,-94.000004E-3,,,,,-1.2100E-3,88.000007E-3,,,,,-1.2100E-3,822.000027E-3,
,,,-1.2090E-3,-92.000008E-3,,,,,-1.2090E-3,-96.000001E-3,,,,,-1.2090E-3,86.000003E-3,,,,,-1.2090E-3,822.000027E-3,
,,,-1.2080E-3,-92.000008E-3,,,,,-1.2080E-3,-88.000007E-3,,,,,-1.2080E-3,88.000007E-3,,,,,-1.2080E-3,822.000027E-3,
,,,-1.2070E-3,-90.000004E-3,,,,,-1.2070E-3,-92.000008E-3,,,,,-1.2070E-3,86.000003E-3,,,,,-1.2070E-3,822.000027E-3,
,,,-1.2060E-3,-90.000004E-3,,,,,-1.2060E-3,-92.000008E-3,,,,,-1.2060E-3,88.000007E-3,,,,,-1.2060E-3,824.000061E-3,
,,,-1.2050E-3,-90.000004E-3,,,,,-1.2050E-3,-90.000004E-3,,,,,-1.2050E-3,88.000007E-3,,,,,-1.2050E-3,824.000061E-3,
,,,-1.2040E-3,-90.000004E-3,,,,,-1.2040E-3,-88.000007E-3,,,,,-1.2040E-3,88.000007E-3,,,,,-1.2040E-3,822.000027E-3,
,,,-1.2030E-3,-90.000004E-3,,,,,-1.2030E-3,-88.000007E-3,,,,,-1.2030E-3,88.000007E-3,,,,,-1.2030E-3,822.000027E-3,
,,,-1.2020E-3,-88.000007E-3,,,,,-1.2020E-3,-90.000004E-3,,,,,-1.2020E-3,86.000003E-3,,,,,-1.2020E-3,822.000027E-3,
,,,-1.2010E-3,-88.000007E-3,,,,,-1.2010E-3,-86.000003E-3,,,,,-1.2010E-3,86.000003E-3,,,,,-1.2010E-3,822.000027E-3,
,,,-1.2000E-3,-86.000003E-3,,,,,-1.2000E-3,-86.000003E-3,,,,,-1.2000E-3,86.000003E-3,,,,,-1.2000E-3,822.000027E-3,
,,,-1.1990E-3,-86.000003E-3,,,,,-1.1990E-3,-88.000007E-3,,,,,-1.1990E-3,86.000003E-3,,,,,-1.1990E-3,824.000061E-3,
,,,-1.1980E-3,-88.000007E-3,,,,,-1.1980E-3,-84.000006E-3,,,,,-1.1980E-3,84.000006E-3,,,,,-1.1980E-3,824.000061E-3,
,,,-1.1970E-3,-86.000003E-3,,,,,-1.1970E-3,-84.000006E-3,,,,,-1.1970E-3,86.000003E-3,,,,,-1.1970E-3,822.000027E-3,
,,,-1.1960E-3,-84.000006E-3,,,,,-1.1960E-3,-86.000003E-3,,,,,-1.1960E-3,84.000006E-3,,,,,-1.1960E-3,820.000052E-3,
,,,-1.1950E-3,-84.000006E-3,,,,,-1.1950E-3,-92.000008E-3,,,,,-1.1950E-3,84.000006E-3,,,,,-1.1950E-3,820.000052E-3,
,,,-1.1940E-3,-84.000006E-3,,,,,-1.1940E-3,-86.000003E-3,,,,,-1.1940E-3,82.000002E-3,,,,,-1.1940E-3,820.000052E-3,
,,,-1.1930E-3,-84.000006E-3,,,,,-1.1930E-3,-86.000003E-3,,,,,-1.1930E-3,84.000006E-3,,,,,-1.1930E-3,818.000019E-3,
,,,-1.1920E-3,-84.000006E-3,,,,,-1.1920E-3,-86.000003E-3,,,,,-1.1920E-3,82.000002E-3,,,,,-1.1920E-3,818.000019E-3,
,,,-1.1910E-3,-84.000006E-3,,,,,-1.1910E-3,-86.000003E-3,,,,,-1.1910E-3,82.000002E-3,,,,,-1.1910E-3,816.000044E-3,
,,,-1.1900E-3,-84.000006E-3,,,,,-1.1900E-3,-84.000006E-3,,,,,-1.1900E-3,80.000006E-3,,,,,-1.1900E-3,818.000019E-3,
,,,-1.1890E-3,-82.000002E-3,,,,,-1.1890E-3,-86.000003E-3,,,,,-1.1890E-3,82.000002E-3,,,,,-1.1890E-3,816.000044E-3,
,,,-1.1880E-3,-82.000002E-3,,,,,-1.1880E-3,-82.000002E-3,,,,,-1.1880E-3,84.000006E-3,,,,,-1.1880E-3,818.000019E-3,
,,,-1.1870E-3,-84.000006E-3,,,,,-1.1870E-3,-80.000006E-3,,,,,-1.1870E-3,82.000002E-3,,,,,-1.1870E-3,818.000019E-3,
,,,-1.1860E-3,-80.000006E-3,,,,,-1.1860E-3,-82.000002E-3,,,,,-1.1860E-3,80.000006E-3,,,,,-1.1860E-3,816.000044E-3,
,,,-1.1850E-3,-80.000006E-3,,,,,-1.1850E-3,-84.000006E-3,,,,,-1.1850E-3,80.000006E-3,,,,,-1.1850E-3,816.000044E-3,
,,,-1.1840E-3,-82.000002E-3,,,,,-1.1840E-3,-80.000006E-3,,,,,-1.1840E-3,78.000002E-3,,,,,-1.1840E-3,814.000010E-3,
,,,-1.1830E-3,-80.000006E-3,,,,,-1.1830E-3,-80.000006E-3,,,,,-1.1830E-3,78.000002E-3,,,,,-1.1830E-3,816.000044E-3,
,,,-1.1820E-3,-80.000006E-3,,,,,-1.1820E-3,-78.000002E-3,,,,,-1.1820E-3,78.000002E-3,,,,,-1.1820E-3,816.000044E-3,
,,,-1.1810E-3,-80.000006E-3,,,,,-1.1810E-3,-80.000006E-3,,,,,-1.1810E-3,80.000006E-3,,,,,-1.1810E-3,816.000044E-3,
,,,-1.1800E-3,-80.000006E-3,,,,,-1.1800E-3,-80.000006E-3,,,,,-1.1800E-3,80.000006E-3,,,,,-1.1800E-3,816.000044E-3,
,,,-1.1790E-3,-78.000002E-3,,,,,-1.1790E-3,-80.000006E-3,,,,,-1.1790E-3,80.000006E-3,,,,,-1.1790E-3,814.000010E-3,
,,,-1.1780E-3,-78.000002E-3,,,,,-1.1780E-3,-80.000006E-3,,,,,-1.1780E-3,82.000002E-3,,,,,-1.1780E-3,818.000019E-3,
,,,-1.1770E-3,-78.000002E-3,,,,,-1.1770E-3,-80.000006E-3,,,,,-1.1770E-3,80.000006E-3,,,,,-1.1770E-3,812.000036E-3,
,,,-1.1760E-3,-78.000002E-3,,,,,-1.1760E-3,-80.000006E-3,,,,,-1.1760E-3,74.000001E-3,,,,,-1.1760E-3,812.000036E-3,
,,,-1.1750E-3,-78.000002E-3,,,,,-1.1750E-3,-78.000002E-3,,,,,-1.1750E-3,76.000005E-3,,,,,-1.1750E-3,812.000036E-3,
,,,-1.1740E-3,-78.000002E-3,,,,,-1.1740E-3,-78.000002E-3,,,,,-1.1740E-3,74.000001E-3,,,,,-1.1740E-3,812.000036E-3,
,,,-1.1730E-3,-78.000002E-3,,,,,-1.1730E-3,-78.000002E-3,,,,,-1.1730E-3,72.000004E-3,,,,,-1.1730E-3,812.000036E-3,
,,,-1.1720E-3,-78.000002E-3,,,,,-1.1720E-3,-78.000002E-3,,,,,-1.1720E-3,72.000004E-3,,,,,-1.1720E-3,812.000036E-3,
,,,-1.1710E-3,-78.000002E-3,,,,,-1.1710E-3,-80.000006E-3,,,,,-1.1710E-3,72.000004E-3,,,,,-1.1710E-3,808.000028E-3,
,,,-1.1700E-3,-76.000005E-3,,,,,-1.1700E-3,-78.000002E-3,,,,,-1.1700E-3,72.000004E-3,,,,,-1.1700E-3,808.000028E-3,
,,,-1.1690E-3,-74.000001E-3,,,,,-1.1690E-3,-74.000001E-3,,,,,-1.1690E-3,72.000004E-3,,,,,-1.1690E-3,808.000028E-3,
,,,-1.1680E-3,-74.000001E-3,,,,,-1.1680E-3,-78.000002E-3,,,,,-1.1680E-3,72.000004E-3,,,,,-1.1680E-3,812.000036E-3,
,,,-1.1670E-3,-74.000001E-3,,,,,-1.1670E-3,-80.000006E-3,,,,,-1.1670E-3,72.000004E-3,,,,,-1.1670E-3,812.000036E-3,
,,,-1.1660E-3,-74.000001E-3,,,,,-1.1660E-3,-72.000004E-3,,,,,-1.1660E-3,72.000004E-3,,,,,-1.1660E-3,808.000028E-3,
,,,-1.1650E-3,-74.000001E-3,,,,,-1.1650E-3,-72.000004E-3,,,,,-1.1650E-3,72.000004E-3,,,,,-1.1650E-3,810.000062E-3,
,,,-1.1640E-3,-74.000001E-3,,,,,-1.1640E-3,-76.000005E-3,,,,,-1.1640E-3,72.000004E-3,,,,,-1.1640E-3,810.000062E-3,
,,,-1.1630E-3,-74.000001E-3,,,,,-1.1630E-3,-72.000004E-3,,,,,-1.1630E-3,70.000000E-3,,,,,-1.1630E-3,808.000028E-3,
,,,-1.1620E-3,-72.000004E-3,,,,,-1.1620E-3,-70.000000E-3,,,,,-1.1620E-3,70.000000E-3,,,,,-1.1620E-3,808.000028E-3,
,,,-1.1610E-3,-72.000004E-3,,,,,-1.1610E-3,-72.000004E-3,,,,,-1.1610E-3,70.000000E-3,,,,,-1.1610E-3,808.000028E-3,
,,,-1.1600E-3,-70.000000E-3,,,,,-1.1600E-3,-74.000001E-3,,,,,-1.1600E-3,70.000000E-3,,,,,-1.1600E-3,810.000062E-3,
,,,-1.1590E-3,-70.000000E-3,,,,,-1.1590E-3,-74.000001E-3,,,,,-1.1590E-3,72.000004E-3,,,,,-1.1590E-3,808.000028E-3,
,,,-1.1580E-3,-70.000000E-3,,,,,-1.1580E-3,-72.000004E-3,,,,,-1.1580E-3,68.000004E-3,,,,,-1.1580E-3,806.000054E-3,
,,,-1.1570E-3,-68.000004E-3,,,,,-1.1570E-3,-74.000001E-3,,,,,-1.1570E-3,68.000004E-3,,,,,-1.1570E-3,806.000054E-3,
,,,-1.1560E-3,-70.000000E-3,,,,,-1.1560E-3,-72.000004E-3,,,,,-1.1560E-3,70.000000E-3,,,,,-1.1560E-3,804.000020E-3,
,,,-1.1550E-3,-70.000000E-3,,,,,-1.1550E-3,-68.000004E-3,,,,,-1.1550E-3,66.000000E-3,,,,,-1.1550E-3,802.000046E-3,
,,,-1.1540E-3,-68.000004E-3,,,,,-1.1540E-3,-70.000000E-3,,,,,-1.1540E-3,66.000000E-3,,,,,-1.1540E-3,804.000020E-3,
,,,-1.1530E-3,-68.000004E-3,,,,,-1.1530E-3,-70.000000E-3,,,,,-1.1530E-3,66.000000E-3,,,,,-1.1530E-3,806.000054E-3,
,,,-1.1520E-3,-68.000004E-3,,,,,-1.1520E-3,-64.000003E-3,,,,,-1.1520E-3,66.000000E-3,,,,,-1.1520E-3,804.000020E-3,
,,,-1.1510E-3,-68.000004E-3,,,,,-1.1510E-3,-68.000004E-3,,,,,-1.1510E-3,66.000000E-3,,,,,-1.1510E-3,804.000020E-3,
,,,-1.1500E-3,-68.000004E-3,,,,,-1.1500E-3,-70.000000E-3,,,,,-1.1500E-3,66.000000E-3,,,,,-1.1500E-3,802.000046E-3,
,,,-1.1490E-3,-68.000004E-3,,,,,-1.1490E-3,-70.000000E-3,,,,,-1.1490E-3,64.000003E-3,,,,,-1.1490E-3,806.000054E-3,
,,,-1.1480E-3,-68.000004E-3,,,,,-1.1480E-3,-66.000000E-3,,,,,-1.1480E-3,64.000003E-3,,,,,-1.1480E-3,804.000020E-3,
,,,-1.1470E-3,-68.000004E-3,,,,,-1.1470E-3,-66.000000E-3,,,,,-1.1470E-3,66.000000E-3,,,,,-1.1470E-3,804.000020E-3,
,,,-1.1460E-3,-66.000000E-3,,,,,-1.1460E-3,-64.000003E-3,,,,,-1.1460E-3,66.000000E-3,,,,,-1.1460E-3,800.000012E-3,
,,,-1.1450E-3,-64.000003E-3,,,,,-1.1450E-3,-62.000003E-3,,,,,-1.1450E-3,64.000003E-3,,,,,-1.1450E-3,800.000012E-3,
,,,-1.1440E-3,-64.000003E-3,,,,,-1.1440E-3,-68.000004E-3,,,,,-1.1440E-3,68.000004E-3,,,,,-1.1440E-3,804.000020E-3,
,,,-1.1430E-3,-66.000000E-3,,,,,-1.1430E-3,-64.000003E-3,,,,,-1.1430E-3,64.000003E-3,,,,,-1.1430E-3,802.000046E-3,
,,,-1.1420E-3,-64.000003E-3,,,,,-1.1420E-3,-64.000003E-3,,,,,-1.1420E-3,64.000003E-3,,,,,-1.1420E-3,804.000020E-3,
,,,-1.1410E-3,-64.000003E-3,,,,,-1.1410E-3,-62.000003E-3,,,,,-1.1410E-3,62.000003E-3,,,,,-1.1410E-3,804.000020E-3,
,,,-1.1400E-3,-64.000003E-3,,,,,-1.1400E-3,-64.000003E-3,,,,,-1.1400E-3,64.000003E-3,,,,,-1.1400E-3,804.000020E-3,
,,,-1.1390E-3,-64.000003E-3,,,,,-1.1390E-3,-64.000003E-3,,,,,-1.1390E-3,62.000003E-3,,,,,-1.1390E-3,802.000046E-3,
,,,-1.1380E-3,-62.000003E-3,,,,,-1.1380E-3,-64.000003E-3,,,,,-1.1380E-3,60.000002E-3,,,,,-1.1380E-3,802.000046E-3,
,,,-1.1370E-3,-62.000003E-3,,,,,-1.1370E-3,-62.000003E-3,,,,,-1.1370E-3,58.000002E-3,,,,,-1.1370E-3,800.000012E-3,
,,,-1.1360E-3,-62.000003E-3,,,,,-1.1360E-3,-62.000003E-3,,,,,-1.1360E-3,58.000002E-3,,,,,-1.1360E-3,798.000038E-3,
,,,-1.1350E-3,-64.000003E-3,,,,,-1.1350E-3,-64.000003E-3,,,,,-1.1350E-3,56.000002E-3,,,,,-1.1350E-3,800.000012E-3,
,,,-1.1340E-3,-62.000003E-3,,,,,-1.1340E-3,-60.000002E-3,,,,,-1.1340E-3,56.000002E-3,,,,,-1.1340E-3,798.000038E-3,
,,,-1.1330E-3,-62.000003E-3,,,,,-1.1330E-3,-60.000002E-3,,,,,-1.1330E-3,58.000002E-3,,,,,-1.1330E-3,800.000012E-3,
,,,-1.1320E-3,-60.000002E-3,,,,,-1.1320E-3,-64.000003E-3,,,,,-1.1320E-3,60.000002E-3,,,,,-1.1320E-3,798.000038E-3,
,,,-1.1310E-3,-60.000002E-3,,,,,-1.1310E-3,-62.000003E-3,,,,,-1.1310E-3,56.000002E-3,,,,,-1.1310E-3,800.000012E-3,
,,,-1.1300E-3,-60.000002E-3,,,,,-1.1300E-3,-58.000002E-3,,,,,-1.1300E-3,58.000002E-3,,,,,-1.1300E-3,796.000063E-3,
,,,-1.1290E-3,-60.000002E-3,,,,,-1.1290E-3,-60.000002E-3,,,,,-1.1290E-3,58.000002E-3,,,,,-1.1290E-3,796.000063E-3,
,,,-1.1280E-3,-56.000002E-3,,,,,-1.1280E-3,-60.000002E-3,,,,,-1.1280E-3,58.000002E-3,,,,,-1.1280E-3,798.000038E-3,
,,,-1.1270E-3,-56.000002E-3,,,,,-1.1270E-3,-56.000002E-3,,,,,-1.1270E-3,62.000003E-3,,,,,-1.1270E-3,798.000038E-3,
,,,-1.1260E-3,-56.000002E-3,,,,,-1.1260E-3,-60.000002E-3,,,,,-1.1260E-3,56.000002E-3,,,,,-1.1260E-3,798.000038E-3,
,,,-1.1250E-3,-58.000002E-3,,,,,-1.1250E-3,-60.000002E-3,,,,,-1.1250E-3,56.000002E-3,,,,,-1.1250E-3,798.000038E-3,
,,,-1.1240E-3,-58.000002E-3,,,,,-1.1240E-3,-56.000002E-3,,,,,-1.1240E-3,54.00000E-3,,,,,-1.1240E-3,800.000012E-3,
,,,-1.1230E-3,-56.000002E-3,,,,,-1.1230E-3,-56.000002E-3,,,,,-1.1230E-3,56.000002E-3,,,,,-1.1230E-3,798.000038E-3,
,,,-1.1220E-3,-56.000002E-3,,,,,-1.1220E-3,-58.000002E-3,,,,,-1.1220E-3,58.000002E-3,,,,,-1.1220E-3,796.000063E-3,
,,,-1.1210E-3,-56.000002E-3,,,,,-1.1210E-3,-56.000002E-3,,,,,-1.1210E-3,54.00000E-3,,,,,-1.1210E-3,798.000038E-3,
,,,-1.1200E-3,-56.000002E-3,,,,,-1.1200E-3,-56.000002E-3,,,,,-1.1200E-3,56.000002E-3,,,,,-1.1200E-3,796.000063E-3,
,,,-1.1190E-3,-54.00000E-3,,,,,-1.1190E-3,-58.000002E-3,,,,,-1.1190E-3,52.00000E-3,,,,,-1.1190E-3,796.000063E-3,
,,,-1.1180E-3,-54.00000E-3,,,,,-1.1180E-3,-56.000002E-3,,,,,-1.1180E-3,52.00000E-3,,,,,-1.1180E-3,792.000055E-3,
,,,-1.1170E-3,-52.00000E-3,,,,,-1.1170E-3,-54.00000E-3,,,,,-1.1170E-3,50.00000E-3,,,,,-1.1170E-3,792.000055E-3,
,,,-1.1160E-3,-52.00000E-3,,,,,-1.1160E-3,-54.00000E-3,,,,,-1.1160E-3,50.00000E-3,,,,,-1.1160E-3,792.000055E-3,
,,,-1.1150E-3,-54.00000E-3,,,,,-1.1150E-3,-56.000002E-3,,,,,-1.1150E-3,50.00000E-3,,,,,-1.1150E-3,792.000055E-3,
,,,-1.1140E-3,-54.00000E-3,,,,,-1.1140E-3,-56.000002E-3,,,,,-1.1140E-3,50.00000E-3,,,,,-1.1140E-3,792.000055E-3,
,,,-1.1130E-3,-52.00000E-3,,,,,-1.1130E-3,-54.00000E-3,,,,,-1.1130E-3,48.00000E-3,,,,,-1.1130E-3,792.000055E-3,
,,,-1.1120E-3,-54.00000E-3,,,,,-1.1120E-3,-56.000002E-3,,,,,-1.1120E-3,50.00000E-3,,,,,-1.1120E-3,794.000030E-3,
,,,-1.1110E-3,-54.00000E-3,,,,,-1.1110E-3,-54.00000E-3,,,,,-1.1110E-3,50.00000E-3,,,,,-1.1110E-3,792.000055E-3,
,,,-1.1100E-3,-50.00000E-3,,,,,-1.1100E-3,-52.00000E-3,,,,,-1.1100E-3,48.00000E-3,,,,,-1.1100E-3,792.000055E-3,
,,,-1.1090E-3,-52.00000E-3,,,,,-1.1090E-3,-52.00000E-3,,,,,-1.1090E-3,50.00000E-3,,,,,-1.1090E-3,792.000055E-3,
,,,-1.1080E-3,-50.00000E-3,,,,,-1.1080E-3,-52.00000E-3,,,,,-1.1080E-3,48.00000E-3,,,,,-1.1080E-3,794.000030E-3,
,,,-1.1070E-3,-52.00000E-3,,,,,-1.1070E-3,-50.00000E-3,,,,,-1.1070E-3,50.00000E-3,,,,,-1.1070E-3,790.000021E-3,
,,,-1.1060E-3,-50.00000E-3,,,,,-1.1060E-3,-48.00000E-3,,,,,-1.1060E-3,50.00000E-3,,,,,-1.1060E-3,794.000030E-3,
,,,-1.1050E-3,-50.00000E-3,,,,,-1.1050E-3,-48.00000E-3,,,,,-1.1050E-3,48.00000E-3,,,,,-1.1050E-3,790.000021E-3,
,,,-1.1040E-3,-48.00000E-3,,,,,-1.1040E-3,-52.00000E-3,,,,,-1.1040E-3,48.00000E-3,,,,,-1.1040E-3,790.000021E-3,
,,,-1.1030E-3,-48.00000E-3,,,,,-1.1030E-3,-48.00000E-3,,,,,-1.1030E-3,50.00000E-3,,,,,-1.1030E-3,792.000055E-3,
,,,-1.1020E-3,-50.00000E-3,,,,,-1.1020E-3,-50.00000E-3,,,,,-1.1020E-3,50.00000E-3,,,,,-1.1020E-3,792.000055E-3,
,,,-1.1010E-3,-48.00000E-3,,,,,-1.1010E-3,-50.00000E-3,,,,,-1.1010E-3,48.00000E-3,,,,,-1.1010E-3,790.000021E-3,
,,,-1.1000E-3,-48.00000E-3,,,,,-1.1000E-3,-50.00000E-3,,,,,-1.1000E-3,44.00000E-3,,,,,-1.1000E-3,788.000047E-3,
,,,-1.0990E-3,-46.00000E-3,,,,,-1.0990E-3,-48.00000E-3,,,,,-1.0990E-3,46.00000E-3,,,,,-1.0990E-3,788.000047E-3,
,,,-1.0980E-3,-46.00000E-3,,,,,-1.0980E-3,-50.00000E-3,,,,,-1.0980E-3,44.00000E-3,,,,,-1.0980E-3,786.000013E-3,
,,,-1.0970E-3,-44.00000E-3,,,,,-1.0970E-3,-48.00000E-3,,,,,-1.0970E-3,42.00000E-3,,,,,-1.0970E-3,786.000013E-3,
,,,-1.0960E-3,-44.00000E-3,,,,,-1.0960E-3,-48.00000E-3,,,,,-1.0960E-3,38.00000E-3,,,,,-1.0960E-3,788.000047E-3,
,,,-1.0950E-3,-44.00000E-3,,,,,-1.0950E-3,-46.00000E-3,,,,,-1.0950E-3,44.00000E-3,,,,,-1.0950E-3,786.000013E-3,
,,,-1.0940E-3,-46.00000E-3,,,,,-1.0940E-3,-46.00000E-3,,,,,-1.0940E-3,40.00000E-3,,,,,-1.0940E-3,788.000047E-3,
,,,-1.0930E-3,-44.00000E-3,,,,,-1.0930E-3,-48.00000E-3,,,,,-1.0930E-3,40.00000E-3,,,,,-1.0930E-3,792.000055E-3,
,,,-1.0920E-3,-44.00000E-3,,,,,-1.0920E-3,-44.00000E-3,,,,,-1.0920E-3,44.00000E-3,,,,,-1.0920E-3,788.000047E-3,
,,,-1.0910E-3,-44.00000E-3,,,,,-1.0910E-3,-42.00000E-3,,,,,-1.0910E-3,42.00000E-3,,,,,-1.0910E-3,788.000047E-3,
,,,-1.0900E-3,-44.00000E-3,,,,,-1.0900E-3,-42.00000E-3,,,,,-1.0900E-3,42.00000E-3,,,,,-1.0900E-3,786.000013E-3,
,,,-1.0890E-3,-42.00000E-3,,,,,-1.0890E-3,-42.00000E-3,,,,,-1.0890E-3,40.00000E-3,,,,,-1.0890E-3,788.000047E-3,
,,,-1.0880E-3,-44.00000E-3,,,,,-1.0880E-3,-42.00000E-3,,,,,-1.0880E-3,40.00000E-3,,,,,-1.0880E-3,788.000047E-3,
,,,-1.0870E-3,-40.00000E-3,,,,,-1.0870E-3,-42.00000E-3,,,,,-1.0870E-3,42.00000E-3,,,,,-1.0870E-3,788.000047E-3,
,,,-1.0860E-3,-40.00000E-3,,,,,-1.0860E-3,-40.00000E-3,,,,,-1.0860E-3,40.00000E-3,,,,,-1.0860E-3,786.000013E-3,
,,,-1.0850E-3,-40.00000E-3,,,,,-1.0850E-3,-40.00000E-3,,,,,-1.0850E-3,44.00000E-3,,,,,-1.0850E-3,788.000047E-3,
