analog_multiplier/data/s2x2.5fx60k.1.csv

Record Length,2500,Points,-25.00000E-6,-199.99999E-3,,Record Length,2500,Points,-25.00000E-6,-122.0000E-3,
Sample Interval,20.0000E-9,s,-24.98000E-6,-160.00000E-3,,Sample Interval,20.0000E-9,s,-24.98000E-6,-118.0000E-3,
Trigger Point,1.2500E3,Samples,-24.96000E-6,-239.99999E-3,,Trigger Point,1.2500E3,Samples,-24.96000E-6,-120.0000E-3,
,,,-24.94000E-6,-199.99999E-3,,,,,-24.94000E-6,-118.0000E-3,
,,,-24.92000E-6,-199.99999E-3,,,,,-24.92000E-6,-116.0000E-3,
,,,-24.90000E-6,-239.99999E-3,,,,,-24.90000E-6,-112.0000E-3,
Source,CH2,,-24.88000E-6,-280.00000E-3,,Source,CH3,,-24.88000E-6,-114.0000E-3,
Vertical Units,Volts,,-24.86000E-6,-319.99999E-3,,Vertical Units,Volts,,-24.86000E-6,-112.0000E-3,
Vertical Scale,1.000,,-24.84000E-6,-280.00000E-3,,Vertical Scale,50.00000E-3,,-24.84000E-6,-108.0000E-3,
Vertical Offset,0,,-24.82000E-6,-319.99999E-3,,Vertical Offset,0,,-24.82000E-6,-106.0000E-3,
Horizontal Units,s,,-24.80000E-6,-280.00000E-3,,Horizontal Units,s,,-24.80000E-6,-106.0000E-3,
Horizontal Scale,5.00000E-6,,-24.78000E-6,-319.99999E-3,,Horizontal Scale,5.00000E-6,,-24.78000E-6,-104.0000E-3,
Pt Fmt,Y,,-24.76000E-6,-319.99999E-3,,Pt Fmt,Y,,-24.76000E-6,-102.0000E-3,
Yzero,0.0,,-24.74000E-6,-359.99998E-3,,Yzero,2.0000,,-24.74000E-6,-98.000005E-3,
Probe Atten,1.000,,-24.72000E-6,-319.99999E-3,,Probe Atten,1.000,,-24.72000E-6,-96.000001E-3,
,,,-24.70000E-6,-359.99998E-3,,,,,-24.70000E-6,-96.000001E-3,
Note,TDS 224 - 11:05:03 PM   11/13/2015,,-24.68000E-6,-399.99998E-3,,Note,TDS 224 - 11:05:03 PM   11/13/2015,,-24.68000E-6,-94.000004E-3,
,,,-24.66000E-6,-359.99998E-3,,,,,-24.66000E-6,-94.000004E-3,
,,,-24.64000E-6,-399.99998E-3,,,,,-24.64000E-6,-92.000008E-3,
,,,-24.62000E-6,-479.999989E-3,,,,,-24.62000E-6,-92.000008E-3,
,,,-24.60000E-6,-399.99998E-3,,,,,-24.60000E-6,-90.000004E-3,
,,,-24.58000E-6,-399.99998E-3,,,,,-24.58000E-6,-88.000007E-3,
,,,-24.56000E-6,-479.999989E-3,,,,,-24.56000E-6,-86.000003E-3,
,,,-24.54000E-6,-439.999998E-3,,,,,-24.54000E-6,-84.000006E-3,
,,,-24.52000E-6,-479.999989E-3,,,,,-24.52000E-6,-82.000002E-3,
,,,-24.50000E-6,-479.999989E-3,,,,,-24.50000E-6,-78.000002E-3,
,,,-24.48000E-6,-519.999981E-3,,,,,-24.48000E-6,-78.000002E-3,
,,,-24.46000E-6,-519.999981E-3,,,,,-24.46000E-6,-74.000001E-3,
,,,-24.44000E-6,-479.999989E-3,,,,,-24.44000E-6,-74.000001E-3,
,,,-24.42000E-6,-519.999981E-3,,,,,-24.42000E-6,-70.000000E-3,
,,,-24.40000E-6,-599.999964E-3,,,,,-24.40000E-6,-70.000000E-3,
,,,-24.38000E-6,-519.999981E-3,,,,,-24.38000E-6,-72.000004E-3,
,,,-24.36000E-6,-519.999981E-3,,,,,-24.36000E-6,-66.000000E-3,
,,,-24.34000E-6,-560.000002E-3,,,,,-24.34000E-6,-64.000003E-3,
,,,-24.32000E-6,-599.999964E-3,,,,,-24.32000E-6,-66.000000E-3,
,,,-24.30000E-6,-680.000007E-3,,,,,-24.30000E-6,-64.000003E-3,
,,,-24.28000E-6,-639.999986E-3,,,,,-24.28000E-6,-62.000003E-3,
,,,-24.26000E-6,-599.999964E-3,,,,,-24.26000E-6,-60.000002E-3,
,,,-24.24000E-6,-719.999969E-3,,,,,-24.24000E-6,-56.000002E-3,
,,,-24.22000E-6,-680.000007E-3,,,,,-24.22000E-6,-60.000002E-3,
,,,-24.20000E-6,-719.999969E-3,,,,,-24.20000E-6,-58.000002E-3,
,,,-24.18000E-6,-680.000007E-3,,,,,-24.18000E-6,-54.00000E-3,
,,,-24.16000E-6,-719.999969E-3,,,,,-24.16000E-6,-52.00000E-3,
,,,-24.14000E-6,-719.999969E-3,,,,,-24.14000E-6,-54.00000E-3,
,,,-24.12000E-6,-719.999969E-3,,,,,-24.12000E-6,-50.00000E-3,
,,,-24.10000E-6,-719.999969E-3,,,,,-24.10000E-6,-50.00000E-3,
,,,-24.08000E-6,-719.999969E-3,,,,,-24.08000E-6,-44.00000E-3,
,,,-24.06000E-6,-759.999990E-3,,,,,-24.06000E-6,-48.00000E-3,
,,,-24.04000E-6,-839.999974E-3,,,,,-24.04000E-6,-46.00000E-3,
,,,-24.02000E-6,-799.999952E-3,,,,,-24.02000E-6,-44.00000E-3,
,,,-24.00000E-6,-839.999974E-3,,,,,-24.00000E-6,-44.00000E-3,
,,,-23.98000E-6,-839.999974E-3,,,,,-23.98000E-6,-40.00000E-3,
,,,-23.96000E-6,-799.999952E-3,,,,,-23.96000E-6,-40.00000E-3,
,,,-23.94000E-6,-799.999952E-3,,,,,-23.94000E-6,-40.00000E-3,
,,,-23.92000E-6,-879.999995E-3,,,,,-23.92000E-6,-40.00000E-3,
,,,-23.90000E-6,-839.999974E-3,,,,,-23.90000E-6,-38.00000E-3,
,,,-23.88000E-6,-879.999995E-3,,,,,-23.88000E-6,-36.00000E-3,
,,,-23.86000E-6,-879.999995E-3,,,,,-23.86000E-6,-36.00000E-3,
,,,-23.84000E-6,-919.999957E-3,,,,,-23.84000E-6,-36.00000E-3,
,,,-23.82000E-6,-919.999957E-3,,,,,-23.82000E-6,-34.00000E-3,
,,,-23.80000E-6,-919.999957E-3,,,,,-23.80000E-6,-32.00000E-3,
,,,-23.78000E-6,-919.999957E-3,,,,,-23.78000E-6,-32.00000E-3,
,,,-23.76000E-6,-919.999957E-3,,,,,-23.76000E-6,-32.00000E-3,
,,,-23.74000E-6,-1.000,,,,,-23.74000E-6,-32.00000E-3,
,,,-23.72000E-6,-959.999979E-3,,,,,-23.72000E-6,-30.00000E-3,
,,,-23.70000E-6,-959.999979E-3,,,,,-23.70000E-6,-28.00000E-3,
,,,-23.68000E-6,-1.0400,,,,,-23.68000E-6,-26.00000E-3,
,,,-23.66000E-6,-1.0400,,,,,-23.66000E-6,-28.00000E-3,
,,,-23.64000E-6,-1.0800,,,,,-23.64000E-6,-30.00000E-3,
,,,-23.62000E-6,-1.0400,,,,,-23.62000E-6,-26.00000E-3,
,,,-23.60000E-6,-1.0400,,,,,-23.60000E-6,-24.00000E-3,
,,,-23.58000E-6,-1.0400,,,,,-23.58000E-6,-28.00000E-3,
,,,-23.56000E-6,-1.0800,,,,,-23.56000E-6,-22.00000E-3,
,,,-23.54000E-6,-1.0800,,,,,-23.54000E-6,-24.00000E-3,
,,,-23.52000E-6,-1.1200,,,,,-23.52000E-6,-24.00000E-3,
,,,-23.50000E-6,-1.0800,,,,,-23.50000E-6,-28.00000E-3,
,,,-23.48000E-6,-1.1600,,,,,-23.48000E-6,-22.00000E-3,
,,,-23.46000E-6,-1.1200,,,,,-23.46000E-6,-22.00000E-3,
,,,-23.44000E-6,-1.2000,,,,,-23.44000E-6,-24.00000E-3,
,,,-23.42000E-6,-1.1600,,,,,-23.42000E-6,-20.0000E-3,
,,,-23.40000E-6,-1.2000,,,,,-23.40000E-6,-22.00000E-3,
,,,-23.38000E-6,-1.2000,,,,,-23.38000E-6,-22.00000E-3,
,,,-23.36000E-6,-1.2400,,,,,-23.36000E-6,-20.0000E-3,
,,,-23.34000E-6,-1.2400,,,,,-23.34000E-6,-22.00000E-3,
,,,-23.32000E-6,-1.2000,,,,,-23.32000E-6,-18.0000E-3,
,,,-23.30000E-6,-1.2400,,,,,-23.30000E-6,-20.0000E-3,
,,,-23.28000E-6,-1.2800,,,,,-23.28000E-6,-20.0000E-3,
,,,-23.26000E-6,-1.2800,,,,,-23.26000E-6,-18.0000E-3,
,,,-23.24000E-6,-1.3200,,,,,-23.24000E-6,-18.0000E-3,
,,,-23.22000E-6,-1.2800,,,,,-23.22000E-6,-18.0000E-3,
,,,-23.20000E-6,-1.3200,,,,,-23.20000E-6,-20.0000E-3,
,,,-23.18000E-6,-1.3200,,,,,-23.18000E-6,-20.0000E-3,
,,,-23.16000E-6,-1.3200,,,,,-23.16000E-6,-18.0000E-3,
,,,-23.14000E-6,-1.3600,,,,,-23.14000E-6,-16.0000E-3,
,,,-23.12000E-6,-1.4000,,,,,-23.12000E-6,-14.0000E-3,
,,,-23.10000E-6,-1.4000,,,,,-23.10000E-6,-18.0000E-3,
,,,-23.08000E-6,-1.4400,,,,,-23.08000E-6,-16.0000E-3,
,,,-23.06000E-6,-1.4400,,,,,-23.06000E-6,-16.0000E-3,
,,,-23.04000E-6,-1.4000,,,,,-23.04000E-6,-14.0000E-3,
,,,-23.02000E-6,-1.4000,,,,,-23.02000E-6,-14.0000E-3,
,,,-23.00000E-6,-1.4400,,,,,-23.00000E-6,-18.0000E-3,
,,,-22.98000E-6,-1.4800,,,,,-22.98000E-6,-18.0000E-3,
,,,-22.96000E-6,-1.4400,,,,,-22.96000E-6,-16.0000E-3,
,,,-22.94000E-6,-1.4800,,,,,-22.94000E-6,-14.0000E-3,
,,,-22.92000E-6,-1.5200,,,,,-22.92000E-6,-18.0000E-3,
,,,-22.90000E-6,-1.5200,,,,,-22.90000E-6,-16.0000E-3,
,,,-22.88000E-6,-1.5200,,,,,-22.88000E-6,-16.0000E-3,
,,,-22.86000E-6,-1.5600,,,,,-22.86000E-6,-12.0000E-3,
,,,-22.84000E-6,-1.6000,,,,,-22.84000E-6,-14.0000E-3,
,,,-22.82000E-6,-1.5600,,,,,-22.82000E-6,-14.0000E-3,
,,,-22.80000E-6,-1.6000,,,,,-22.80000E-6,-12.0000E-3,
,,,-22.78000E-6,-1.6000,,,,,-22.78000E-6,-16.0000E-3,
,,,-22.76000E-6,-1.6000,,,,,-22.76000E-6,-14.0000E-3,
,,,-22.74000E-6,-1.5600,,,,,-22.74000E-6,-14.0000E-3,
,,,-22.72000E-6,-1.6000,,,,,-22.72000E-6,-12.0000E-3,
,,,-22.70000E-6,-1.6400,,,,,-22.70000E-6,-14.0000E-3,
,,,-22.68000E-6,-1.6400,,,,,-22.68000E-6,-14.0000E-3,
,,,-22.66000E-6,-1.6800,,,,,-22.66000E-6,-12.0000E-3,
,,,-22.64000E-6,-1.7200,,,,,-22.64000E-6,-14.0000E-3,
,,,-22.62000E-6,-1.6800,,,,,-22.62000E-6,-14.0000E-3,
,,,-22.60000E-6,-1.6800,,,,,-22.60000E-6,-12.0000E-3,
,,,-22.58000E-6,-1.6800,,,,,-22.58000E-6,-8.000000E-3,
,,,-22.56000E-6,-1.6800,,,,,-22.56000E-6,-10.0000E-3,
,,,-22.54000E-6,-1.7600,,,,,-22.54000E-6,-10.0000E-3,
,,,-22.52000E-6,-1.7600,,,,,-22.52000E-6,-14.0000E-3,
,,,-22.50000E-6,-1.7200,,,,,-22.50000E-6,-12.0000E-3,
,,,-22.48000E-6,-1.7600,,,,,-22.48000E-6,-10.0000E-3,
,,,-22.46000E-6,-1.7600,,,,,-22.46000E-6,-6.00000E-3,
,,,-22.44000E-6,-1.7600,,,,,-22.44000E-6,-10.0000E-3,
,,,-22.42000E-6,-1.8400,,,,,-22.42000E-6,-10.0000E-3,
,,,-22.40000E-6,-1.8000,,,,,-22.40000E-6,-10.0000E-3,
,,,-22.38000E-6,-1.8400,,,,,-22.38000E-6,-10.0000E-3,
,,,-22.36000E-6,-1.8000,,,,,-22.36000E-6,-10.0000E-3,
,,,-22.34000E-6,-1.8800,,,,,-22.34000E-6,-12.0000E-3,
,,,-22.32000E-6,-1.9600,,,,,-22.32000E-6,-10.0000E-3,
,,,-22.30000E-6,-1.8800,,,,,-22.30000E-6,-12.0000E-3,
,,,-22.28000E-6,-1.8000,,,,,-22.28000E-6,-10.0000E-3,
,,,-22.26000E-6,-1.9200,,,,,-22.26000E-6,-8.000000E-3,
,,,-22.24000E-6,-1.9200,,,,,-22.24000E-6,-10.0000E-3,
,,,-22.22000E-6,-1.9200,,,,,-22.22000E-6,-12.0000E-3,
,,,-22.20000E-6,-1.9600,,,,,-22.20000E-6,-6.00000E-3,
,,,-22.18000E-6,-1.9600,,,,,-22.18000E-6,-8.000000E-3,
,,,-22.16000E-6,-2.0000,,,,,-22.16000E-6,-10.0000E-3,
,,,-22.14000E-6,-2.0400,,,,,-22.14000E-6,-10.0000E-3,
,,,-22.12000E-6,-1.9600,,,,,-22.12000E-6,-8.000000E-3,
,,,-22.10000E-6,-1.9600,,,,,-22.10000E-6,-10.0000E-3,
,,,-22.08000E-6,-2.0000,,,,,-22.08000E-6,-8.000000E-3,
,,,-22.06000E-6,-2.0400,,,,,-22.06000E-6,-8.000000E-3,
,,,-22.04000E-6,-2.0400,,,,,-22.04000E-6,-10.0000E-3,
,,,-22.02000E-6,-2.0400,,,,,-22.02000E-6,-8.000000E-3,
,,,-22.00000E-6,-2.0400,,,,,-22.00000E-6,-6.00000E-3,
,,,-21.98000E-6,-2.0000,,,,,-21.98000E-6,-6.00000E-3,
,,,-21.96000E-6,-2.0800,,,,,-21.96000E-6,-8.000000E-3,
,,,-21.94000E-6,-2.0800,,,,,-21.94000E-6,-8.000000E-3,
,,,-21.92000E-6,-2.0800,,,,,-21.92000E-6,-6.00000E-3,
,,,-21.90000E-6,-2.1200,,,,,-21.90000E-6,-4.00000E-3,
,,,-21.88000E-6,-2.1200,,,,,-21.88000E-6,-6.00000E-3,
,,,-21.86000E-6,-2.2000,,,,,-21.86000E-6,-8.000000E-3,
,,,-21.84000E-6,-2.1600,,,,,-21.84000E-6,-6.00000E-3,
,,,-21.82000E-6,-2.1200,,,,,-21.82000E-6,-6.00000E-3,
,,,-21.80000E-6,-2.1600,,,,,-21.80000E-6,-4.00000E-3,
,,,-21.78000E-6,-2.2000,,,,,-21.78000E-6,-6.00000E-3,
,,,-21.76000E-6,-2.2800,,,,,-21.76000E-6,-6.00000E-3,
,,,-21.74000E-6,-2.2000,,,,,-21.74000E-6,-8.000000E-3,
,,,-21.72000E-6,-2.2000,,,,,-21.72000E-6,-6.00000E-3,
,,,-21.70000E-6,-2.2000,,,,,-21.70000E-6,-6.00000E-3,
,,,-21.68000E-6,-2.2800,,,,,-21.68000E-6,-6.00000E-3,
,,,-21.66000E-6,-2.3200,,,,,-21.66000E-6,-8.000000E-3,
,,,-21.64000E-6,-2.2400,,,,,-21.64000E-6,-4.00000E-3,
,,,-21.62000E-6,-2.3200,,,,,-21.62000E-6,-4.00000E-3,
,,,-21.60000E-6,-2.2800,,,,,-21.60000E-6,-6.00000E-3,
,,,-21.58000E-6,-2.3200,,,,,-21.58000E-6,-6.00000E-3,
,,,-21.56000E-6,-2.3200,,,,,-21.56000E-6,-4.00000E-3,
,,,-21.54000E-6,-2.3200,,,,,-21.54000E-6,-6.00000E-3,
,,,-21.52000E-6,-2.3600,,,,,-21.52000E-6,-8.000000E-3,
,,,-21.50000E-6,-2.4000,,,,,-21.50000E-6,-6.00000E-3,
,,,-21.48000E-6,-2.4400,,,,,-21.48000E-6,-4.00000E-3,
,,,-21.46000E-6,-2.4000,,,,,-21.46000E-6,-4.00000E-3,
,,,-21.44000E-6,-2.3600,,,,,-21.44000E-6,-4.00000E-3,
,,,-21.42000E-6,-2.3600,,,,,-21.42000E-6,-4.00000E-3,
,,,-21.40000E-6,-2.4000,,,,,-21.40000E-6,-6.00000E-3,
,,,-21.38000E-6,-2.4800,,,,,-21.38000E-6,-6.00000E-3,
,,,-21.36000E-6,-2.4400,,,,,-21.36000E-6,-4.00000E-3,
,,,-21.34000E-6,-2.4400,,,,,-21.34000E-6,-4.00000E-3,
,,,-21.32000E-6,-2.4800,,,,,-21.32000E-6,-6.00000E-3,
,,,-21.30000E-6,-2.5600,,,,,-21.30000E-6,-6.00000E-3,
,,,-21.28000E-6,-2.4800,,,,,-21.28000E-6,-6.00000E-3,
,,,-21.26000E-6,-2.5200,,,,,-21.26000E-6,-6.00000E-3,
,,,-21.24000E-6,-2.5200,,,,,-21.24000E-6,-4.00000E-3,
,,,-21.22000E-6,-2.6000,,,,,-21.22000E-6,-6.00000E-3,
,,,-21.20000E-6,-2.5200,,,,,-21.20000E-6,-6.00000E-3,
,,,-21.18000E-6,-2.5200,,,,,-21.18000E-6,-8.000000E-3,
,,,-21.16000E-6,-2.5600,,,,,-21.16000E-6,-8.000000E-3,
,,,-21.14000E-6,-2.5600,,,,,-21.14000E-6,-6.00000E-3,
,,,-21.12000E-6,-2.6000,,,,,-21.12000E-6,-10.0000E-3,
,,,-21.10000E-6,-2.6000,,,,,-21.10000E-6,-8.000000E-3,
,,,-21.08000E-6,-2.5200,,,,,-21.08000E-6,-8.000000E-3,
,,,-21.06000E-6,-2.5200,,,,,-21.06000E-6,-6.00000E-3,
,,,-21.04000E-6,-2.4800,,,,,-21.04000E-6,-8.000000E-3,
,,,-21.02000E-6,-2.5200,,,,,-21.02000E-6,-6.00000E-3,
,,,-21.00000E-6,-2.5600,,,,,-21.00000E-6,-8.000000E-3,
,,,-20.98000E-6,-2.4800,,,,,-20.98000E-6,-8.000000E-3,
,,,-20.96000E-6,-2.4400,,,,,-20.96000E-6,-6.00000E-3,
,,,-20.94000E-6,-2.4800,,,,,-20.94000E-6,-8.000000E-3,
,,,-20.92000E-6,-2.4800,,,,,-20.92000E-6,-8.000000E-3,
,,,-20.90000E-6,-2.4400,,,,,-20.90000E-6,-10.0000E-3,
,,,-20.88000E-6,-2.4000,,,,,-20.88000E-6,-8.000000E-3,
,,,-20.86000E-6,-2.4400,,,,,-20.86000E-6,-8.000000E-3,
,,,-20.84000E-6,-2.4000,,,,,-20.84000E-6,-8.000000E-3,
,,,-20.82000E-6,-2.4000,,,,,-20.82000E-6,-10.0000E-3,
,,,-20.80000E-6,-2.3200,,,,,-20.80000E-6,-12.0000E-3,
,,,-20.78000E-6,-2.3600,,,,,-20.78000E-6,-8.000000E-3,
,,,-20.76000E-6,-2.3200,,,,,-20.76000E-6,-8.000000E-3,
,,,-20.74000E-6,-2.3600,,,,,-20.74000E-6,-12.0000E-3,
,,,-20.72000E-6,-2.4000,,,,,-20.72000E-6,-14.0000E-3,
,,,-20.70000E-6,-2.2800,,,,,-20.70000E-6,-12.0000E-3,
,,,-20.68000E-6,-2.3200,,,,,-20.68000E-6,-12.0000E-3,
,,,-20.66000E-6,-2.3600,,,,,-20.66000E-6,-14.0000E-3,
,,,-20.64000E-6,-2.3200,,,,,-20.64000E-6,-14.0000E-3,
,,,-20.62000E-6,-2.2800,,,,,-20.62000E-6,-14.0000E-3,
,,,-20.60000E-6,-2.2800,,,,,-20.60000E-6,-14.0000E-3,
,,,-20.58000E-6,-2.2000,,,,,-20.58000E-6,-12.0000E-3,
,,,-20.56000E-6,-2.2800,,,,,-20.56000E-6,-14.0000E-3,
,,,-20.54000E-6,-2.2400,,,,,-20.54000E-6,-16.0000E-3,
,,,-20.52000E-6,-2.2000,,,,,-20.52000E-6,-14.0000E-3,
,,,-20.50000E-6,-2.2000,,,,,-20.50000E-6,-14.0000E-3,
,,,-20.48000E-6,-2.1600,,,,,-20.48000E-6,-16.0000E-3,
,,,-20.46000E-6,-2.1600,,,,,-20.46000E-6,-18.0000E-3,
,,,-20.44000E-6,-2.1600,,,,,-20.44000E-6,-18.0000E-3,
,,,-20.42000E-6,-2.1200,,,,,-20.42000E-6,-16.0000E-3,
,,,-20.40000E-6,-2.0800,,,,,-20.40000E-6,-18.0000E-3,
,,,-20.38000E-6,-2.0800,,,,,-20.38000E-6,-18.0000E-3,
,,,-20.36000E-6,-2.1600,,,,,-20.36000E-6,-20.0000E-3,
,,,-20.34000E-6,-2.1200,,,,,-20.34000E-6,-22.00000E-3,
,,,-20.32000E-6,-2.0800,,,,,-20.32000E-6,-20.0000E-3,
,,,-20.30000E-6,-2.0400,,,,,-20.30000E-6,-18.0000E-3,
,,,-20.28000E-6,-2.1200,,,,,-20.28000E-6,-22.00000E-3,
,,,-20.26000E-6,-2.0400,,,,,-20.26000E-6,-22.00000E-3,
,,,-20.24000E-6,-2.0400,,,,,-20.24000E-6,-22.00000E-3,
,,,-20.22000E-6,-2.0000,,,,,-20.22000E-6,-24.00000E-3,
,,,-20.20000E-6,-2.0000,,,,,-20.20000E-6,-20.0000E-3,
,,,-20.18000E-6,-2.0000,,,,,-20.18000E-6,-24.00000E-3,
,,,-20.16000E-6,-2.0400,,,,,-20.16000E-6,-26.00000E-3,
,,,-20.14000E-6,-2.0000,,,,,-20.14000E-6,-26.00000E-3,
,,,-20.12000E-6,-1.9200,,,,,-20.12000E-6,-24.00000E-3,
,,,-20.10000E-6,-1.9200,,,,,-20.10000E-6,-26.00000E-3,
,,,-20.0800E-6,-1.9600,,,,,-20.0800E-6,-30.00000E-3,
,,,-20.0600E-6,-1.9600,,,,,-20.0600E-6,-28.00000E-3,
,,,-20.0400E-6,-1.9600,,,,,-20.0400E-6,-28.00000E-3,
,,,-20.0200E-6,-1.8800,,,,,-20.0200E-6,-26.00000E-3,
,,,-20.0000E-6,-1.8000,,,,,-20.0000E-6,-28.00000E-3,
,,,-19.9800E-6,-1.8800,,,,,-19.9800E-6,-30.00000E-3,
,,,-19.9600E-6,-1.8800,,,,,-19.9600E-6,-34.00000E-3,
,,,-19.9400E-6,-1.8400,,,,,-19.9400E-6,-30.00000E-3,
,,,-19.9200E-6,-1.8000,,,,,-19.9200E-6,-30.00000E-3,
,,,-19.9000E-6,-1.8400,,,,,-19.9000E-6,-32.00000E-3,
,,,-19.8800E-6,-1.8400,,,,,-19.8800E-6,-32.00000E-3,
,,,-19.8600E-6,-1.7600,,,,,-19.8600E-6,-32.00000E-3,
,,,-19.8400E-6,-1.7600,,,,,-19.8400E-6,-34.00000E-3,
,,,-19.8200E-6,-1.7600,,,,,-19.8200E-6,-34.00000E-3,
,,,-19.8000E-6,-1.7600,,,,,-19.8000E-6,-34.00000E-3,
,,,-19.7800E-6,-1.8400,,,,,-19.7800E-6,-34.00000E-3,
,,,-19.7600E-6,-1.7200,,,,,-19.7600E-6,-38.00000E-3,
,,,-19.7400E-6,-1.6800,,,,,-19.7400E-6,-34.00000E-3,
,,,-19.7200E-6,-1.6800,,,,,-19.7200E-6,-36.00000E-3,
,,,-19.7000E-6,-1.6800,,,,,-19.7000E-6,-40.00000E-3,
,,,-19.6800E-6,-1.7200,,,,,-19.6800E-6,-38.00000E-3,
,,,-19.6600E-6,-1.6400,,,,,-19.6600E-6,-38.00000E-3,
,,,-19.6400E-6,-1.6000,,,,,-19.6400E-6,-40.00000E-3,
,,,-19.6200E-6,-1.6400,,,,,-19.6200E-6,-44.00000E-3,
,,,-19.6000E-6,-1.6000,,,,,-19.6000E-6,-42.00000E-3,
,,,-19.5800E-6,-1.6000,,,,,-19.5800E-6,-44.00000E-3,
,,,-19.5600E-6,-1.6000,,,,,-19.5600E-6,-42.00000E-3,
,,,-19.5400E-6,-1.6000,,,,,-19.5400E-6,-48.00000E-3,
,,,-19.5200E-6,-1.6400,,,,,-19.5200E-6,-44.00000E-3,
,,,-19.5000E-6,-1.6400,,,,,-19.5000E-6,-48.00000E-3,
,,,-19.4800E-6,-1.5600,,,,,-19.4800E-6,-46.00000E-3,
,,,-19.4600E-6,-1.4800,,,,,-19.4600E-6,-48.00000E-3,
,,,-19.4400E-6,-1.4800,,,,,-19.4400E-6,-50.00000E-3,
,,,-19.4200E-6,-1.5200,,,,,-19.4200E-6,-48.00000E-3,
,,,-19.4000E-6,-1.5200,,,,,-19.4000E-6,-48.00000E-3,
,,,-19.3800E-6,-1.5200,,,,,-19.3800E-6,-50.00000E-3,
,,,-19.3600E-6,-1.4800,,,,,-19.3600E-6,-48.00000E-3,
,,,-19.3400E-6,-1.4800,,,,,-19.3400E-6,-50.00000E-3,
,,,-19.3200E-6,-1.4800,,,,,-19.3200E-6,-52.00000E-3,
,,,-19.3000E-6,-1.4400,,,,,-19.3000E-6,-54.00000E-3,
,,,-19.2800E-6,-1.4800,,,,,-19.2800E-6,-54.00000E-3,
,,,-19.2600E-6,-1.4000,,,,,-19.2600E-6,-52.00000E-3,
,,,-19.2400E-6,-1.4400,,,,,-19.2400E-6,-58.000002E-3,
,,,-19.2200E-6,-1.4000,,,,,-19.2200E-6,-56.000002E-3,
,,,-19.2000E-6,-1.4000,,,,,-19.2000E-6,-58.000002E-3,
,,,-19.1800E-6,-1.4000,,,,,-19.1800E-6,-58.000002E-3,
,,,-19.1600E-6,-1.3600,,,,,-19.1600E-6,-56.000002E-3,
,,,-19.1400E-6,-1.4000,,,,,-19.1400E-6,-60.000002E-3,
,,,-19.1200E-6,-1.3600,,,,,-19.1200E-6,-60.000002E-3,
,,,-19.1000E-6,-1.2800,,,,,-19.1000E-6,-60.000002E-3,
,,,-19.0800E-6,-1.3200,,,,,-19.0800E-6,-60.000002E-3,
,,,-19.0600E-6,-1.2800,,,,,-19.0600E-6,-62.000003E-3,
,,,-19.0400E-6,-1.2800,,,,,-19.0400E-6,-64.000003E-3,
,,,-19.0200E-6,-1.2800,,,,,-19.0200E-6,-68.000004E-3,
,,,-19.0000E-6,-1.2400,,,,,-19.0000E-6,-68.000004E-3,
,,,-18.9800E-6,-1.2000,,,,,-18.9800E-6,-66.000000E-3,
,,,-18.9600E-6,-1.2400,,,,,-18.9600E-6,-70.000000E-3,
,,,-18.9400E-6,-1.2800,,,,,-18.9400E-6,-68.000004E-3,
,,,-18.9200E-6,-1.2400,,,,,-18.9200E-6,-70.000000E-3,
,,,-18.9000E-6,-1.2400,,,,,-18.9000E-6,-70.000000E-3,
,,,-18.8800E-6,-1.2000,,,,,-18.8800E-6,-74.000001E-3,
,,,-18.8600E-6,-1.2000,,,,,-18.8600E-6,-74.000001E-3,
,,,-18.8400E-6,-1.1600,,,,,-18.8400E-6,-74.000001E-3,
,,,-18.8200E-6,-1.1200,,,,,-18.8200E-6,-74.000001E-3,
,,,-18.8000E-6,-1.1200,,,,,-18.8000E-6,-74.000001E-3,
,,,-18.7800E-6,-1.0800,,,,,-18.7800E-6,-76.000005E-3,
,,,-18.7600E-6,-1.1200,,,,,-18.7600E-6,-78.000002E-3,
,,,-18.7400E-6,-1.1600,,,,,-18.7400E-6,-80.000006E-3,
,,,-18.7200E-6,-1.0400,,,,,-18.7200E-6,-80.000006E-3,
,,,-18.7000E-6,-1.0800,,,,,-18.7000E-6,-80.000006E-3,
,,,-18.6800E-6,-1.0800,,,,,-18.6800E-6,-84.000006E-3,
,,,-18.6600E-6,-1.0400,,,,,-18.6600E-6,-84.000006E-3,
,,,-18.6400E-6,-1.000,,,,,-18.6400E-6,-86.000003E-3,
,,,-18.6200E-6,-1.0400,,,,,-18.6200E-6,-84.000006E-3,
,,,-18.6000E-6,-1.000,,,,,-18.6000E-6,-86.000003E-3,
,,,-18.5800E-6,-959.999979E-3,,,,,-18.5800E-6,-84.000006E-3,
,,,-18.5600E-6,-1.0400,,,,,-18.5600E-6,-88.000007E-3,
,,,-18.5400E-6,-1.000,,,,,-18.5400E-6,-84.000006E-3,
,,,-18.5200E-6,-959.999979E-3,,,,,-18.5200E-6,-90.000004E-3,
,,,-18.5000E-6,-879.999995E-3,,,,,-18.5000E-6,-90.000004E-3,
,,,-18.4800E-6,-879.999995E-3,,,,,-18.4800E-6,-92.000008E-3,
,,,-18.4600E-6,-959.999979E-3,,,,,-18.4600E-6,-90.000004E-3,
,,,-18.4400E-6,-879.999995E-3,,,,,-18.4400E-6,-94.000004E-3,
,,,-18.4200E-6,-879.999995E-3,,,,,-18.4200E-6,-94.000004E-3,
,,,-18.4000E-6,-839.999974E-3,,,,,-18.4000E-6,-98.000005E-3,
,,,-18.3800E-6,-839.999974E-3,,,,,-18.3800E-6,-96.000001E-3,
,,,-18.3600E-6,-879.999995E-3,,,,,-18.3600E-6,-98.000005E-3,
,,,-18.3400E-6,-839.999974E-3,,,,,-18.3400E-6,-100.0000E-3,
,,,-18.3200E-6,-799.999952E-3,,,,,-18.3200E-6,-98.000005E-3,
,,,-18.3000E-6,-799.999952E-3,,,,,-18.3000E-6,-98.000005E-3,
,,,-18.2800E-6,-799.999952E-3,,,,,-18.2800E-6,-102.0000E-3,
,,,-18.2600E-6,-839.999974E-3,,,,,-18.2600E-6,-102.0000E-3,
,,,-18.2400E-6,-799.999952E-3,,,,,-18.2400E-6,-102.0000E-3,
,,,-18.2200E-6,-719.999969E-3,,,,,-18.2200E-6,-100.0000E-3,
,,,-18.2000E-6,-719.999969E-3,,,,,-18.2000E-6,-102.0000E-3,
,,,-18.1800E-6,-759.999990E-3,,,,,-18.1800E-6,-102.0000E-3,
,,,-18.1600E-6,-680.000007E-3,,,,,-18.1600E-6,-102.0000E-3,
,,,-18.1400E-6,-719.999969E-3,,,,,-18.1400E-6,-104.0000E-3,
,,,-18.1200E-6,-719.999969E-3,,,,,-18.1200E-6,-102.0000E-3,
,,,-18.1000E-6,-719.999969E-3,,,,,-18.1000E-6,-104.0000E-3,
,,,-18.0800E-6,-759.999990E-3,,,,,-18.0800E-6,-104.0000E-3,
