analog_multiplier/data/s2x2.5fx100k.3.csv

Record Length,2500,Points,-12.5000E-6,-2.3600,,Record Length,2500,Points,-12.5000E-6,-4.80000E-3,
Sample Interval,10.00000E-9,s,-12.4900E-6,-2.4000,,Sample Interval,10.00000E-9,s,-12.4900E-6,-5.60000E-3,
Trigger Point,1.2500E3,Samples,-12.4800E-6,-2.3600,,Trigger Point,1.2500E3,Samples,-12.4800E-6,-3.20000E-3,
,,,-12.4700E-6,-2.4400,,,,,-12.4700E-6,-3.20000E-3,
,,,-12.4600E-6,-2.3200,,,,,-12.4600E-6,-4.00000E-3,
,,,-12.4500E-6,-2.3200,,,,,-12.4500E-6,-4.80000E-3,
Source,CH2,,-12.4400E-6,-2.3600,,Source,CH3,,-12.4400E-6,-3.20000E-3,
Vertical Units,Volts,,-12.4300E-6,-2.2800,,Vertical Units,Volts,,-12.4300E-6,-4.00000E-3,
Vertical Scale,1.000,,-12.4200E-6,-2.3600,,Vertical Scale,20.0000E-3,,-12.4200E-6,-3.20000E-3,
Vertical Offset,0,,-12.4100E-6,-2.3200,,Vertical Offset,0,,-12.4100E-6,-3.20000E-3,
Horizontal Units,s,,-12.4000E-6,-2.3200,,Horizontal Units,s,,-12.4000E-6,-4.00000E-3,
Horizontal Scale,2.5000E-6,,-12.3900E-6,-2.3200,,Horizontal Scale,2.5000E-6,,-12.3900E-6,-3.20000E-3,
Pt Fmt,Y,,-12.3800E-6,-2.2400,,Pt Fmt,Y,,-12.3800E-6,-2.4000E-3,
Yzero,0.0,,-12.3700E-6,-2.2800,,Yzero,2.0000,,-12.3700E-6,-3.20000E-3,
Probe Atten,1.000,,-12.3600E-6,-2.2800,,Probe Atten,1.000,,-12.3600E-6,-1.6000E-3,
,,,-12.3500E-6,-2.2400,,,,,-12.3500E-6,-3.20000E-3,
Note,TDS 224 - 11:11:53 PM   11/13/2015,,-12.3400E-6,-2.2800,,Note,TDS 224 - 11:11:53 PM   11/13/2015,,-12.3400E-6,-2.4000E-3,
,,,-12.3300E-6,-2.2400,,,,,-12.3300E-6,-2.4000E-3,
,,,-12.3200E-6,-2.2400,,,,,-12.3200E-6,-2.4000E-3,
,,,-12.3100E-6,-2.2400,,,,,-12.3100E-6,-3.20000E-3,
,,,-12.3000E-6,-2.2000,,,,,-12.3000E-6,-2.4000E-3,
,,,-12.2900E-6,-2.2000,,,,,-12.2900E-6,-1.6000E-3,
,,,-12.2800E-6,-2.1600,,,,,-12.2800E-6,-1.6000E-3,
,,,-12.2700E-6,-2.1600,,,,,-12.2700E-6,-1.6000E-3,
,,,-12.2600E-6,-2.1600,,,,,-12.2600E-6,-799.999980E-6,
,,,-12.2500E-6,-2.1600,,,,,-12.2500E-6,-2.4000E-3,
,,,-12.2400E-6,-2.2000,,,,,-12.2400E-6,-799.999980E-6,
,,,-12.2300E-6,-2.1200,,,,,-12.2300E-6,-1.6000E-3,
,,,-12.2200E-6,-2.0800,,,,,-12.2200E-6,-2.4000E-3,
,,,-12.2100E-6,-2.1200,,,,,-12.2100E-6,-799.999980E-6,
,,,-12.2000E-6,-2.0400,,,,,-12.2000E-6,-1.6000E-3,
,,,-12.1900E-6,-2.1200,,,,,-12.1900E-6,-1.6000E-3,
,,,-12.1800E-6,-2.0800,,,,,-12.1800E-6,-799.999980E-6,
,,,-12.1700E-6,-2.0400,,,,,-12.1700E-6,-3.20000E-3,
,,,-12.1600E-6,-2.0800,,,,,-12.1600E-6,-799.999980E-6,
,,,-12.1500E-6,-2.0000,,,,,-12.1500E-6,-1.6000E-3,
,,,-12.1400E-6,-2.0400,,,,,-12.1400E-6,-799.999980E-6,
,,,-12.1300E-6,-1.9600,,,,,-12.1300E-6,0.0,
,,,-12.1200E-6,-2.0000,,,,,-12.1200E-6,-799.999980E-6,
,,,-12.1100E-6,-2.0000,,,,,-12.1100E-6,0.0,
,,,-12.1000E-6,-1.9200,,,,,-12.1000E-6,-2.4000E-3,
,,,-12.0900E-6,-2.0000,,,,,-12.0900E-6,-799.999980E-6,
,,,-12.0800E-6,-1.8800,,,,,-12.0800E-6,-799.999980E-6,
,,,-12.0700E-6,-1.9200,,,,,-12.0700E-6,799.999980E-6,
,,,-12.0600E-6,-1.9200,,,,,-12.0600E-6,0.0,
,,,-12.0500E-6,-1.9200,,,,,-12.0500E-6,-1.6000E-3,
,,,-12.0400E-6,-1.8800,,,,,-12.0400E-6,-1.6000E-3,
,,,-12.0300E-6,-1.8800,,,,,-12.0300E-6,-1.6000E-3,
,,,-12.0200E-6,-1.9200,,,,,-12.0200E-6,-1.6000E-3,
,,,-12.0100E-6,-1.8800,,,,,-12.0100E-6,0.0,
,,,-12.0000E-6,-1.8800,,,,,-12.0000E-6,-1.6000E-3,
,,,-11.9900E-6,-1.8800,,,,,-11.9900E-6,-1.6000E-3,
,,,-11.9800E-6,-1.8400,,,,,-11.9800E-6,0.0,
,,,-11.9700E-6,-1.8800,,,,,-11.9700E-6,-2.4000E-3,
,,,-11.9600E-6,-1.8400,,,,,-11.9600E-6,-799.999980E-6,
,,,-11.9500E-6,-1.8400,,,,,-11.9500E-6,-1.6000E-3,
,,,-11.9400E-6,-1.8000,,,,,-11.9400E-6,-1.6000E-3,
,,,-11.9300E-6,-1.8000,,,,,-11.9300E-6,0.0,
,,,-11.9200E-6,-1.7600,,,,,-11.9200E-6,-2.4000E-3,
,,,-11.9100E-6,-1.8000,,,,,-11.9100E-6,-1.6000E-3,
,,,-11.9000E-6,-1.7600,,,,,-11.9000E-6,-2.4000E-3,
,,,-11.8900E-6,-1.7600,,,,,-11.8900E-6,-1.6000E-3,
,,,-11.8800E-6,-1.7600,,,,,-11.8800E-6,-799.999980E-6,
,,,-11.8700E-6,-1.7200,,,,,-11.8700E-6,-1.6000E-3,
,,,-11.8600E-6,-1.7600,,,,,-11.8600E-6,-1.6000E-3,
,,,-11.8500E-6,-1.6800,,,,,-11.8500E-6,-2.4000E-3,
,,,-11.8400E-6,-1.6800,,,,,-11.8400E-6,-4.00000E-3,
,,,-11.8300E-6,-1.6800,,,,,-11.8300E-6,-1.6000E-3,
,,,-11.8200E-6,-1.6800,,,,,-11.8200E-6,-1.6000E-3,
,,,-11.8100E-6,-1.7600,,,,,-11.8100E-6,-1.6000E-3,
,,,-11.8000E-6,-1.6400,,,,,-11.8000E-6,-3.20000E-3,
,,,-11.7900E-6,-1.6400,,,,,-11.7900E-6,-3.20000E-3,
,,,-11.7800E-6,-1.6800,,,,,-11.7800E-6,-1.6000E-3,
,,,-11.7700E-6,-1.6400,,,,,-11.7700E-6,-3.20000E-3,
,,,-11.7600E-6,-1.6400,,,,,-11.7600E-6,-2.4000E-3,
,,,-11.7500E-6,-1.6400,,,,,-11.7500E-6,-4.80000E-3,
,,,-11.7400E-6,-1.6000,,,,,-11.7400E-6,-4.80000E-3,
,,,-11.7300E-6,-1.6000,,,,,-11.7300E-6,-2.4000E-3,
,,,-11.7200E-6,-1.5600,,,,,-11.7200E-6,-4.00000E-3,
,,,-11.7100E-6,-1.5200,,,,,-11.7100E-6,-3.20000E-3,
,,,-11.7000E-6,-1.5600,,,,,-11.7000E-6,-4.00000E-3,
,,,-11.6900E-6,-1.5600,,,,,-11.6900E-6,-3.20000E-3,
,,,-11.6800E-6,-1.5200,,,,,-11.6800E-6,-4.00000E-3,
,,,-11.6700E-6,-1.5200,,,,,-11.6700E-6,-5.60000E-3,
,,,-11.6600E-6,-1.4800,,,,,-11.6600E-6,-4.00000E-3,
,,,-11.6500E-6,-1.5600,,,,,-11.6500E-6,-4.80000E-3,
,,,-11.6400E-6,-1.4800,,,,,-11.6400E-6,-4.00000E-3,
,,,-11.6300E-6,-1.5200,,,,,-11.6300E-6,-4.80000E-3,
,,,-11.6200E-6,-1.4800,,,,,-11.6200E-6,-4.80000E-3,
,,,-11.6100E-6,-1.4800,,,,,-11.6100E-6,-5.60000E-3,
,,,-11.6000E-6,-1.4400,,,,,-11.6000E-6,-5.60000E-3,
,,,-11.5900E-6,-1.4400,,,,,-11.5900E-6,-4.80000E-3,
,,,-11.5800E-6,-1.4800,,,,,-11.5800E-6,-4.80000E-3,
,,,-11.5700E-6,-1.4400,,,,,-11.5700E-6,-5.60000E-3,
,,,-11.5600E-6,-1.4400,,,,,-11.5600E-6,-6.40000E-3,
,,,-11.5500E-6,-1.4400,,,,,-11.5500E-6,-5.60000E-3,
,,,-11.5400E-6,-1.4000,,,,,-11.5400E-6,-5.60000E-3,
,,,-11.5300E-6,-1.4400,,,,,-11.5300E-6,-5.60000E-3,
,,,-11.5200E-6,-1.3600,,,,,-11.5200E-6,-7.20000E-3,
,,,-11.5100E-6,-1.3600,,,,,-11.5100E-6,-5.60000E-3,
,,,-11.5000E-6,-1.3600,,,,,-11.5000E-6,-6.40000E-3,
,,,-11.4900E-6,-1.3600,,,,,-11.4900E-6,-6.40000E-3,
,,,-11.4800E-6,-1.3600,,,,,-11.4800E-6,-6.40000E-3,
,,,-11.4700E-6,-1.3200,,,,,-11.4700E-6,-7.20000E-3,
,,,-11.4600E-6,-1.3200,,,,,-11.4600E-6,-8.800000E-3,
,,,-11.4500E-6,-1.3200,,,,,-11.4500E-6,-7.20000E-3,
,,,-11.4400E-6,-1.2800,,,,,-11.4400E-6,-8.800000E-3,
,,,-11.4300E-6,-1.3200,,,,,-11.4300E-6,-7.20000E-3,
,,,-11.4200E-6,-1.3200,,,,,-11.4200E-6,-7.999999E-3,
,,,-11.4100E-6,-1.3200,,,,,-11.4100E-6,-8.800000E-3,
,,,-11.4000E-6,-1.2800,,,,,-11.4000E-6,-7.999999E-3,
,,,-11.3900E-6,-1.2000,,,,,-11.3900E-6,-8.800000E-3,
,,,-11.3800E-6,-1.2000,,,,,-11.3800E-6,-7.999999E-3,
,,,-11.3700E-6,-1.2400,,,,,-11.3700E-6,-8.800000E-3,
,,,-11.3600E-6,-1.2400,,,,,-11.3600E-6,-9.600000E-3,
,,,-11.3500E-6,-1.2000,,,,,-11.3500E-6,-9.600000E-3,
,,,-11.3400E-6,-1.2000,,,,,-11.3400E-6,-9.600000E-3,
,,,-11.3300E-6,-1.2000,,,,,-11.3300E-6,-9.600000E-3,
,,,-11.3200E-6,-1.2000,,,,,-11.3200E-6,-10.4000E-3,
,,,-11.3100E-6,-1.1600,,,,,-11.3100E-6,-9.600000E-3,
,,,-11.3000E-6,-1.1600,,,,,-11.3000E-6,-9.600000E-3,
,,,-11.2900E-6,-1.1200,,,,,-11.2900E-6,-10.4000E-3,
,,,-11.2800E-6,-1.1200,,,,,-11.2800E-6,-10.4000E-3,
,,,-11.2700E-6,-1.1200,,,,,-11.2700E-6,-10.4000E-3,
,,,-11.2600E-6,-1.1200,,,,,-11.2600E-6,-11.2000E-3,
,,,-11.2500E-6,-1.1600,,,,,-11.2500E-6,-9.600000E-3,
,,,-11.2400E-6,-1.0800,,,,,-11.2400E-6,-11.2000E-3,
,,,-11.2300E-6,-1.0400,,,,,-11.2300E-6,-11.2000E-3,
,,,-11.2200E-6,-1.1200,,,,,-11.2200E-6,-10.4000E-3,
,,,-11.2100E-6,-1.0400,,,,,-11.2100E-6,-11.2000E-3,
,,,-11.2000E-6,-1.0800,,,,,-11.2000E-6,-11.2000E-3,
,,,-11.1900E-6,-1.000,,,,,-11.1900E-6,-11.2000E-3,
,,,-11.1800E-6,-1.0400,,,,,-11.1800E-6,-12.0000E-3,
,,,-11.1700E-6,-1.0400,,,,,-11.1700E-6,-11.2000E-3,
,,,-11.1600E-6,-1.000,,,,,-11.1600E-6,-11.2000E-3,
,,,-11.1500E-6,-1.000,,,,,-11.1500E-6,-12.8000E-3,
,,,-11.1400E-6,-919.999957E-3,,,,,-11.1400E-6,-12.0000E-3,
,,,-11.1300E-6,-959.999979E-3,,,,,-11.1300E-6,-12.0000E-3,
,,,-11.1200E-6,-959.999979E-3,,,,,-11.1200E-6,-12.8000E-3,
,,,-11.1100E-6,-919.999957E-3,,,,,-11.1100E-6,-12.8000E-3,
,,,-11.1000E-6,-919.999957E-3,,,,,-11.1000E-6,-12.0000E-3,
,,,-11.0900E-6,-879.999995E-3,,,,,-11.0900E-6,-11.2000E-3,
,,,-11.0800E-6,-879.999995E-3,,,,,-11.0800E-6,-11.2000E-3,
,,,-11.0700E-6,-919.999957E-3,,,,,-11.0700E-6,-12.8000E-3,
,,,-11.0600E-6,-879.999995E-3,,,,,-11.0600E-6,-14.4000E-3,
,,,-11.0500E-6,-879.999995E-3,,,,,-11.0500E-6,-15.2000E-3,
,,,-11.0400E-6,-839.999974E-3,,,,,-11.0400E-6,-14.4000E-3,
,,,-11.0300E-6,-839.999974E-3,,,,,-11.0300E-6,-13.6000E-3,
,,,-11.0200E-6,-919.999957E-3,,,,,-11.0200E-6,-13.6000E-3,
,,,-11.0100E-6,-799.999952E-3,,,,,-11.0100E-6,-14.4000E-3,
,,,-11.0000E-6,-799.999952E-3,,,,,-11.0000E-6,-14.4000E-3,
,,,-10.9900E-6,-839.999974E-3,,,,,-10.9900E-6,-14.4000E-3,
,,,-10.9800E-6,-839.999974E-3,,,,,-10.9800E-6,-14.4000E-3,
,,,-10.9700E-6,-799.999952E-3,,,,,-10.9700E-6,-14.4000E-3,
,,,-10.9600E-6,-799.999952E-3,,,,,-10.9600E-6,-16.0000E-3,
,,,-10.9500E-6,-719.999969E-3,,,,,-10.9500E-6,-16.0000E-3,
,,,-10.9400E-6,-799.999952E-3,,,,,-10.9400E-6,-15.2000E-3,
,,,-10.9300E-6,-719.999969E-3,,,,,-10.9300E-6,-17.6000E-3,
,,,-10.9200E-6,-719.999969E-3,,,,,-10.9200E-6,-16.0000E-3,
,,,-10.9100E-6,-719.999969E-3,,,,,-10.9100E-6,-16.8000E-3,
,,,-10.9000E-6,-680.000007E-3,,,,,-10.9000E-6,-16.8000E-3,
,,,-10.8900E-6,-639.999986E-3,,,,,-10.8900E-6,-16.8000E-3,
,,,-10.8800E-6,-719.999969E-3,,,,,-10.8800E-6,-16.8000E-3,
,,,-10.8700E-6,-759.999990E-3,,,,,-10.8700E-6,-19.2000E-3,
,,,-10.8600E-6,-680.000007E-3,,,,,-10.8600E-6,-18.4000E-3,
,,,-10.8500E-6,-639.999986E-3,,,,,-10.8500E-6,-18.4000E-3,
,,,-10.8400E-6,-680.000007E-3,,,,,-10.8400E-6,-17.6000E-3,
,,,-10.8300E-6,-639.999986E-3,,,,,-10.8300E-6,-18.4000E-3,
,,,-10.8200E-6,-680.000007E-3,,,,,-10.8200E-6,-17.6000E-3,
,,,-10.8100E-6,-639.999986E-3,,,,,-10.8100E-6,-19.2000E-3,
,,,-10.8000E-6,-599.999964E-3,,,,,-10.8000E-6,-18.4000E-3,
,,,-10.7900E-6,-560.000002E-3,,,,,-10.7900E-6,-17.6000E-3,
,,,-10.7800E-6,-560.000002E-3,,,,,-10.7800E-6,-20.0000E-3,
,,,-10.7700E-6,-599.999964E-3,,,,,-10.7700E-6,-17.6000E-3,
,,,-10.7600E-6,-560.000002E-3,,,,,-10.7600E-6,-20.0000E-3,
,,,-10.7500E-6,-560.000002E-3,,,,,-10.7500E-6,-20.0000E-3,
,,,-10.7400E-6,-560.000002E-3,,,,,-10.7400E-6,-19.2000E-3,
,,,-10.7300E-6,-560.000002E-3,,,,,-10.7300E-6,-20.80000E-3,
,,,-10.7200E-6,-479.999989E-3,,,,,-10.7200E-6,-20.80000E-3,
,,,-10.7100E-6,-479.999989E-3,,,,,-10.7100E-6,-20.0000E-3,
,,,-10.7000E-6,-479.999989E-3,,,,,-10.7000E-6,-20.80000E-3,
,,,-10.6900E-6,-479.999989E-3,,,,,-10.6900E-6,-22.40000E-3,
,,,-10.6800E-6,-479.999989E-3,,,,,-10.6800E-6,-22.40000E-3,
,,,-10.6700E-6,-479.999989E-3,,,,,-10.6700E-6,-21.60000E-3,
,,,-10.6600E-6,-519.999981E-3,,,,,-10.6600E-6,-22.40000E-3,
,,,-10.6500E-6,-439.999998E-3,,,,,-10.6500E-6,-22.40000E-3,
,,,-10.6400E-6,-439.999998E-3,,,,,-10.6400E-6,-21.60000E-3,
,,,-10.6300E-6,-479.999989E-3,,,,,-10.6300E-6,-22.40000E-3,
,,,-10.6200E-6,-399.99998E-3,,,,,-10.6200E-6,-22.40000E-3,
,,,-10.6100E-6,-439.999998E-3,,,,,-10.6100E-6,-22.40000E-3,
,,,-10.6000E-6,-359.99998E-3,,,,,-10.6000E-6,-22.40000E-3,
,,,-10.5900E-6,-399.99998E-3,,,,,-10.5900E-6,-21.60000E-3,
,,,-10.5800E-6,-399.99998E-3,,,,,-10.5800E-6,-24.00000E-3,
,,,-10.5700E-6,-399.99998E-3,,,,,-10.5700E-6,-24.80000E-3,
,,,-10.5600E-6,-399.99998E-3,,,,,-10.5600E-6,-24.00000E-3,
,,,-10.5500E-6,-319.99999E-3,,,,,-10.5500E-6,-24.00000E-3,
,,,-10.5400E-6,-319.99999E-3,,,,,-10.5400E-6,-24.00000E-3,
,,,-10.5300E-6,-319.99999E-3,,,,,-10.5300E-6,-25.60000E-3,
,,,-10.5200E-6,-319.99999E-3,,,,,-10.5200E-6,-23.20000E-3,
,,,-10.5100E-6,-280.00000E-3,,,,,-10.5100E-6,-24.00000E-3,
,,,-10.5000E-6,-280.00000E-3,,,,,-10.5000E-6,-24.80000E-3,
,,,-10.4900E-6,-319.99999E-3,,,,,-10.4900E-6,-25.60000E-3,
,,,-10.4800E-6,-239.99999E-3,,,,,-10.4800E-6,-24.00000E-3,
,,,-10.4700E-6,-280.00000E-3,,,,,-10.4700E-6,-25.60000E-3,
,,,-10.4600E-6,-319.99999E-3,,,,,-10.4600E-6,-24.80000E-3,
,,,-10.4500E-6,-239.99999E-3,,,,,-10.4500E-6,-25.60000E-3,
,,,-10.4400E-6,-280.00000E-3,,,,,-10.4400E-6,-26.40000E-3,
,,,-10.4300E-6,-239.99999E-3,,,,,-10.4300E-6,-26.40000E-3,
,,,-10.4200E-6,-239.99999E-3,,,,,-10.4200E-6,-26.40000E-3,
,,,-10.4100E-6,-199.99999E-3,,,,,-10.4100E-6,-27.20000E-3,
,,,-10.4000E-6,-199.99999E-3,,,,,-10.4000E-6,-27.20000E-3,
,,,-10.3900E-6,-199.99999E-3,,,,,-10.3900E-6,-26.40000E-3,
,,,-10.3800E-6,-199.99999E-3,,,,,-10.3800E-6,-27.20000E-3,
,,,-10.3700E-6,-199.99999E-3,,,,,-10.3700E-6,-27.20000E-3,
,,,-10.3600E-6,-160.00000E-3,,,,,-10.3600E-6,-27.20000E-3,
,,,-10.3500E-6,-160.00000E-3,,,,,-10.3500E-6,-28.80000E-3,
,,,-10.3400E-6,-160.00000E-3,,,,,-10.3400E-6,-28.00000E-3,
,,,-10.3300E-6,-160.00000E-3,,,,,-10.3300E-6,-28.00000E-3,
,,,-10.3200E-6,-160.00000E-3,,,,,-10.3200E-6,-29.60000E-3,
,,,-10.3100E-6,-120.0000E-3,,,,,-10.3100E-6,-28.80000E-3,
,,,-10.3000E-6,-120.0000E-3,,,,,-10.3000E-6,-29.60000E-3,
,,,-10.2900E-6,-79.999998E-3,,,,,-10.2900E-6,-28.00000E-3,
,,,-10.2800E-6,-120.0000E-3,,,,,-10.2800E-6,-28.80000E-3,
,,,-10.2700E-6,-79.999998E-3,,,,,-10.2700E-6,-29.60000E-3,
,,,-10.2600E-6,-79.999998E-3,,,,,-10.2600E-6,-28.00000E-3,
,,,-10.2500E-6,-40.00000E-3,,,,,-10.2500E-6,-30.40000E-3,
,,,-10.2400E-6,-40.00000E-3,,,,,-10.2400E-6,-30.40000E-3,
,,,-10.2300E-6,-79.999998E-3,,,,,-10.2300E-6,-30.40000E-3,
,,,-10.2200E-6,0.0,,,,,-10.2200E-6,-30.40000E-3,
,,,-10.2100E-6,-40.00000E-3,,,,,-10.2100E-6,-31.20000E-3,
,,,-10.2000E-6,40.00000E-3,,,,,-10.2000E-6,-31.20000E-3,
,,,-10.1900E-6,0.0,,,,,-10.1900E-6,-32.00000E-3,
,,,-10.1800E-6,0.0,,,,,-10.1800E-6,-31.20000E-3,
,,,-10.1700E-6,79.999998E-3,,,,,-10.1700E-6,-31.20000E-3,
,,,-10.1600E-6,40.00000E-3,,,,,-10.1600E-6,-33.60000E-3,
,,,-10.1500E-6,79.999998E-3,,,,,-10.1500E-6,-32.00000E-3,
,,,-10.1400E-6,40.00000E-3,,,,,-10.1400E-6,-31.20000E-3,
,,,-10.1300E-6,79.999998E-3,,,,,-10.1300E-6,-32.80000E-3,
,,,-10.1200E-6,79.999998E-3,,,,,-10.1200E-6,-33.60000E-3,
,,,-10.1100E-6,120.0000E-3,,,,,-10.1100E-6,-32.80000E-3,
,,,-10.1000E-6,160.00000E-3,,,,,-10.1000E-6,-32.80000E-3,
,,,-10.0900E-6,120.0000E-3,,,,,-10.0900E-6,-34.40000E-3,
,,,-10.0800E-6,120.0000E-3,,,,,-10.0800E-6,-32.80000E-3,
,,,-10.0700E-6,160.00000E-3,,,,,-10.0700E-6,-32.80000E-3,
,,,-10.0600E-6,120.0000E-3,,,,,-10.0600E-6,-36.00000E-3,
,,,-10.0500E-6,120.0000E-3,,,,,-10.0500E-6,-33.60000E-3,
,,,-10.0400E-6,160.00000E-3,,,,,-10.0400E-6,-34.40000E-3,
,,,-10.0300E-6,160.00000E-3,,,,,-10.0300E-6,-33.60000E-3,
,,,-10.0200E-6,199.99999E-3,,,,,-10.0200E-6,-33.60000E-3,
,,,-10.0100E-6,239.99999E-3,,,,,-10.0100E-6,-34.40000E-3,
,,,-10.00000E-6,239.99999E-3,,,,,-10.00000E-6,-33.60000E-3,
,,,-9.990000E-6,239.99999E-3,,,,,-9.990000E-6,-35.20000E-3,
,,,-9.980000E-6,239.99999E-3,,,,,-9.980000E-6,-34.40000E-3,
,,,-9.970000E-6,239.99999E-3,,,,,-9.970000E-6,-35.20000E-3,
,,,-9.959999E-6,280.00000E-3,,,,,-9.959999E-6,-34.40000E-3,
,,,-9.949999E-6,239.99999E-3,,,,,-9.949999E-6,-34.40000E-3,
,,,-9.939999E-6,280.00000E-3,,,,,-9.939999E-6,-34.40000E-3,
,,,-9.930000E-6,280.00000E-3,,,,,-9.930000E-6,-35.20000E-3,
,,,-9.920000E-6,280.00000E-3,,,,,-9.920000E-6,-35.20000E-3,
,,,-9.910000E-6,280.00000E-3,,,,,-9.910000E-6,-34.40000E-3,
,,,-9.900000E-6,359.99998E-3,,,,,-9.900000E-6,-33.60000E-3,
,,,-9.890000E-6,319.99999E-3,,,,,-9.890000E-6,-35.20000E-3,
,,,-9.880000E-6,359.99998E-3,,,,,-9.880000E-6,-35.20000E-3,
,,,-9.869999E-6,399.99998E-3,,,,,-9.869999E-6,-36.00000E-3,
,,,-9.859999E-6,359.99998E-3,,,,,-9.859999E-6,-35.20000E-3,
,,,-9.850000E-6,359.99998E-3,,,,,-9.850000E-6,-35.20000E-3,
,,,-9.840000E-6,359.99998E-3,,,,,-9.840000E-6,-35.20000E-3,
,,,-9.830000E-6,399.99998E-3,,,,,-9.830000E-6,-35.20000E-3,
,,,-9.820000E-6,399.99998E-3,,,,,-9.820000E-6,-34.40000E-3,
,,,-9.810000E-6,359.99998E-3,,,,,-9.810000E-6,-35.20000E-3,
,,,-9.800000E-6,439.999998E-3,,,,,-9.800000E-6,-34.40000E-3,
,,,-9.790000E-6,439.999998E-3,,,,,-9.790000E-6,-35.20000E-3,
,,,-9.779999E-6,479.999989E-3,,,,,-9.779999E-6,-34.40000E-3,
,,,-9.769999E-6,439.999998E-3,,,,,-9.769999E-6,-34.40000E-3,
,,,-9.760000E-6,479.999989E-3,,,,,-9.760000E-6,-35.20000E-3,
,,,-9.750000E-6,519.999981E-3,,,,,-9.750000E-6,-32.80000E-3,
,,,-9.740000E-6,479.999989E-3,,,,,-9.740000E-6,-35.20000E-3,
,,,-9.730000E-6,519.999981E-3,,,,,-9.730000E-6,-34.40000E-3,
,,,-9.720000E-6,519.999981E-3,,,,,-9.720000E-6,-34.40000E-3,
,,,-9.710000E-6,519.999981E-3,,,,,-9.710000E-6,-35.20000E-3,
,,,-9.699999E-6,519.999981E-3,,,,,-9.699999E-6,-35.20000E-3,
,,,-9.689999E-6,560.000002E-3,,,,,-9.689999E-6,-36.00000E-3,
,,,-9.679999E-6,519.999981E-3,,,,,-9.679999E-6,-35.20000E-3,
,,,-9.670000E-6,560.000002E-3,,,,,-9.670000E-6,-33.60000E-3,
,,,-9.660000E-6,560.000002E-3,,,,,-9.660000E-6,-35.20000E-3,
,,,-9.650000E-6,560.000002E-3,,,,,-9.650000E-6,-35.20000E-3,
,,,-9.640000E-6,599.999964E-3,,,,,-9.640000E-6,-35.20000E-3,
,,,-9.630000E-6,599.999964E-3,,,,,-9.630000E-6,-34.40000E-3,
,,,-9.620000E-6,560.000002E-3,,,,,-9.620000E-6,-35.20000E-3,
,,,-9.609999E-6,639.999986E-3,,,,,-9.609999E-6,-35.20000E-3,
,,,-9.599999E-6,639.999986E-3,,,,,-9.599999E-6,-34.40000E-3,
,,,-9.590000E-6,639.999986E-3,,,,,-9.590000E-6,-35.20000E-3,
,,,-9.580000E-6,599.999964E-3,,,,,-9.580000E-6,-36.00000E-3,
,,,-9.570000E-6,680.000007E-3,,,,,-9.570000E-6,-35.20000E-3,
,,,-9.560000E-6,680.000007E-3,,,,,-9.560000E-6,-35.20000E-3,
,,,-9.550000E-6,680.000007E-3,,,,,-9.550000E-6,-33.60000E-3,
,,,-9.540000E-6,719.999969E-3,,,,,-9.540000E-6,-34.40000E-3,
,,,-9.529999E-6,719.999969E-3,,,,,-9.529999E-6,-36.00000E-3,
,,,-9.519999E-6,719.999969E-3,,,,,-9.519999E-6,-35.20000E-3,
,,,-9.509999E-6,719.999969E-3,,,,,-9.509999E-6,-34.40000E-3,
,,,-9.500000E-6,719.999969E-3,,,,,-9.500000E-6,-36.00000E-3,
,,,-9.490000E-6,759.999990E-3,,,,,-9.490000E-6,-35.20000E-3,
,,,-9.480000E-6,799.999952E-3,,,,,-9.480000E-6,-34.40000E-3,
,,,-9.470000E-6,799.999952E-3,,,,,-9.470000E-6,-34.40000E-3,
,,,-9.460000E-6,759.999990E-3,,,,,-9.460000E-6,-36.00000E-3,
,,,-9.450000E-6,799.999952E-3,,,,,-9.450000E-6,-34.40000E-3,
,,,-9.439999E-6,799.999952E-3,,,,,-9.439999E-6,-34.40000E-3,
,,,-9.429999E-6,799.999952E-3,,,,,-9.429999E-6,-34.40000E-3,
,,,-9.420000E-6,839.999974E-3,,,,,-9.420000E-6,-33.60000E-3,
,,,-9.410000E-6,839.999974E-3,,,,,-9.410000E-6,-35.20000E-3,
,,,-9.400000E-6,799.999952E-3,,,,,-9.400000E-6,-32.80000E-3,
,,,-9.390000E-6,879.999995E-3,,,,,-9.390000E-6,-32.80000E-3,
,,,-9.380000E-6,839.999974E-3,,,,,-9.380000E-6,-33.60000E-3,
,,,-9.370000E-6,879.999995E-3,,,,,-9.370000E-6,-32.80000E-3,
,,,-9.360000E-6,919.999957E-3,,,,,-9.360000E-6,-34.40000E-3,
,,,-9.349999E-6,879.999995E-3,,,,,-9.349999E-6,-34.40000E-3,
,,,-9.339999E-6,919.999957E-3,,,,,-9.339999E-6,-32.80000E-3,
,,,-9.330000E-6,959.999979E-3,,,,,-9.330000E-6,-33.60000E-3,
,,,-9.320000E-6,919.999957E-3,,,,,-9.320000E-6,-31.20000E-3,
,,,-9.310000E-6,959.999979E-3,,,,,-9.310000E-6,-32.80000E-3,
,,,-9.300000E-6,919.999957E-3,,,,,-9.300000E-6,-32.00000E-3,
,,,-9.290000E-6,1.000,,,,,-9.290000E-6,-32.00000E-3,
,,,-9.280000E-6,959.999979E-3,,,,,-9.280000E-6,-32.00000E-3,
,,,-9.269999E-6,1.0400,,,,,-9.269999E-6,-31.20000E-3,
,,,-9.259999E-6,959.999979E-3,,,,,-9.259999E-6,-32.80000E-3,
,,,-9.249999E-6,1.0400,,,,,-9.249999E-6,-32.00000E-3,
,,,-9.240000E-6,1.0400,,,,,-9.240000E-6,-31.20000E-3,
,,,-9.230000E-6,1.0400,,,,,-9.230000E-6,-32.00000E-3,
,,,-9.220000E-6,1.0400,,,,,-9.220000E-6,-32.00000E-3,
,,,-9.210000E-6,1.000,,,,,-9.210000E-6,-32.00000E-3,
,,,-9.200000E-6,1.0800,,,,,-9.200000E-6,-31.20000E-3,
,,,-9.190000E-6,1.0400,,,,,-9.190000E-6,-30.40000E-3,
,,,-9.179999E-6,1.0800,,,,,-9.179999E-6,-30.40000E-3,
,,,-9.169999E-6,1.0800,,,,,-9.169999E-6,-30.40000E-3,
,,,-9.160000E-6,1.1200,,,,,-9.160000E-6,-30.40000E-3,
,,,-9.150000E-6,1.1200,,,,,-9.150000E-6,-31.20000E-3,
,,,-9.140000E-6,1.1200,,,,,-9.140000E-6,-32.00000E-3,
,,,-9.130000E-6,1.1200,,,,,-9.130000E-6,-32.00000E-3,
,,,-9.120000E-6,1.1600,,,,,-9.120000E-6,-31.20000E-3,
,,,-9.110000E-6,1.2000,,,,,-9.110000E-6,-30.40000E-3,
,,,-9.099999E-6,1.1600,,,,,-9.099999E-6,-30.40000E-3,
,,,-9.089999E-6,1.2000,,,,,-9.089999E-6,-31.20000E-3,
,,,-9.079999E-6,1.2000,,,,,-9.079999E-6,-30.40000E-3,
,,,-9.070000E-6,1.1600,,,,,-9.070000E-6,-30.40000E-3,
,,,-9.060000E-6,1.2400,,,,,-9.060000E-6,-29.60000E-3,
,,,-9.050000E-6,1.2400,,,,,-9.050000E-6,-29.60000E-3,
,,,-9.040000E-6,1.2800,,,,,-9.040000E-6,-28.80000E-3,
