analog_multiplier/data/s3y.5x.5.7.csv

Record Length,2500,Points,-1.2500E-3,-504.000008E-3,,Record Length,2500,Points,-1.2500E-3,-288.00002E-3,,Record Length,2500,Points,-1.2500E-3,790.000021E-3,
Sample Interval,1.000E-6,s,-1.2490E-3,-504.000008E-3,,Sample Interval,1.000E-6,s,-1.2490E-3,-280.00000E-3,,Sample Interval,1.000E-6,s,-1.2490E-3,788.000047E-3,
Trigger Point,1.2500E3,Samples,-1.2480E-3,-504.000008E-3,,Trigger Point,1.2500E3,Samples,-1.2480E-3,-272.00001E-3,,Trigger Point,1.2500E3,Samples,-1.2480E-3,786.000013E-3,
,,,-1.2470E-3,-504.000008E-3,,,,,-1.2470E-3,-272.00001E-3,,,,,-1.2470E-3,788.000047E-3,
,,,-1.2460E-3,-504.000008E-3,,,,,-1.2460E-3,-264.00000E-3,,,,,-1.2460E-3,786.000013E-3,
,,,-1.2450E-3,-504.000008E-3,,,,,-1.2450E-3,-256.00001E-3,,,,,-1.2450E-3,784.000039E-3,
Source,CH2,,-1.2440E-3,-496.000022E-3,,Source,CH3,,-1.2440E-3,-256.00001E-3,,Source,CH4,,-1.2440E-3,782.000065E-3,
Vertical Units,Volts,,-1.2430E-3,-504.000008E-3,,Vertical Units,Volts,,-1.2430E-3,-248.00001E-3,,Vertical Units,Volts,,-1.2430E-3,784.000039E-3,
Vertical Scale,200.00001E-3,,-1.2420E-3,-496.000022E-3,,Vertical Scale,200.00001E-3,,-1.2420E-3,-248.00001E-3,,Vertical Scale,50.00000E-3,,-1.2420E-3,782.000065E-3,
Vertical Offset,0,,-1.2410E-3,-504.000008E-3,,Vertical Offset,0,,-1.2410E-3,-240.00001E-3,,Vertical Offset,0,,-1.2410E-3,780.000031E-3,
Horizontal Units,s,,-1.2400E-3,-496.000022E-3,,Horizontal Units,s,,-1.2400E-3,-232.00001E-3,,Horizontal Units,s,,-1.2400E-3,782.000065E-3,
Horizontal Scale,250.00000E-6,,-1.2390E-3,-504.000008E-3,,Horizontal Scale,250.00000E-6,,-1.2390E-3,-224.00001E-3,,Horizontal Scale,250.00000E-6,,-1.2390E-3,780.000031E-3,
Pt Fmt,Y,,-1.2380E-3,-496.000022E-3,,Pt Fmt,Y,,-1.2380E-3,-224.00001E-3,,Pt Fmt,Y,,-1.2380E-3,776.000023E-3,
Yzero,0.0,,-1.2370E-3,-504.000008E-3,,Yzero,0.0,,-1.2370E-3,-216.00001E-3,,Yzero,-13.6000,,-1.2370E-3,778.000057E-3,
Probe Atten,1.000,,-1.2360E-3,-496.000022E-3,,Probe Atten,1.000,,-1.2360E-3,-208.00000E-3,,Probe Atten,1.000,,-1.2360E-3,776.000023E-3,
,,,-1.2350E-3,-504.000008E-3,,,,,-1.2350E-3,-208.00000E-3,,,,,-1.2350E-3,772.000015E-3,
Note,TDS 224 - 12:17:44 AM   11/14/2015,,-1.2340E-3,-496.000022E-3,,Note,TDS 224 - 12:17:44 AM   11/14/2015,,-1.2340E-3,-192.00000E-3,,Note,TDS 224 - 12:17:44 AM   11/14/2015,,-1.2340E-3,776.000023E-3,
,,,-1.2330E-3,-504.000008E-3,,,,,-1.2330E-3,-184.00002E-3,,,,,-1.2330E-3,772.000015E-3,
,,,-1.2320E-3,-496.000022E-3,,,,,-1.2320E-3,-184.00002E-3,,,,,-1.2320E-3,768.000007E-3,
,,,-1.2310E-3,-496.000022E-3,,,,,-1.2310E-3,-176.00001E-3,,,,,-1.2310E-3,766.000032E-3,
,,,-1.2300E-3,-496.000022E-3,,,,,-1.2300E-3,-168.00001E-3,,,,,-1.2300E-3,766.000032E-3,
,,,-1.2290E-3,-496.000022E-3,,,,,-1.2290E-3,-168.00001E-3,,,,,-1.2290E-3,766.000032E-3,
,,,-1.2280E-3,-488.000035E-3,,,,,-1.2280E-3,-160.00001E-3,,,,,-1.2280E-3,762.000024E-3,
,,,-1.2270E-3,-496.000022E-3,,,,,-1.2270E-3,-152.00001E-3,,,,,-1.2270E-3,764.000058E-3,
,,,-1.2260E-3,-488.000035E-3,,,,,-1.2260E-3,-144.0000E-3,,,,,-1.2260E-3,758.000016E-3,
,,,-1.2250E-3,-488.000035E-3,,,,,-1.2250E-3,-144.0000E-3,,,,,-1.2250E-3,756.000042E-3,
,,,-1.2240E-3,-488.000035E-3,,,,,-1.2240E-3,-136.0000E-3,,,,,-1.2240E-3,756.000042E-3,
,,,-1.2230E-3,-488.000035E-3,,,,,-1.2230E-3,-128.0000E-3,,,,,-1.2230E-3,756.000042E-3,
,,,-1.2220E-3,-488.000035E-3,,,,,-1.2220E-3,-128.0000E-3,,,,,-1.2220E-3,756.000042E-3,
,,,-1.2210E-3,-488.000035E-3,,,,,-1.2210E-3,-120.0000E-3,,,,,-1.2210E-3,754.000008E-3,
,,,-1.2200E-3,-488.000035E-3,,,,,-1.2200E-3,-112.0000E-3,,,,,-1.2200E-3,754.000008E-3,
,,,-1.2190E-3,-488.000035E-3,,,,,-1.2190E-3,-104.0000E-3,,,,,-1.2190E-3,752.000034E-3,
,,,-1.2180E-3,-480.000019E-3,,,,,-1.2180E-3,-104.0000E-3,,,,,-1.2180E-3,752.000034E-3,
,,,-1.2170E-3,-488.000035E-3,,,,,-1.2170E-3,-96.000001E-3,,,,,-1.2170E-3,752.000034E-3,
,,,-1.2160E-3,-480.000019E-3,,,,,-1.2160E-3,-88.000007E-3,,,,,-1.2160E-3,750.000060E-3,
,,,-1.2150E-3,-480.000019E-3,,,,,-1.2150E-3,-80.000006E-3,,,,,-1.2150E-3,746.000051E-3,
,,,-1.2140E-3,-480.000019E-3,,,,,-1.2140E-3,-72.000004E-3,,,,,-1.2140E-3,748.000026E-3,
,,,-1.2130E-3,-480.000019E-3,,,,,-1.2130E-3,-72.000004E-3,,,,,-1.2130E-3,746.000051E-3,
,,,-1.2120E-3,-480.000019E-3,,,,,-1.2120E-3,-64.000003E-3,,,,,-1.2120E-3,744.000018E-3,
,,,-1.2110E-3,-480.000019E-3,,,,,-1.2110E-3,-56.000002E-3,,,,,-1.2110E-3,740.000010E-3,
,,,-1.2100E-3,-472.000033E-3,,,,,-1.2100E-3,-48.00000E-3,,,,,-1.2100E-3,740.000010E-3,
,,,-1.2090E-3,-480.000019E-3,,,,,-1.2090E-3,-40.00000E-3,,,,,-1.2090E-3,738.000035E-3,
,,,-1.2080E-3,-480.000019E-3,,,,,-1.2080E-3,-32.00000E-3,,,,,-1.2080E-3,736.000061E-3,
,,,-1.2070E-3,-480.000019E-3,,,,,-1.2070E-3,-32.00000E-3,,,,,-1.2070E-3,736.000061E-3,
,,,-1.2060E-3,-472.000033E-3,,,,,-1.2060E-3,-24.00000E-3,,,,,-1.2060E-3,734.000027E-3,
,,,-1.2050E-3,-472.000033E-3,,,,,-1.2050E-3,-16.0000E-3,,,,,-1.2050E-3,732.000053E-3,
,,,-1.2040E-3,-472.000033E-3,,,,,-1.2040E-3,-8.000000E-3,,,,,-1.2040E-3,730.000019E-3,
,,,-1.2030E-3,-472.000033E-3,,,,,-1.2030E-3,0.0,,,,,-1.2030E-3,730.000019E-3,
,,,-1.2020E-3,-472.000033E-3,,,,,-1.2020E-3,8.000000E-3,,,,,-1.2020E-3,730.000019E-3,
,,,-1.2010E-3,-464.000016E-3,,,,,-1.2010E-3,8.000000E-3,,,,,-1.2010E-3,728.000045E-3,
,,,-1.2000E-3,-464.000016E-3,,,,,-1.2000E-3,16.0000E-3,,,,,-1.2000E-3,726.000011E-3,
,,,-1.1990E-3,-472.000033E-3,,,,,-1.1990E-3,24.00000E-3,,,,,-1.1990E-3,726.000011E-3,
,,,-1.1980E-3,-464.000016E-3,,,,,-1.1980E-3,24.00000E-3,,,,,-1.1980E-3,726.000011E-3,
,,,-1.1970E-3,-472.000033E-3,,,,,-1.1970E-3,32.00000E-3,,,,,-1.1970E-3,722.000062E-3,
,,,-1.1960E-3,-464.000016E-3,,,,,-1.1960E-3,40.00000E-3,,,,,-1.1960E-3,726.000011E-3,
,,,-1.1950E-3,-464.000016E-3,,,,,-1.1950E-3,48.00000E-3,,,,,-1.1950E-3,722.000062E-3,
,,,-1.1940E-3,-464.000016E-3,,,,,-1.1940E-3,56.000002E-3,,,,,-1.1940E-3,720.000029E-3,
,,,-1.1930E-3,-456.000030E-3,,,,,-1.1930E-3,64.000003E-3,,,,,-1.1930E-3,718.000054E-3,
,,,-1.1920E-3,-456.000030E-3,,,,,-1.1920E-3,72.000004E-3,,,,,-1.1920E-3,712.000012E-3,
,,,-1.1910E-3,-456.000030E-3,,,,,-1.1910E-3,72.000004E-3,,,,,-1.1910E-3,716.000021E-3,
,,,-1.1900E-3,-456.000030E-3,,,,,-1.1900E-3,80.000006E-3,,,,,-1.1900E-3,708.000004E-3,
,,,-1.1890E-3,-456.000030E-3,,,,,-1.1890E-3,88.000007E-3,,,,,-1.1890E-3,706.000030E-3,
,,,-1.1880E-3,-456.000030E-3,,,,,-1.1880E-3,88.000007E-3,,,,,-1.1880E-3,706.000030E-3,
,,,-1.1870E-3,-448.000014E-3,,,,,-1.1870E-3,96.000001E-3,,,,,-1.1870E-3,702.000022E-3,
,,,-1.1860E-3,-448.000014E-3,,,,,-1.1860E-3,104.0000E-3,,,,,-1.1860E-3,702.000022E-3,
,,,-1.1850E-3,-448.000014E-3,,,,,-1.1850E-3,112.0000E-3,,,,,-1.1850E-3,702.000022E-3,
,,,-1.1840E-3,-448.000014E-3,,,,,-1.1840E-3,112.0000E-3,,,,,-1.1840E-3,700.000048E-3,
,,,-1.1830E-3,-448.000014E-3,,,,,-1.1830E-3,120.0000E-3,,,,,-1.1830E-3,700.000048E-3,
,,,-1.1820E-3,-440.000027E-3,,,,,-1.1820E-3,128.0000E-3,,,,,-1.1820E-3,700.000048E-3,
,,,-1.1810E-3,-440.000027E-3,,,,,-1.1810E-3,136.0000E-3,,,,,-1.1810E-3,698.000014E-3,
,,,-1.1800E-3,-440.000027E-3,,,,,-1.1800E-3,144.0000E-3,,,,,-1.1800E-3,700.000048E-3,
,,,-1.1790E-3,-440.000027E-3,,,,,-1.1790E-3,152.00001E-3,,,,,-1.1790E-3,694.000006E-3,
,,,-1.1780E-3,-440.000027E-3,,,,,-1.1780E-3,152.00001E-3,,,,,-1.1780E-3,698.000014E-3,
,,,-1.1770E-3,-440.000027E-3,,,,,-1.1770E-3,160.00001E-3,,,,,-1.1770E-3,698.000014E-3,
,,,-1.1760E-3,-432.000011E-3,,,,,-1.1760E-3,168.00001E-3,,,,,-1.1760E-3,696.000040E-3,
,,,-1.1750E-3,-432.000011E-3,,,,,-1.1750E-3,176.00001E-3,,,,,-1.1750E-3,698.000014E-3,
,,,-1.1740E-3,-432.000011E-3,,,,,-1.1740E-3,176.00001E-3,,,,,-1.1740E-3,694.000006E-3,
,,,-1.1730E-3,-424.000025E-3,,,,,-1.1730E-3,184.00002E-3,,,,,-1.1730E-3,692.000031E-3,
,,,-1.1720E-3,-424.000025E-3,,,,,-1.1720E-3,192.00000E-3,,,,,-1.1720E-3,694.000006E-3,
,,,-1.1710E-3,-424.000025E-3,,,,,-1.1710E-3,200.00000E-3,,,,,-1.1710E-3,690.000057E-3,
,,,-1.1700E-3,-424.000025E-3,,,,,-1.1700E-3,200.00000E-3,,,,,-1.1700E-3,688.000023E-3,
,,,-1.1690E-3,-424.000025E-3,,,,,-1.1690E-3,208.00000E-3,,,,,-1.1690E-3,686.000049E-3,
,,,-1.1680E-3,-416.000009E-3,,,,,-1.1680E-3,208.00000E-3,,,,,-1.1680E-3,684.000015E-3,
,,,-1.1670E-3,-416.000009E-3,,,,,-1.1670E-3,216.00001E-3,,,,,-1.1670E-3,682.000041E-3,
,,,-1.1660E-3,-416.000009E-3,,,,,-1.1660E-3,224.00001E-3,,,,,-1.1660E-3,680.000007E-3,
,,,-1.1650E-3,-416.000009E-3,,,,,-1.1650E-3,232.00001E-3,,,,,-1.1650E-3,678.000033E-3,
,,,-1.1640E-3,-416.000009E-3,,,,,-1.1640E-3,232.00001E-3,,,,,-1.1640E-3,680.000007E-3,
,,,-1.1630E-3,-416.000009E-3,,,,,-1.1630E-3,240.00001E-3,,,,,-1.1630E-3,678.000033E-3,
,,,-1.1620E-3,-416.000009E-3,,,,,-1.1620E-3,248.00001E-3,,,,,-1.1620E-3,676.000059E-3,
,,,-1.1610E-3,-408.000022E-3,,,,,-1.1610E-3,248.00001E-3,,,,,-1.1610E-3,676.000059E-3,
,,,-1.1600E-3,-400.00001E-3,,,,,-1.1600E-3,256.00001E-3,,,,,-1.1600E-3,672.000051E-3,
,,,-1.1590E-3,-400.00001E-3,,,,,-1.1590E-3,264.00000E-3,,,,,-1.1590E-3,668.000042E-3,
,,,-1.1580E-3,-400.00001E-3,,,,,-1.1580E-3,272.00001E-3,,,,,-1.1580E-3,662.000060E-3,
,,,-1.1570E-3,-400.00001E-3,,,,,-1.1570E-3,272.00001E-3,,,,,-1.1570E-3,666.000009E-3,
,,,-1.1560E-3,-392.00002E-3,,,,,-1.1560E-3,280.00000E-3,,,,,-1.1560E-3,664.000034E-3,
,,,-1.1550E-3,-392.00002E-3,,,,,-1.1550E-3,288.00002E-3,,,,,-1.1550E-3,662.000060E-3,
,,,-1.1540E-3,-392.00002E-3,,,,,-1.1540E-3,288.00002E-3,,,,,-1.1540E-3,660.000026E-3,
,,,-1.1530E-3,-392.00002E-3,,,,,-1.1530E-3,296.00000E-3,,,,,-1.1530E-3,660.000026E-3,
,,,-1.1520E-3,-392.00002E-3,,,,,-1.1520E-3,304.00002E-3,,,,,-1.1520E-3,656.000018E-3,
,,,-1.1510E-3,-384.00000E-3,,,,,-1.1510E-3,304.00002E-3,,,,,-1.1510E-3,658.000052E-3,
,,,-1.1500E-3,-392.00002E-3,,,,,-1.1500E-3,312.00001E-3,,,,,-1.1500E-3,654.000044E-3,
,,,-1.1490E-3,-384.00000E-3,,,,,-1.1490E-3,312.00001E-3,,,,,-1.1490E-3,652.000010E-3,
,,,-1.1480E-3,-384.00000E-3,,,,,-1.1480E-3,320.00002E-3,,,,,-1.1480E-3,650.000036E-3,
,,,-1.1470E-3,-376.00002E-3,,,,,-1.1470E-3,328.00001E-3,,,,,-1.1470E-3,650.000036E-3,
,,,-1.1460E-3,-376.00002E-3,,,,,-1.1460E-3,328.00001E-3,,,,,-1.1460E-3,648.000002E-3,
,,,-1.1450E-3,-376.00002E-3,,,,,-1.1450E-3,336.00003E-3,,,,,-1.1450E-3,654.000044E-3,
,,,-1.1440E-3,-376.00002E-3,,,,,-1.1440E-3,336.00003E-3,,,,,-1.1440E-3,650.000036E-3,
,,,-1.1430E-3,-376.00002E-3,,,,,-1.1430E-3,344.00001E-3,,,,,-1.1430E-3,650.000036E-3,
,,,-1.1420E-3,-368.00003E-3,,,,,-1.1420E-3,344.00001E-3,,,,,-1.1420E-3,650.000036E-3,
,,,-1.1410E-3,-368.00003E-3,,,,,-1.1410E-3,352.00003E-3,,,,,-1.1410E-3,648.000002E-3,
,,,-1.1400E-3,-368.00003E-3,,,,,-1.1400E-3,360.00001E-3,,,,,-1.1400E-3,648.000002E-3,
,,,-1.1390E-3,-360.00001E-3,,,,,-1.1390E-3,360.00001E-3,,,,,-1.1390E-3,648.000002E-3,
,,,-1.1380E-3,-360.00001E-3,,,,,-1.1380E-3,368.00003E-3,,,,,-1.1380E-3,646.000028E-3,
,,,-1.1370E-3,-360.00001E-3,,,,,-1.1370E-3,368.00003E-3,,,,,-1.1370E-3,646.000028E-3,
,,,-1.1360E-3,-360.00001E-3,,,,,-1.1360E-3,376.00002E-3,,,,,-1.1360E-3,646.000028E-3,
,,,-1.1350E-3,-352.00003E-3,,,,,-1.1350E-3,376.00002E-3,,,,,-1.1350E-3,644.000053E-3,
,,,-1.1340E-3,-352.00003E-3,,,,,-1.1340E-3,384.00000E-3,,,,,-1.1340E-3,642.000020E-3,
,,,-1.1330E-3,-352.00003E-3,,,,,-1.1330E-3,384.00000E-3,,,,,-1.1330E-3,642.000020E-3,
,,,-1.1320E-3,-352.00003E-3,,,,,-1.1320E-3,392.00002E-3,,,,,-1.1320E-3,644.000053E-3,
,,,-1.1310E-3,-344.00001E-3,,,,,-1.1310E-3,392.00002E-3,,,,,-1.1310E-3,638.000011E-3,
,,,-1.1300E-3,-344.00001E-3,,,,,-1.1300E-3,400.00001E-3,,,,,-1.1300E-3,636.000037E-3,
,,,-1.1290E-3,-344.00001E-3,,,,,-1.1290E-3,400.00001E-3,,,,,-1.1290E-3,640.000045E-3,
,,,-1.1280E-3,-336.00003E-3,,,,,-1.1280E-3,408.000022E-3,,,,,-1.1280E-3,632.000029E-3,
,,,-1.1270E-3,-336.00003E-3,,,,,-1.1270E-3,408.000022E-3,,,,,-1.1270E-3,638.000011E-3,
,,,-1.1260E-3,-336.00003E-3,,,,,-1.1260E-3,408.000022E-3,,,,,-1.1260E-3,636.000037E-3,
,,,-1.1250E-3,-328.00001E-3,,,,,-1.1250E-3,416.000009E-3,,,,,-1.1250E-3,634.000003E-3,
,,,-1.1240E-3,-328.00001E-3,,,,,-1.1240E-3,424.000025E-3,,,,,-1.1240E-3,636.000037E-3,
,,,-1.1230E-3,-328.00001E-3,,,,,-1.1230E-3,424.000025E-3,,,,,-1.1230E-3,634.000003E-3,
,,,-1.1220E-3,-328.00001E-3,,,,,-1.1220E-3,432.000011E-3,,,,,-1.1220E-3,634.000003E-3,
,,,-1.1210E-3,-320.00002E-3,,,,,-1.1210E-3,424.000025E-3,,,,,-1.1210E-3,632.000029E-3,
,,,-1.1200E-3,-320.00002E-3,,,,,-1.1200E-3,432.000011E-3,,,,,-1.1200E-3,634.000003E-3,
,,,-1.1190E-3,-312.00001E-3,,,,,-1.1190E-3,440.000027E-3,,,,,-1.1190E-3,632.000029E-3,
,,,-1.1180E-3,-312.00001E-3,,,,,-1.1180E-3,440.000027E-3,,,,,-1.1180E-3,630.000055E-3,
,,,-1.1170E-3,-312.00001E-3,,,,,-1.1170E-3,448.000014E-3,,,,,-1.1170E-3,628.000021E-3,
,,,-1.1160E-3,-312.00001E-3,,,,,-1.1160E-3,448.000014E-3,,,,,-1.1160E-3,630.000055E-3,
,,,-1.1150E-3,-304.00002E-3,,,,,-1.1150E-3,448.000014E-3,,,,,-1.1150E-3,628.000021E-3,
,,,-1.1140E-3,-304.00002E-3,,,,,-1.1140E-3,456.000030E-3,,,,,-1.1140E-3,626.000047E-3,
,,,-1.1130E-3,-304.00002E-3,,,,,-1.1130E-3,456.000030E-3,,,,,-1.1130E-3,622.000039E-3,
,,,-1.1120E-3,-304.00002E-3,,,,,-1.1120E-3,456.000030E-3,,,,,-1.1120E-3,624.000013E-3,
,,,-1.1110E-3,-296.00000E-3,,,,,-1.1110E-3,464.000016E-3,,,,,-1.1110E-3,622.000039E-3,
,,,-1.1100E-3,-296.00000E-3,,,,,-1.1100E-3,464.000016E-3,,,,,-1.1100E-3,622.000039E-3,
,,,-1.1090E-3,-296.00000E-3,,,,,-1.1090E-3,464.000016E-3,,,,,-1.1090E-3,622.000039E-3,
,,,-1.1080E-3,-288.00002E-3,,,,,-1.1080E-3,464.000016E-3,,,,,-1.1080E-3,622.000039E-3,
,,,-1.1070E-3,-288.00002E-3,,,,,-1.1070E-3,472.000033E-3,,,,,-1.1070E-3,622.000039E-3,
,,,-1.1060E-3,-280.00000E-3,,,,,-1.1060E-3,472.000033E-3,,,,,-1.1060E-3,622.000039E-3,
,,,-1.1050E-3,-280.00000E-3,,,,,-1.1050E-3,480.000019E-3,,,,,-1.1050E-3,622.000039E-3,
,,,-1.1040E-3,-272.00001E-3,,,,,-1.1040E-3,472.000033E-3,,,,,-1.1040E-3,620.000005E-3,
,,,-1.1030E-3,-280.00000E-3,,,,,-1.1030E-3,480.000019E-3,,,,,-1.1030E-3,622.000039E-3,
,,,-1.1020E-3,-272.00001E-3,,,,,-1.1020E-3,480.000019E-3,,,,,-1.1020E-3,620.000005E-3,
,,,-1.1010E-3,-272.00001E-3,,,,,-1.1010E-3,488.000035E-3,,,,,-1.1010E-3,618.000031E-3,
,,,-1.1000E-3,-272.00001E-3,,,,,-1.1000E-3,488.000035E-3,,,,,-1.1000E-3,620.000005E-3,
,,,-1.0990E-3,-264.00000E-3,,,,,-1.0990E-3,488.000035E-3,,,,,-1.0990E-3,618.000031E-3,
,,,-1.0980E-3,-264.00000E-3,,,,,-1.0980E-3,488.000035E-3,,,,,-1.0980E-3,618.000031E-3,
,,,-1.0970E-3,-264.00000E-3,,,,,-1.0970E-3,488.000035E-3,,,,,-1.0970E-3,616.000056E-3,
,,,-1.0960E-3,-256.00001E-3,,,,,-1.0960E-3,488.000035E-3,,,,,-1.0960E-3,618.000031E-3,
,,,-1.0950E-3,-256.00001E-3,,,,,-1.0950E-3,496.000022E-3,,,,,-1.0950E-3,616.000056E-3,
,,,-1.0940E-3,-248.00001E-3,,,,,-1.0940E-3,496.000022E-3,,,,,-1.0940E-3,616.000056E-3,
,,,-1.0930E-3,-248.00001E-3,,,,,-1.0930E-3,496.000022E-3,,,,,-1.0930E-3,612.000048E-3,
,,,-1.0920E-3,-248.00001E-3,,,,,-1.0920E-3,496.000022E-3,,,,,-1.0920E-3,614.000022E-3,
,,,-1.0910E-3,-248.00001E-3,,,,,-1.0910E-3,496.000022E-3,,,,,-1.0910E-3,612.000048E-3,
,,,-1.0900E-3,-240.00001E-3,,,,,-1.0900E-3,496.000022E-3,,,,,-1.0900E-3,614.000022E-3,
,,,-1.0890E-3,-232.00001E-3,,,,,-1.0890E-3,504.000008E-3,,,,,-1.0890E-3,612.000048E-3,
,,,-1.0880E-3,-232.00001E-3,,,,,-1.0880E-3,504.000008E-3,,,,,-1.0880E-3,614.000022E-3,
,,,-1.0870E-3,-232.00001E-3,,,,,-1.0870E-3,496.000022E-3,,,,,-1.0870E-3,614.000022E-3,
,,,-1.0860E-3,-232.00001E-3,,,,,-1.0860E-3,504.000008E-3,,,,,-1.0860E-3,612.000048E-3,
,,,-1.0850E-3,-224.00001E-3,,,,,-1.0850E-3,504.000008E-3,,,,,-1.0850E-3,616.000056E-3,
,,,-1.0840E-3,-224.00001E-3,,,,,-1.0840E-3,504.000008E-3,,,,,-1.0840E-3,612.000048E-3,
,,,-1.0830E-3,-224.00001E-3,,,,,-1.0830E-3,504.000008E-3,,,,,-1.0830E-3,612.000048E-3,
,,,-1.0820E-3,-224.00001E-3,,,,,-1.0820E-3,512.000024E-3,,,,,-1.0820E-3,614.000022E-3,
,,,-1.0810E-3,-216.00001E-3,,,,,-1.0810E-3,504.000008E-3,,,,,-1.0810E-3,614.000022E-3,
,,,-1.0800E-3,-208.00000E-3,,,,,-1.0800E-3,504.000008E-3,,,,,-1.0800E-3,612.000048E-3,
,,,-1.0790E-3,-200.00000E-3,,,,,-1.0790E-3,504.000008E-3,,,,,-1.0790E-3,612.000048E-3,
,,,-1.0780E-3,-208.00000E-3,,,,,-1.0780E-3,512.000024E-3,,,,,-1.0780E-3,612.000048E-3,
,,,-1.0770E-3,-200.00000E-3,,,,,-1.0770E-3,504.000008E-3,,,,,-1.0770E-3,610.000014E-3,
,,,-1.0760E-3,-200.00000E-3,,,,,-1.0760E-3,504.000008E-3,,,,,-1.0760E-3,606.000006E-3,
,,,-1.0750E-3,-200.00000E-3,,,,,-1.0750E-3,504.000008E-3,,,,,-1.0750E-3,608.000040E-3,
,,,-1.0740E-3,-192.00000E-3,,,,,-1.0740E-3,504.000008E-3,,,,,-1.0740E-3,608.000040E-3,
,,,-1.0730E-3,-192.00000E-3,,,,,-1.0730E-3,504.000008E-3,,,,,-1.0730E-3,606.000006E-3,
,,,-1.0720E-3,-192.00000E-3,,,,,-1.0720E-3,504.000008E-3,,,,,-1.0720E-3,608.000040E-3,
,,,-1.0710E-3,-184.00002E-3,,,,,-1.0710E-3,504.000008E-3,,,,,-1.0710E-3,606.000006E-3,
,,,-1.0700E-3,-184.00002E-3,,,,,-1.0700E-3,504.000008E-3,,,,,-1.0700E-3,606.000006E-3,
,,,-1.0690E-3,-176.00001E-3,,,,,-1.0690E-3,504.000008E-3,,,,,-1.0690E-3,604.000032E-3,
,,,-1.0680E-3,-176.00001E-3,,,,,-1.0680E-3,504.000008E-3,,,,,-1.0680E-3,612.000048E-3,
,,,-1.0670E-3,-168.00001E-3,,,,,-1.0670E-3,504.000008E-3,,,,,-1.0670E-3,606.000006E-3,
,,,-1.0660E-3,-176.00001E-3,,,,,-1.0660E-3,496.000022E-3,,,,,-1.0660E-3,612.000048E-3,
,,,-1.0650E-3,-168.00001E-3,,,,,-1.0650E-3,504.000008E-3,,,,,-1.0650E-3,608.000040E-3,
,,,-1.0640E-3,-160.00001E-3,,,,,-1.0640E-3,496.000022E-3,,,,,-1.0640E-3,614.000022E-3,
,,,-1.0630E-3,-160.00001E-3,,,,,-1.0630E-3,496.000022E-3,,,,,-1.0630E-3,612.000048E-3,
,,,-1.0620E-3,-160.00001E-3,,,,,-1.0620E-3,496.000022E-3,,,,,-1.0620E-3,610.000014E-3,
,,,-1.0610E-3,-152.00001E-3,,,,,-1.0610E-3,496.000022E-3,,,,,-1.0610E-3,612.000048E-3,
,,,-1.0600E-3,-152.00001E-3,,,,,-1.0600E-3,488.000035E-3,,,,,-1.0600E-3,612.000048E-3,
,,,-1.0590E-3,-144.0000E-3,,,,,-1.0590E-3,496.000022E-3,,,,,-1.0590E-3,610.000014E-3,
,,,-1.0580E-3,-144.0000E-3,,,,,-1.0580E-3,496.000022E-3,,,,,-1.0580E-3,610.000014E-3,
,,,-1.0570E-3,-144.0000E-3,,,,,-1.0570E-3,488.000035E-3,,,,,-1.0570E-3,612.000048E-3,
,,,-1.0560E-3,-136.0000E-3,,,,,-1.0560E-3,488.000035E-3,,,,,-1.0560E-3,612.000048E-3,
,,,-1.0550E-3,-136.0000E-3,,,,,-1.0550E-3,488.000035E-3,,,,,-1.0550E-3,610.000014E-3,
,,,-1.0540E-3,-136.0000E-3,,,,,-1.0540E-3,488.000035E-3,,,,,-1.0540E-3,610.000014E-3,
,,,-1.0530E-3,-128.0000E-3,,,,,-1.0530E-3,480.000019E-3,,,,,-1.0530E-3,612.000048E-3,
,,,-1.0520E-3,-128.0000E-3,,,,,-1.0520E-3,480.000019E-3,,,,,-1.0520E-3,612.000048E-3,
,,,-1.0510E-3,-128.0000E-3,,,,,-1.0510E-3,480.000019E-3,,,,,-1.0510E-3,612.000048E-3,
,,,-1.0500E-3,-120.0000E-3,,,,,-1.0500E-3,472.000033E-3,,,,,-1.0500E-3,610.000014E-3,
,,,-1.0490E-3,-120.0000E-3,,,,,-1.0490E-3,472.000033E-3,,,,,-1.0490E-3,612.000048E-3,
,,,-1.0480E-3,-112.0000E-3,,,,,-1.0480E-3,472.000033E-3,,,,,-1.0480E-3,612.000048E-3,
,,,-1.0470E-3,-112.0000E-3,,,,,-1.0470E-3,472.000033E-3,,,,,-1.0470E-3,608.000040E-3,
,,,-1.0460E-3,-112.0000E-3,,,,,-1.0460E-3,472.000033E-3,,,,,-1.0460E-3,612.000048E-3,
,,,-1.0450E-3,-112.0000E-3,,,,,-1.0450E-3,464.000016E-3,,,,,-1.0450E-3,614.000022E-3,
,,,-1.0440E-3,-104.0000E-3,,,,,-1.0440E-3,464.000016E-3,,,,,-1.0440E-3,612.000048E-3,
,,,-1.0430E-3,-96.000001E-3,,,,,-1.0430E-3,456.000030E-3,,,,,-1.0430E-3,618.000031E-3,
,,,-1.0420E-3,-96.000001E-3,,,,,-1.0420E-3,456.000030E-3,,,,,-1.0420E-3,616.000056E-3,
,,,-1.0410E-3,-96.000001E-3,,,,,-1.0410E-3,456.000030E-3,,,,,-1.0410E-3,612.000048E-3,
,,,-1.0400E-3,-88.000007E-3,,,,,-1.0400E-3,448.000014E-3,,,,,-1.0400E-3,614.000022E-3,
,,,-1.0390E-3,-88.000007E-3,,,,,-1.0390E-3,448.000014E-3,,,,,-1.0390E-3,612.000048E-3,
,,,-1.0380E-3,-88.000007E-3,,,,,-1.0380E-3,448.000014E-3,,,,,-1.0380E-3,610.000014E-3,
,,,-1.0370E-3,-80.000006E-3,,,,,-1.0370E-3,440.000027E-3,,,,,-1.0370E-3,612.000048E-3,
,,,-1.0360E-3,-80.000006E-3,,,,,-1.0360E-3,440.000027E-3,,,,,-1.0360E-3,610.000014E-3,
,,,-1.0350E-3,-80.000006E-3,,,,,-1.0350E-3,440.000027E-3,,,,,-1.0350E-3,610.000014E-3,
,,,-1.0340E-3,-72.000004E-3,,,,,-1.0340E-3,432.000011E-3,,,,,-1.0340E-3,612.000048E-3,
,,,-1.0330E-3,-72.000004E-3,,,,,-1.0330E-3,432.000011E-3,,,,,-1.0330E-3,612.000048E-3,
,,,-1.0320E-3,-64.000003E-3,,,,,-1.0320E-3,424.000025E-3,,,,,-1.0320E-3,610.000014E-3,
,,,-1.0310E-3,-64.000003E-3,,,,,-1.0310E-3,424.000025E-3,,,,,-1.0310E-3,612.000048E-3,
,,,-1.0300E-3,-56.000002E-3,,,,,-1.0300E-3,416.000009E-3,,,,,-1.0300E-3,616.000056E-3,
