analog_multiplier/data/s4x2.5fx50k.3.csv

Record Length,2500,Points,-25.00000E-6,-2.3600,,Record Length,2500,Points,-25.00000E-6,2.3760,
Sample Interval,20.0000E-9,s,-24.98000E-6,-2.3200,,Sample Interval,20.0000E-9,s,-24.98000E-6,2.3680,
Trigger Point,1.2500E3,Samples,-24.96000E-6,-2.4000,,Trigger Point,1.2500E3,Samples,-24.96000E-6,2.3760,
,,,-24.94000E-6,-2.4000,,,,,-24.94000E-6,2.3840,
,,,-24.92000E-6,-2.3600,,,,,-24.92000E-6,2.3840,
,,,-24.90000E-6,-2.3200,,,,,-24.90000E-6,2.3840,
Source,CH2,,-24.88000E-6,-2.3200,,Source,CH3,,-24.88000E-6,2.3920,
Vertical Units,Volts,,-24.86000E-6,-2.3600,,Vertical Units,Volts,,-24.86000E-6,2.3920,
Vertical Scale,1.000,,-24.84000E-6,-2.3600,,Vertical Scale,200.00001E-3,,-24.84000E-6,2.4000,
Vertical Offset,0,,-24.82000E-6,-2.3200,,Vertical Offset,0,,-24.82000E-6,2.4080,
Horizontal Units,s,,-24.80000E-6,-2.2800,,Horizontal Units,s,,-24.80000E-6,2.4000,
Horizontal Scale,5.00000E-6,,-24.78000E-6,-2.3200,,Horizontal Scale,5.00000E-6,,-24.78000E-6,2.4000,
Pt Fmt,Y,,-24.76000E-6,-2.3200,,Pt Fmt,Y,,-24.76000E-6,2.4000,
Yzero,0.0,,-24.74000E-6,-2.2800,,Yzero,-10.0000,,-24.74000E-6,2.4080,
Probe Atten,1.000,,-24.72000E-6,-2.2400,,Probe Atten,1.000,,-24.72000E-6,2.4160,
,,,-24.70000E-6,-2.2400,,,,,-24.70000E-6,2.4080,
Note,TDS 224 - 1:25:14 AM   11/14/2015,,-24.68000E-6,-2.2800,,Note,TDS 224 - 1:25:14 AM   11/14/2015,,-24.68000E-6,2.4080,
,,,-24.66000E-6,-2.2400,,,,,-24.66000E-6,2.4320,
,,,-24.64000E-6,-2.2400,,,,,-24.64000E-6,2.4240,
,,,-24.62000E-6,-2.1600,,,,,-24.62000E-6,2.4240,
,,,-24.60000E-6,-2.1600,,,,,-24.60000E-6,2.4320,
,,,-24.58000E-6,-2.1600,,,,,-24.58000E-6,2.4400,
,,,-24.56000E-6,-2.1600,,,,,-24.56000E-6,2.4400,
,,,-24.54000E-6,-2.1600,,,,,-24.54000E-6,2.4320,
,,,-24.52000E-6,-2.0800,,,,,-24.52000E-6,2.4320,
,,,-24.50000E-6,-2.1200,,,,,-24.50000E-6,2.4400,
,,,-24.48000E-6,-2.2000,,,,,-24.48000E-6,2.4480,
,,,-24.46000E-6,-2.0800,,,,,-24.46000E-6,2.4480,
,,,-24.44000E-6,-2.1200,,,,,-24.44000E-6,2.4480,
,,,-24.42000E-6,-2.0400,,,,,-24.42000E-6,2.4560,
,,,-24.40000E-6,-2.0400,,,,,-24.40000E-6,2.4480,
,,,-24.38000E-6,-2.1200,,,,,-24.38000E-6,2.4560,
,,,-24.36000E-6,-2.0000,,,,,-24.36000E-6,2.4640,
,,,-24.34000E-6,-2.0400,,,,,-24.34000E-6,2.4640,
,,,-24.32000E-6,-2.0400,,,,,-24.32000E-6,2.4480,
,,,-24.30000E-6,-2.0400,,,,,-24.30000E-6,2.4640,
,,,-24.28000E-6,-2.0400,,,,,-24.28000E-6,2.4720,
,,,-24.26000E-6,-1.9600,,,,,-24.26000E-6,2.4720,
,,,-24.24000E-6,-2.0000,,,,,-24.24000E-6,2.4640,
,,,-24.22000E-6,-1.9600,,,,,-24.22000E-6,2.4640,
,,,-24.20000E-6,-2.0000,,,,,-24.20000E-6,2.4800,
,,,-24.18000E-6,-1.9200,,,,,-24.18000E-6,2.4720,
,,,-24.16000E-6,-1.9600,,,,,-24.16000E-6,2.4800,
,,,-24.14000E-6,-1.9600,,,,,-24.14000E-6,2.4640,
,,,-24.12000E-6,-1.9600,,,,,-24.12000E-6,2.4720,
,,,-24.10000E-6,-1.9600,,,,,-24.10000E-6,2.4720,
,,,-24.08000E-6,-1.9200,,,,,-24.08000E-6,2.4800,
,,,-24.06000E-6,-1.8800,,,,,-24.06000E-6,2.4720,
,,,-24.04000E-6,-1.8400,,,,,-24.04000E-6,2.4800,
,,,-24.02000E-6,-1.8800,,,,,-24.02000E-6,2.4720,
,,,-24.00000E-6,-1.9200,,,,,-24.00000E-6,2.4800,
,,,-23.98000E-6,-1.8400,,,,,-23.98000E-6,2.4880,
,,,-23.96000E-6,-1.8000,,,,,-23.96000E-6,2.4720,
,,,-23.94000E-6,-1.8400,,,,,-23.94000E-6,2.4800,
,,,-23.92000E-6,-1.8800,,,,,-23.92000E-6,2.4720,
,,,-23.90000E-6,-1.8000,,,,,-23.90000E-6,2.4880,
,,,-23.88000E-6,-1.8000,,,,,-23.88000E-6,2.4880,
,,,-23.86000E-6,-1.7600,,,,,-23.86000E-6,2.4800,
,,,-23.84000E-6,-1.8000,,,,,-23.84000E-6,2.4800,
,,,-23.82000E-6,-1.8000,,,,,-23.82000E-6,2.4800,
,,,-23.80000E-6,-1.8000,,,,,-23.80000E-6,2.4800,
,,,-23.78000E-6,-1.7600,,,,,-23.78000E-6,2.4960,
,,,-23.76000E-6,-1.7600,,,,,-23.76000E-6,2.4720,
,,,-23.74000E-6,-1.7600,,,,,-23.74000E-6,2.4720,
,,,-23.72000E-6,-1.8000,,,,,-23.72000E-6,2.4800,
,,,-23.70000E-6,-1.7200,,,,,-23.70000E-6,2.4800,
,,,-23.68000E-6,-1.6800,,,,,-23.68000E-6,2.4800,
,,,-23.66000E-6,-1.6800,,,,,-23.66000E-6,2.4640,
,,,-23.64000E-6,-1.7200,,,,,-23.64000E-6,2.4720,
,,,-23.62000E-6,-1.7200,,,,,-23.62000E-6,2.4800,
,,,-23.60000E-6,-1.6400,,,,,-23.60000E-6,2.4800,
,,,-23.58000E-6,-1.6000,,,,,-23.58000E-6,2.4720,
,,,-23.56000E-6,-1.6800,,,,,-23.56000E-6,2.4640,
,,,-23.54000E-6,-1.6800,,,,,-23.54000E-6,2.4720,
,,,-23.52000E-6,-1.6000,,,,,-23.52000E-6,2.4720,
,,,-23.50000E-6,-1.6400,,,,,-23.50000E-6,2.4720,
,,,-23.48000E-6,-1.6400,,,,,-23.48000E-6,2.4560,
,,,-23.46000E-6,-1.6400,,,,,-23.46000E-6,2.4560,
,,,-23.44000E-6,-1.6400,,,,,-23.44000E-6,2.4640,
,,,-23.42000E-6,-1.5200,,,,,-23.42000E-6,2.4720,
,,,-23.40000E-6,-1.6000,,,,,-23.40000E-6,2.4640,
,,,-23.38000E-6,-1.5200,,,,,-23.38000E-6,2.4560,
,,,-23.36000E-6,-1.5600,,,,,-23.36000E-6,2.4560,
,,,-23.34000E-6,-1.6000,,,,,-23.34000E-6,2.4640,
,,,-23.32000E-6,-1.5200,,,,,-23.32000E-6,2.4640,
,,,-23.30000E-6,-1.5200,,,,,-23.30000E-6,2.4480,
,,,-23.28000E-6,-1.5200,,,,,-23.28000E-6,2.4480,
,,,-23.26000E-6,-1.5600,,,,,-23.26000E-6,2.4480,
,,,-23.24000E-6,-1.4800,,,,,-23.24000E-6,2.4560,
,,,-23.22000E-6,-1.4400,,,,,-23.22000E-6,2.4560,
,,,-23.20000E-6,-1.4800,,,,,-23.20000E-6,2.4480,
,,,-23.18000E-6,-1.4800,,,,,-23.18000E-6,2.4400,
,,,-23.16000E-6,-1.4400,,,,,-23.16000E-6,2.4480,
,,,-23.14000E-6,-1.4400,,,,,-23.14000E-6,2.4480,
,,,-23.12000E-6,-1.4400,,,,,-23.12000E-6,2.4400,
,,,-23.10000E-6,-1.4000,,,,,-23.10000E-6,2.4320,
,,,-23.08000E-6,-1.4000,,,,,-23.08000E-6,2.4320,
,,,-23.06000E-6,-1.4400,,,,,-23.06000E-6,2.4400,
,,,-23.04000E-6,-1.3600,,,,,-23.04000E-6,2.4480,
,,,-23.02000E-6,-1.4000,,,,,-23.02000E-6,2.4320,
,,,-23.00000E-6,-1.3600,,,,,-23.00000E-6,2.4320,
,,,-22.98000E-6,-1.3600,,,,,-22.98000E-6,2.4320,
,,,-22.96000E-6,-1.3600,,,,,-22.96000E-6,2.4320,
,,,-22.94000E-6,-1.3600,,,,,-22.94000E-6,2.4400,
,,,-22.92000E-6,-1.3200,,,,,-22.92000E-6,2.4400,
,,,-22.90000E-6,-1.3200,,,,,-22.90000E-6,2.4320,
,,,-22.88000E-6,-1.2800,,,,,-22.88000E-6,2.4400,
,,,-22.86000E-6,-1.3200,,,,,-22.86000E-6,2.4400,
,,,-22.84000E-6,-1.3200,,,,,-22.84000E-6,2.4320,
,,,-22.82000E-6,-1.2800,,,,,-22.82000E-6,2.4240,
,,,-22.80000E-6,-1.2800,,,,,-22.80000E-6,2.4240,
,,,-22.78000E-6,-1.3200,,,,,-22.78000E-6,2.4240,
,,,-22.76000E-6,-1.2800,,,,,-22.76000E-6,2.4320,
,,,-22.74000E-6,-1.2400,,,,,-22.74000E-6,2.4400,
,,,-22.72000E-6,-1.2400,,,,,-22.72000E-6,2.4240,
,,,-22.70000E-6,-1.2400,,,,,-22.70000E-6,2.4160,
,,,-22.68000E-6,-1.2400,,,,,-22.68000E-6,2.4320,
,,,-22.66000E-6,-1.2000,,,,,-22.66000E-6,2.4320,
,,,-22.64000E-6,-1.2000,,,,,-22.64000E-6,2.4160,
,,,-22.62000E-6,-1.1600,,,,,-22.62000E-6,2.4320,
,,,-22.60000E-6,-1.1600,,,,,-22.60000E-6,2.4320,
,,,-22.58000E-6,-1.1600,,,,,-22.58000E-6,2.4240,
,,,-22.56000E-6,-1.1600,,,,,-22.56000E-6,2.4160,
,,,-22.54000E-6,-1.0800,,,,,-22.54000E-6,2.4240,
,,,-22.52000E-6,-1.0800,,,,,-22.52000E-6,2.4160,
,,,-22.50000E-6,-1.1200,,,,,-22.50000E-6,2.4240,
,,,-22.48000E-6,-1.0400,,,,,-22.48000E-6,2.4240,
,,,-22.46000E-6,-1.0800,,,,,-22.46000E-6,2.4160,
,,,-22.44000E-6,-1.000,,,,,-22.44000E-6,2.4160,
,,,-22.42000E-6,-1.0400,,,,,-22.42000E-6,2.4160,
,,,-22.40000E-6,-1.0800,,,,,-22.40000E-6,2.4160,
,,,-22.38000E-6,-1.0400,,,,,-22.38000E-6,2.4160,
,,,-22.36000E-6,-1.000,,,,,-22.36000E-6,2.4240,
,,,-22.34000E-6,-959.999979E-3,,,,,-22.34000E-6,2.4080,
,,,-22.32000E-6,-1.0400,,,,,-22.32000E-6,2.4160,
,,,-22.30000E-6,-1.000,,,,,-22.30000E-6,2.4240,
,,,-22.28000E-6,-959.999979E-3,,,,,-22.28000E-6,2.4240,
,,,-22.26000E-6,-959.999979E-3,,,,,-22.26000E-6,2.4160,
,,,-22.24000E-6,-959.999979E-3,,,,,-22.24000E-6,2.4000,
,,,-22.22000E-6,-959.999979E-3,,,,,-22.22000E-6,2.4160,
,,,-22.20000E-6,-959.999979E-3,,,,,-22.20000E-6,2.4160,
,,,-22.18000E-6,-959.999979E-3,,,,,-22.18000E-6,2.4080,
,,,-22.16000E-6,-919.999957E-3,,,,,-22.16000E-6,2.4000,
,,,-22.14000E-6,-959.999979E-3,,,,,-22.14000E-6,2.4000,
,,,-22.12000E-6,-919.999957E-3,,,,,-22.12000E-6,2.4160,
,,,-22.10000E-6,-919.999957E-3,,,,,-22.10000E-6,2.4080,
,,,-22.08000E-6,-879.999995E-3,,,,,-22.08000E-6,2.4080,
,,,-22.06000E-6,-839.999974E-3,,,,,-22.06000E-6,2.4000,
,,,-22.04000E-6,-839.999974E-3,,,,,-22.04000E-6,2.4000,
,,,-22.02000E-6,-879.999995E-3,,,,,-22.02000E-6,2.4000,
,,,-22.00000E-6,-839.999974E-3,,,,,-22.00000E-6,2.4080,
,,,-21.98000E-6,-799.999952E-3,,,,,-21.98000E-6,2.4000,
,,,-21.96000E-6,-799.999952E-3,,,,,-21.96000E-6,2.4000,
,,,-21.94000E-6,-839.999974E-3,,,,,-21.94000E-6,2.3920,
,,,-21.92000E-6,-799.999952E-3,,,,,-21.92000E-6,2.4080,
,,,-21.90000E-6,-799.999952E-3,,,,,-21.90000E-6,2.4000,
,,,-21.88000E-6,-759.999990E-3,,,,,-21.88000E-6,2.3920,
,,,-21.86000E-6,-759.999990E-3,,,,,-21.86000E-6,2.3920,
,,,-21.84000E-6,-759.999990E-3,,,,,-21.84000E-6,2.3920,
,,,-21.82000E-6,-759.999990E-3,,,,,-21.82000E-6,2.4000,
,,,-21.80000E-6,-759.999990E-3,,,,,-21.80000E-6,2.3920,
,,,-21.78000E-6,-759.999990E-3,,,,,-21.78000E-6,2.3840,
,,,-21.76000E-6,-759.999990E-3,,,,,-21.76000E-6,2.3840,
,,,-21.74000E-6,-719.999969E-3,,,,,-21.74000E-6,2.3920,
,,,-21.72000E-6,-680.000007E-3,,,,,-21.72000E-6,2.3920,
,,,-21.70000E-6,-639.999986E-3,,,,,-21.70000E-6,2.3840,
,,,-21.68000E-6,-680.000007E-3,,,,,-21.68000E-6,2.3680,
,,,-21.66000E-6,-639.999986E-3,,,,,-21.66000E-6,2.3680,
,,,-21.64000E-6,-680.000007E-3,,,,,-21.64000E-6,2.3840,
,,,-21.62000E-6,-639.999986E-3,,,,,-21.62000E-6,2.3760,
,,,-21.60000E-6,-599.999964E-3,,,,,-21.60000E-6,2.3680,
,,,-21.58000E-6,-599.999964E-3,,,,,-21.58000E-6,2.3760,
,,,-21.56000E-6,-639.999986E-3,,,,,-21.56000E-6,2.3760,
,,,-21.54000E-6,-599.999964E-3,,,,,-21.54000E-6,2.3840,
,,,-21.52000E-6,-639.999986E-3,,,,,-21.52000E-6,2.3840,
,,,-21.50000E-6,-599.999964E-3,,,,,-21.50000E-6,2.3600,
,,,-21.48000E-6,-599.999964E-3,,,,,-21.48000E-6,2.3600,
,,,-21.46000E-6,-560.000002E-3,,,,,-21.46000E-6,2.3680,
,,,-21.44000E-6,-560.000002E-3,,,,,-21.44000E-6,2.3680,
,,,-21.42000E-6,-560.000002E-3,,,,,-21.42000E-6,2.3520,
,,,-21.40000E-6,-479.999989E-3,,,,,-21.40000E-6,2.3520,
,,,-21.38000E-6,-479.999989E-3,,,,,-21.38000E-6,2.3520,
,,,-21.36000E-6,-560.000002E-3,,,,,-21.36000E-6,2.3600,
,,,-21.34000E-6,-479.999989E-3,,,,,-21.34000E-6,2.3600,
,,,-21.32000E-6,-519.999981E-3,,,,,-21.32000E-6,2.3440,
,,,-21.30000E-6,-519.999981E-3,,,,,-21.30000E-6,2.3520,
,,,-21.28000E-6,-439.999998E-3,,,,,-21.28000E-6,2.3440,
,,,-21.26000E-6,-399.99998E-3,,,,,-21.26000E-6,2.3520,
,,,-21.24000E-6,-479.999989E-3,,,,,-21.24000E-6,2.3520,
,,,-21.22000E-6,-399.99998E-3,,,,,-21.22000E-6,2.3360,
,,,-21.20000E-6,-439.999998E-3,,,,,-21.20000E-6,2.3360,
,,,-21.18000E-6,-439.999998E-3,,,,,-21.18000E-6,2.3360,
,,,-21.16000E-6,-359.99998E-3,,,,,-21.16000E-6,2.3360,
,,,-21.14000E-6,-399.99998E-3,,,,,-21.14000E-6,2.3360,
,,,-21.12000E-6,-399.99998E-3,,,,,-21.12000E-6,2.3280,
,,,-21.10000E-6,-359.99998E-3,,,,,-21.10000E-6,2.3280,
,,,-21.08000E-6,-399.99998E-3,,,,,-21.08000E-6,2.3280,
,,,-21.06000E-6,-319.99999E-3,,,,,-21.06000E-6,2.3280,
,,,-21.04000E-6,-319.99999E-3,,,,,-21.04000E-6,2.3280,
,,,-21.02000E-6,-319.99999E-3,,,,,-21.02000E-6,2.3200,
,,,-21.00000E-6,-319.99999E-3,,,,,-21.00000E-6,2.3200,
,,,-20.98000E-6,-319.99999E-3,,,,,-20.98000E-6,2.3200,
,,,-20.96000E-6,-280.00000E-3,,,,,-20.96000E-6,2.3200,
,,,-20.94000E-6,-280.00000E-3,,,,,-20.94000E-6,2.3040,
,,,-20.92000E-6,-280.00000E-3,,,,,-20.92000E-6,2.3120,
,,,-20.90000E-6,-239.99999E-3,,,,,-20.90000E-6,2.3120,
,,,-20.88000E-6,-280.00000E-3,,,,,-20.88000E-6,2.3040,
,,,-20.86000E-6,-280.00000E-3,,,,,-20.86000E-6,2.3040,
,,,-20.84000E-6,-199.99999E-3,,,,,-20.84000E-6,2.2960,
,,,-20.82000E-6,-280.00000E-3,,,,,-20.82000E-6,2.2880,
,,,-20.80000E-6,-239.99999E-3,,,,,-20.80000E-6,2.2960,
,,,-20.78000E-6,-160.00000E-3,,,,,-20.78000E-6,2.3040,
,,,-20.76000E-6,-199.99999E-3,,,,,-20.76000E-6,2.2960,
,,,-20.74000E-6,-199.99999E-3,,,,,-20.74000E-6,2.2800,
,,,-20.72000E-6,-199.99999E-3,,,,,-20.72000E-6,2.2800,
,,,-20.70000E-6,-160.00000E-3,,,,,-20.70000E-6,2.2880,
,,,-20.68000E-6,-160.00000E-3,,,,,-20.68000E-6,2.2880,
,,,-20.66000E-6,-160.00000E-3,,,,,-20.66000E-6,2.2800,
,,,-20.64000E-6,-120.0000E-3,,,,,-20.64000E-6,2.2880,
,,,-20.62000E-6,-120.0000E-3,,,,,-20.62000E-6,2.2800,
,,,-20.60000E-6,-120.0000E-3,,,,,-20.60000E-6,2.2720,
,,,-20.58000E-6,-79.999998E-3,,,,,-20.58000E-6,2.2640,
,,,-20.56000E-6,-79.999998E-3,,,,,-20.56000E-6,2.2720,
,,,-20.54000E-6,-40.00000E-3,,,,,-20.54000E-6,2.2640,
,,,-20.52000E-6,-40.00000E-3,,,,,-20.52000E-6,2.2640,
,,,-20.50000E-6,-40.00000E-3,,,,,-20.50000E-6,2.2640,
,,,-20.48000E-6,-40.00000E-3,,,,,-20.48000E-6,2.2640,
,,,-20.46000E-6,0.0,,,,,-20.46000E-6,2.2560,
,,,-20.44000E-6,0.0,,,,,-20.44000E-6,2.2640,
,,,-20.42000E-6,-40.00000E-3,,,,,-20.42000E-6,2.2560,
,,,-20.40000E-6,0.0,,,,,-20.40000E-6,2.2640,
,,,-20.38000E-6,40.00000E-3,,,,,-20.38000E-6,2.2640,
,,,-20.36000E-6,40.00000E-3,,,,,-20.36000E-6,2.2320,
,,,-20.34000E-6,0.0,,,,,-20.34000E-6,2.2480,
,,,-20.32000E-6,40.00000E-3,,,,,-20.32000E-6,2.2560,
,,,-20.30000E-6,79.999998E-3,,,,,-20.30000E-6,2.2480,
,,,-20.28000E-6,79.999998E-3,,,,,-20.28000E-6,2.2400,
,,,-20.26000E-6,79.999998E-3,,,,,-20.26000E-6,2.2400,
,,,-20.24000E-6,79.999998E-3,,,,,-20.24000E-6,2.2400,
,,,-20.22000E-6,120.0000E-3,,,,,-20.22000E-6,2.2320,
,,,-20.20000E-6,120.0000E-3,,,,,-20.20000E-6,2.2400,
,,,-20.18000E-6,120.0000E-3,,,,,-20.18000E-6,2.2320,
,,,-20.16000E-6,79.999998E-3,,,,,-20.16000E-6,2.2240,
,,,-20.14000E-6,120.0000E-3,,,,,-20.14000E-6,2.2240,
,,,-20.12000E-6,120.0000E-3,,,,,-20.12000E-6,2.2320,
,,,-20.10000E-6,120.0000E-3,,,,,-20.10000E-6,2.2320,
,,,-20.0800E-6,160.00000E-3,,,,,-20.0800E-6,2.2240,
,,,-20.0600E-6,199.99999E-3,,,,,-20.0600E-6,2.2240,
,,,-20.0400E-6,160.00000E-3,,,,,-20.0400E-6,2.2240,
,,,-20.0200E-6,199.99999E-3,,,,,-20.0200E-6,2.2240,
,,,-20.0000E-6,199.99999E-3,,,,,-20.0000E-6,2.2160,
,,,-19.9800E-6,199.99999E-3,,,,,-19.9800E-6,2.2240,
,,,-19.9600E-6,199.99999E-3,,,,,-19.9600E-6,2.2080,
,,,-19.9400E-6,280.00000E-3,,,,,-19.9400E-6,2.2240,
,,,-19.9200E-6,280.00000E-3,,,,,-19.9200E-6,2.2160,
,,,-19.9000E-6,280.00000E-3,,,,,-19.9000E-6,2.2080,
,,,-19.8800E-6,280.00000E-3,,,,,-19.8800E-6,2.2080,
,,,-19.8600E-6,319.99999E-3,,,,,-19.8600E-6,2.2160,
,,,-19.8400E-6,319.99999E-3,,,,,-19.8400E-6,2.2160,
,,,-19.8200E-6,280.00000E-3,,,,,-19.8200E-6,2.2080,
,,,-19.8000E-6,280.00000E-3,,,,,-19.8000E-6,2.1920,
,,,-19.7800E-6,319.99999E-3,,,,,-19.7800E-6,2.2000,
,,,-19.7600E-6,280.00000E-3,,,,,-19.7600E-6,2.2000,
,,,-19.7400E-6,359.99998E-3,,,,,-19.7400E-6,2.2160,
,,,-19.7200E-6,359.99998E-3,,,,,-19.7200E-6,2.2000,
,,,-19.7000E-6,359.99998E-3,,,,,-19.7000E-6,2.1920,
,,,-19.6800E-6,399.99998E-3,,,,,-19.6800E-6,2.1920,
,,,-19.6600E-6,399.99998E-3,,,,,-19.6600E-6,2.2000,
,,,-19.6400E-6,399.99998E-3,,,,,-19.6400E-6,2.1920,
,,,-19.6200E-6,399.99998E-3,,,,,-19.6200E-6,2.1840,
,,,-19.6000E-6,399.99998E-3,,,,,-19.6000E-6,2.1920,
,,,-19.5800E-6,399.99998E-3,,,,,-19.5800E-6,2.1920,
,,,-19.5600E-6,399.99998E-3,,,,,-19.5600E-6,2.2000,
,,,-19.5400E-6,439.999998E-3,,,,,-19.5400E-6,2.1840,
,,,-19.5200E-6,479.999989E-3,,,,,-19.5200E-6,2.1840,
,,,-19.5000E-6,479.999989E-3,,,,,-19.5000E-6,2.1760,
,,,-19.4800E-6,479.999989E-3,,,,,-19.4800E-6,2.1760,
,,,-19.4600E-6,519.999981E-3,,,,,-19.4600E-6,2.1840,
,,,-19.4400E-6,519.999981E-3,,,,,-19.4400E-6,2.1760,
,,,-19.4200E-6,560.000002E-3,,,,,-19.4200E-6,2.1680,
,,,-19.4000E-6,519.999981E-3,,,,,-19.4000E-6,2.1760,
,,,-19.3800E-6,519.999981E-3,,,,,-19.3800E-6,2.1760,
,,,-19.3600E-6,519.999981E-3,,,,,-19.3600E-6,2.1760,
,,,-19.3400E-6,519.999981E-3,,,,,-19.3400E-6,2.1760,
,,,-19.3200E-6,560.000002E-3,,,,,-19.3200E-6,2.1680,
,,,-19.3000E-6,599.999964E-3,,,,,-19.3000E-6,2.1600,
,,,-19.2800E-6,599.999964E-3,,,,,-19.2800E-6,2.1760,
,,,-19.2600E-6,599.999964E-3,,,,,-19.2600E-6,2.1680,
,,,-19.2400E-6,639.999986E-3,,,,,-19.2400E-6,2.1680,
,,,-19.2200E-6,599.999964E-3,,,,,-19.2200E-6,2.1600,
,,,-19.2000E-6,560.000002E-3,,,,,-19.2000E-6,2.1680,
,,,-19.1800E-6,639.999986E-3,,,,,-19.1800E-6,2.1680,
,,,-19.1600E-6,639.999986E-3,,,,,-19.1600E-6,2.1600,
,,,-19.1400E-6,680.000007E-3,,,,,-19.1400E-6,2.1520,
,,,-19.1200E-6,719.999969E-3,,,,,-19.1200E-6,2.1520,
,,,-19.1000E-6,680.000007E-3,,,,,-19.1000E-6,2.1600,
,,,-19.0800E-6,719.999969E-3,,,,,-19.0800E-6,2.1520,
,,,-19.0600E-6,719.999969E-3,,,,,-19.0600E-6,2.1520,
,,,-19.0400E-6,759.999990E-3,,,,,-19.0400E-6,2.1520,
,,,-19.0200E-6,759.999990E-3,,,,,-19.0200E-6,2.1520,
,,,-19.0000E-6,680.000007E-3,,,,,-19.0000E-6,2.1520,
,,,-18.9800E-6,759.999990E-3,,,,,-18.9800E-6,2.1440,
,,,-18.9600E-6,799.999952E-3,,,,,-18.9600E-6,2.1440,
,,,-18.9400E-6,759.999990E-3,,,,,-18.9400E-6,2.1360,
,,,-18.9200E-6,839.999974E-3,,,,,-18.9200E-6,2.1440,
,,,-18.9000E-6,719.999969E-3,,,,,-18.9000E-6,2.1520,
,,,-18.8800E-6,799.999952E-3,,,,,-18.8800E-6,2.1440,
,,,-18.8600E-6,799.999952E-3,,,,,-18.8600E-6,2.1360,
,,,-18.8400E-6,799.999952E-3,,,,,-18.8400E-6,2.1360,
,,,-18.8200E-6,839.999974E-3,,,,,-18.8200E-6,2.1360,
,,,-18.8000E-6,839.999974E-3,,,,,-18.8000E-6,2.1360,
,,,-18.7800E-6,839.999974E-3,,,,,-18.7800E-6,2.1360,
,,,-18.7600E-6,839.999974E-3,,,,,-18.7600E-6,2.1280,
,,,-18.7400E-6,879.999995E-3,,,,,-18.7400E-6,2.1200,
,,,-18.7200E-6,919.999957E-3,,,,,-18.7200E-6,2.1360,
,,,-18.7000E-6,839.999974E-3,,,,,-18.7000E-6,2.1360,
,,,-18.6800E-6,919.999957E-3,,,,,-18.6800E-6,2.1280,
,,,-18.6600E-6,959.999979E-3,,,,,-18.6600E-6,2.1200,
,,,-18.6400E-6,919.999957E-3,,,,,-18.6400E-6,2.1280,
,,,-18.6200E-6,919.999957E-3,,,,,-18.6200E-6,2.1360,
,,,-18.6000E-6,959.999979E-3,,,,,-18.6000E-6,2.1200,
,,,-18.5800E-6,959.999979E-3,,,,,-18.5800E-6,2.1200,
,,,-18.5600E-6,959.999979E-3,,,,,-18.5600E-6,2.1200,
,,,-18.5400E-6,959.999979E-3,,,,,-18.5400E-6,2.1200,
,,,-18.5200E-6,1.000,,,,,-18.5200E-6,2.1200,
,,,-18.5000E-6,1.0400,,,,,-18.5000E-6,2.1200,
,,,-18.4800E-6,1.0400,,,,,-18.4800E-6,2.1200,
,,,-18.4600E-6,1.0400,,,,,-18.4600E-6,2.1120,
,,,-18.4400E-6,1.0400,,,,,-18.4400E-6,2.1120,
,,,-18.4200E-6,1.0400,,,,,-18.4200E-6,2.1120,
,,,-18.4000E-6,1.0400,,,,,-18.4000E-6,2.1120,
,,,-18.3800E-6,1.0400,,,,,-18.3800E-6,2.1040,
,,,-18.3600E-6,1.0800,,,,,-18.3600E-6,2.0960,
,,,-18.3400E-6,1.0800,,,,,-18.3400E-6,2.1120,
,,,-18.3200E-6,1.0800,,,,,-18.3200E-6,2.1040,
,,,-18.3000E-6,1.1200,,,,,-18.3000E-6,2.1040,
,,,-18.2800E-6,1.0800,,,,,-18.2800E-6,2.0960,
,,,-18.2600E-6,1.1600,,,,,-18.2600E-6,2.0960,
,,,-18.2400E-6,1.1200,,,,,-18.2400E-6,2.1040,
,,,-18.2200E-6,1.1600,,,,,-18.2200E-6,2.1040,
,,,-18.2000E-6,1.1600,,,,,-18.2000E-6,2.0960,
,,,-18.1800E-6,1.1200,,,,,-18.1800E-6,2.0960,
,,,-18.1600E-6,1.2400,,,,,-18.1600E-6,2.1040,
,,,-18.1400E-6,1.1200,,,,,-18.1400E-6,2.0960,
,,,-18.1200E-6,1.1600,,,,,-18.1200E-6,2.0960,
,,,-18.1000E-6,1.2000,,,,,-18.1000E-6,2.0960,
,,,-18.0800E-6,1.2000,,,,,-18.0800E-6,2.0800,
,,,-18.0600E-6,1.2000,,,,,-18.0600E-6,2.0960,
,,,-18.0400E-6,1.2400,,,,,-18.0400E-6,2.0960,
,,,-18.0200E-6,1.2400,,,,,-18.0200E-6,2.0880,
,,,-18.0000E-6,1.2800,,,,,-18.0000E-6,2.0960,
,,,-17.9800E-6,1.2800,,,,,-17.9800E-6,2.0800,
,,,-17.9600E-6,1.2400,,,,,-17.9600E-6,2.0960,
,,,-17.9400E-6,1.2800,,,,,-17.9400E-6,2.0880,
,,,-17.9200E-6,1.3200,,,,,-17.9200E-6,2.0880,
,,,-17.9000E-6,1.3200,,,,,-17.9000E-6,2.0800,
,,,-17.8800E-6,1.3200,,,,,-17.8800E-6,2.0880,
,,,-17.8600E-6,1.3200,,,,,-17.8600E-6,2.0960,
,,,-17.8400E-6,1.2800,,,,,-17.8400E-6,2.0880,
,,,-17.8200E-6,1.2800,,,,,-17.8200E-6,2.0720,
,,,-17.8000E-6,1.3600,,,,,-17.8000E-6,2.0880,
,,,-17.7800E-6,1.3600,,,,,-17.7800E-6,2.0800,
,,,-17.7600E-6,1.3600,,,,,-17.7600E-6,2.0800,
,,,-17.7400E-6,1.4400,,,,,-17.7400E-6,2.0800,
,,,-17.7200E-6,1.4000,,,,,-17.7200E-6,2.0720,
,,,-17.7000E-6,1.4800,,,,,-17.7000E-6,2.0640,
,,,-17.6800E-6,1.4400,,,,,-17.6800E-6,2.0880,
,,,-17.6600E-6,1.4400,,,,,-17.6600E-6,2.0720,
,,,-17.6400E-6,1.4400,,,,,-17.6400E-6,2.0800,
,,,-17.6200E-6,1.4400,,,,,-17.6200E-6,2.0720,
,,,-17.6000E-6,1.4800,,,,,-17.6000E-6,2.0800,
,,,-17.5800E-6,1.4400,,,,,-17.5800E-6,2.0800,
,,,-17.5600E-6,1.4400,,,,,-17.5600E-6,2.0800,
,,,-17.5400E-6,1.5200,,,,,-17.5400E-6,2.0720,
,,,-17.5200E-6,1.5200,,,,,-17.5200E-6,2.0800,
,,,-17.5000E-6,1.5200,,,,,-17.5000E-6,2.0800,
,,,-17.4800E-6,1.5200,,,,,-17.4800E-6,2.0720,
,,,-17.4600E-6,1.5600,,,,,-17.4600E-6,2.0800,
,,,-17.4400E-6,1.5600,,,,,-17.4400E-6,2.0720,
,,,-17.4200E-6,1.5600,,,,,-17.4200E-6,2.0640,
,,,-17.4000E-6,1.5600,,,,,-17.4000E-6,2.0720,
,,,-17.3800E-6,1.5600,,,,,-17.3800E-6,2.0720,
