analog_multiplier/data/s4x2.5fx4k.2.csv

Record Length,2500,Points,-249.99998E-6,160.00000E-3,,Record Length,2500,Points,-249.99998E-6,919.999957E-3,
Sample Interval,200.00000E-9,s,-249.79998E-6,199.99999E-3,,Sample Interval,200.00000E-9,s,-249.79998E-6,899.999976E-3,
Trigger Point,1.2500E3,Samples,-249.59998E-6,199.99999E-3,,Trigger Point,1.2500E3,Samples,-249.59998E-6,899.999976E-3,
,,,-249.39998E-6,160.00000E-3,,,,,-249.39998E-6,899.999976E-3,
,,,-249.19998E-6,199.99999E-3,,,,,-249.19998E-6,879.999995E-3,
,,,-248.99998E-6,239.99999E-3,,,,,-248.99998E-6,899.999976E-3,
Source,CH2,,-248.79997E-6,239.99999E-3,,Source,CH3,,-248.79997E-6,859.999955E-3,
Vertical Units,Volts,,-248.59997E-6,239.99999E-3,,Vertical Units,Volts,,-248.59997E-6,879.999995E-3,
Vertical Scale,1.000,,-248.39997E-6,280.00000E-3,,Vertical Scale,499.999989E-3,,-248.39997E-6,879.999995E-3,
Vertical Offset,0,,-248.19997E-6,239.99999E-3,,Vertical Offset,0,,-248.19997E-6,879.999995E-3,
Horizontal Units,s,,-248.00000E-6,280.00000E-3,,Horizontal Units,s,,-248.00000E-6,879.999995E-3,
Horizontal Scale,50.00000E-6,,-247.80000E-6,319.99999E-3,,Horizontal Scale,50.00000E-6,,-247.80000E-6,879.999995E-3,
Pt Fmt,Y,,-247.59999E-6,319.99999E-3,,Pt Fmt,Y,,-247.59999E-6,859.999955E-3,
Yzero,0.0,,-247.39999E-6,319.99999E-3,,Yzero,-3.44000,,-247.39999E-6,859.999955E-3,
Probe Atten,1.000,,-247.19999E-6,280.00000E-3,,Probe Atten,1.000,,-247.19999E-6,859.999955E-3,
,,,-246.99999E-6,319.99999E-3,,,,,-246.99999E-6,859.999955E-3,
Note,TDS 224 - 1:04:15 AM   11/14/2015,,-246.79999E-6,359.99998E-3,,Note,TDS 224 - 1:04:15 AM   11/14/2015,,-246.79999E-6,839.999974E-3,
,,,-246.59999E-6,319.99999E-3,,,,,-246.59999E-6,859.999955E-3,
,,,-246.39998E-6,359.99998E-3,,,,,-246.39998E-6,819.999993E-3,
,,,-246.19998E-6,359.99998E-3,,,,,-246.19998E-6,839.999974E-3,
,,,-245.99998E-6,359.99998E-3,,,,,-245.99998E-6,819.999993E-3,
,,,-245.79998E-6,399.99998E-3,,,,,-245.79998E-6,839.999974E-3,
,,,-245.59998E-6,359.99998E-3,,,,,-245.59998E-6,819.999993E-3,
,,,-245.39998E-6,359.99998E-3,,,,,-245.39998E-6,819.999993E-3,
,,,-245.19998E-6,399.99998E-3,,,,,-245.19998E-6,839.999974E-3,
,,,-244.99997E-6,399.99998E-3,,,,,-244.99997E-6,859.999955E-3,
,,,-244.79997E-6,399.99998E-3,,,,,-244.79997E-6,839.999974E-3,
,,,-244.59997E-6,439.999998E-3,,,,,-244.59997E-6,859.999955E-3,
,,,-244.39997E-6,439.999998E-3,,,,,-244.39997E-6,799.999952E-3,
,,,-244.20000E-6,399.99998E-3,,,,,-244.20000E-6,819.999993E-3,
,,,-243.99998E-6,439.999998E-3,,,,,-243.99998E-6,779.999971E-3,
,,,-243.79998E-6,439.999998E-3,,,,,-243.79998E-6,799.999952E-3,
,,,-243.59998E-6,399.99998E-3,,,,,-243.59998E-6,819.999993E-3,
,,,-243.39998E-6,479.999989E-3,,,,,-243.39998E-6,799.999952E-3,
,,,-243.19999E-6,439.999998E-3,,,,,-243.19999E-6,799.999952E-3,
,,,-242.99999E-6,519.999981E-3,,,,,-242.99999E-6,819.999993E-3,
,,,-242.79999E-6,519.999981E-3,,,,,-242.79999E-6,779.999971E-3,
,,,-242.59998E-6,479.999989E-3,,,,,-242.59998E-6,799.999952E-3,
,,,-242.39998E-6,519.999981E-3,,,,,-242.39998E-6,799.999952E-3,
,,,-242.19998E-6,519.999981E-3,,,,,-242.19998E-6,740.000010E-3,
,,,-241.99998E-6,479.999989E-3,,,,,-241.99998E-6,779.999971E-3,
,,,-241.79998E-6,519.999981E-3,,,,,-241.79998E-6,799.999952E-3,
,,,-241.59998E-6,519.999981E-3,,,,,-241.59998E-6,799.999952E-3,
,,,-241.39998E-6,560.000002E-3,,,,,-241.39998E-6,759.999990E-3,
,,,-241.19999E-6,560.000002E-3,,,,,-241.19999E-6,779.999971E-3,
,,,-240.99999E-6,560.000002E-3,,,,,-240.99999E-6,779.999971E-3,
,,,-240.79999E-6,599.999964E-3,,,,,-240.79999E-6,779.999971E-3,
,,,-240.59998E-6,519.999981E-3,,,,,-240.59998E-6,740.000010E-3,
,,,-240.39998E-6,519.999981E-3,,,,,-240.39998E-6,779.999971E-3,
,,,-240.19998E-6,599.999964E-3,,,,,-240.19998E-6,759.999990E-3,
,,,-239.99998E-6,599.999964E-3,,,,,-239.99998E-6,799.999952E-3,
,,,-239.79998E-6,680.000007E-3,,,,,-239.79998E-6,779.999971E-3,
,,,-239.59998E-6,639.999986E-3,,,,,-239.59998E-6,779.999971E-3,
,,,-239.39999E-6,639.999986E-3,,,,,-239.39999E-6,779.999971E-3,
,,,-239.19999E-6,599.999964E-3,,,,,-239.19999E-6,759.999990E-3,
,,,-238.99999E-6,639.999986E-3,,,,,-238.99999E-6,759.999990E-3,
,,,-238.79998E-6,639.999986E-3,,,,,-238.79998E-6,759.999990E-3,
,,,-238.59998E-6,680.000007E-3,,,,,-238.59998E-6,779.999971E-3,
,,,-238.39998E-6,680.000007E-3,,,,,-238.39998E-6,759.999990E-3,
,,,-238.19998E-6,680.000007E-3,,,,,-238.19998E-6,759.999990E-3,
,,,-237.99998E-6,719.999969E-3,,,,,-237.99998E-6,759.999990E-3,
,,,-237.79998E-6,680.000007E-3,,,,,-237.79998E-6,740.000010E-3,
,,,-237.59998E-6,639.999986E-3,,,,,-237.59998E-6,740.000010E-3,
,,,-237.39999E-6,719.999969E-3,,,,,-237.39999E-6,740.000010E-3,
,,,-237.19999E-6,719.999969E-3,,,,,-237.19999E-6,779.999971E-3,
,,,-236.99999E-6,759.999990E-3,,,,,-236.99999E-6,740.000010E-3,
,,,-236.79998E-6,759.999990E-3,,,,,-236.79998E-6,740.000010E-3,
,,,-236.59998E-6,759.999990E-3,,,,,-236.59998E-6,740.000010E-3,
,,,-236.39998E-6,799.999952E-3,,,,,-236.39998E-6,759.999990E-3,
,,,-236.19998E-6,759.999990E-3,,,,,-236.19998E-6,740.000010E-3,
,,,-235.99998E-6,799.999952E-3,,,,,-235.99998E-6,740.000010E-3,
,,,-235.79998E-6,799.999952E-3,,,,,-235.79998E-6,740.000010E-3,
,,,-235.59999E-6,799.999952E-3,,,,,-235.59999E-6,740.000010E-3,
,,,-235.39999E-6,799.999952E-3,,,,,-235.39999E-6,740.000010E-3,
,,,-235.19999E-6,799.999952E-3,,,,,-235.19999E-6,740.000010E-3,
,,,-234.99998E-6,759.999990E-3,,,,,-234.99998E-6,740.000010E-3,
,,,-234.79998E-6,839.999974E-3,,,,,-234.79998E-6,759.999990E-3,
,,,-234.59998E-6,839.999974E-3,,,,,-234.59998E-6,740.000010E-3,
,,,-234.39998E-6,799.999952E-3,,,,,-234.39998E-6,740.000010E-3,
,,,-234.19998E-6,839.999974E-3,,,,,-234.19998E-6,740.000010E-3,
,,,-233.99998E-6,879.999995E-3,,,,,-233.99998E-6,719.999969E-3,
,,,-233.79998E-6,879.999995E-3,,,,,-233.79998E-6,759.999990E-3,
,,,-233.59999E-6,839.999974E-3,,,,,-233.59999E-6,740.000010E-3,
,,,-233.39999E-6,879.999995E-3,,,,,-233.39999E-6,759.999990E-3,
,,,-233.19999E-6,919.999957E-3,,,,,-233.19999E-6,719.999969E-3,
,,,-232.99998E-6,919.999957E-3,,,,,-232.99998E-6,740.000010E-3,
,,,-232.79998E-6,919.999957E-3,,,,,-232.79998E-6,740.000010E-3,
,,,-232.59998E-6,959.999979E-3,,,,,-232.59998E-6,740.000010E-3,
,,,-232.39998E-6,959.999979E-3,,,,,-232.39998E-6,740.000010E-3,
,,,-232.19998E-6,919.999957E-3,,,,,-232.19998E-6,719.999969E-3,
,,,-231.99998E-6,959.999979E-3,,,,,-231.99998E-6,740.000010E-3,
,,,-231.79999E-6,959.999979E-3,,,,,-231.79999E-6,699.999988E-3,
,,,-231.59999E-6,919.999957E-3,,,,,-231.59999E-6,719.999969E-3,
,,,-231.39999E-6,919.999957E-3,,,,,-231.39999E-6,740.000010E-3,
,,,-231.19999E-6,959.999979E-3,,,,,-231.19999E-6,740.000010E-3,
,,,-230.99998E-6,1.000,,,,,-230.99998E-6,740.000010E-3,
,,,-230.79998E-6,1.0400,,,,,-230.79998E-6,719.999969E-3,
,,,-230.59998E-6,1.000,,,,,-230.59998E-6,740.000010E-3,
,,,-230.39998E-6,959.999979E-3,,,,,-230.39998E-6,740.000010E-3,
,,,-230.19998E-6,1.000,,,,,-230.19998E-6,719.999969E-3,
,,,-229.99998E-6,1.000,,,,,-229.99998E-6,719.999969E-3,
,,,-229.79999E-6,1.0400,,,,,-229.79999E-6,759.999990E-3,
,,,-229.59999E-6,1.0800,,,,,-229.59999E-6,759.999990E-3,
,,,-229.39999E-6,1.0800,,,,,-229.39999E-6,740.000010E-3,
,,,-229.19998E-6,1.0400,,,,,-229.19998E-6,740.000010E-3,
,,,-228.99998E-6,1.0800,,,,,-228.99998E-6,719.999969E-3,
,,,-228.79998E-6,1.0800,,,,,-228.79998E-6,740.000010E-3,
,,,-228.59998E-6,1.0800,,,,,-228.59998E-6,719.999969E-3,
,,,-228.39998E-6,1.0400,,,,,-228.39998E-6,719.999969E-3,
,,,-228.19998E-6,1.1200,,,,,-228.19998E-6,740.000010E-3,
,,,-227.99998E-6,1.2000,,,,,-227.99998E-6,740.000010E-3,
,,,-227.79999E-6,1.0800,,,,,-227.79999E-6,740.000010E-3,
,,,-227.59999E-6,1.1600,,,,,-227.59999E-6,759.999990E-3,
,,,-227.39999E-6,1.2000,,,,,-227.39999E-6,719.999969E-3,
,,,-227.19998E-6,1.1600,,,,,-227.19998E-6,740.000010E-3,
,,,-226.99998E-6,1.1600,,,,,-226.99998E-6,759.999990E-3,
,,,-226.79998E-6,1.1600,,,,,-226.79998E-6,779.999971E-3,
,,,-226.59998E-6,1.2000,,,,,-226.59998E-6,740.000010E-3,
,,,-226.39998E-6,1.2000,,,,,-226.39998E-6,740.000010E-3,
,,,-226.19998E-6,1.2000,,,,,-226.19998E-6,740.000010E-3,
,,,-225.99999E-6,1.2000,,,,,-225.99999E-6,740.000010E-3,
,,,-225.79999E-6,1.2400,,,,,-225.79999E-6,759.999990E-3,
,,,-225.59999E-6,1.2000,,,,,-225.59999E-6,759.999990E-3,
,,,-225.39998E-6,1.2400,,,,,-225.39998E-6,759.999990E-3,
,,,-225.19998E-6,1.2400,,,,,-225.19998E-6,779.999971E-3,
,,,-224.99998E-6,1.2400,,,,,-224.99998E-6,779.999971E-3,
,,,-224.79998E-6,1.2800,,,,,-224.79998E-6,799.999952E-3,
,,,-224.59998E-6,1.2800,,,,,-224.59998E-6,759.999990E-3,
,,,-224.39998E-6,1.2400,,,,,-224.39998E-6,759.999990E-3,
,,,-224.19998E-6,1.2400,,,,,-224.19998E-6,759.999990E-3,
,,,-223.99999E-6,1.2400,,,,,-223.99999E-6,779.999971E-3,
,,,-223.79999E-6,1.2800,,,,,-223.79999E-6,779.999971E-3,
,,,-223.59999E-6,1.2800,,,,,-223.59999E-6,759.999990E-3,
,,,-223.39998E-6,1.2800,,,,,-223.39998E-6,779.999971E-3,
,,,-223.19998E-6,1.3200,,,,,-223.19998E-6,779.999971E-3,
,,,-222.99998E-6,1.3600,,,,,-222.99998E-6,779.999971E-3,
,,,-222.79998E-6,1.3200,,,,,-222.79998E-6,759.999990E-3,
,,,-222.59998E-6,1.3600,,,,,-222.59998E-6,759.999990E-3,
,,,-222.39998E-6,1.3200,,,,,-222.39998E-6,719.999969E-3,
,,,-222.19999E-6,1.3200,,,,,-222.19999E-6,779.999971E-3,
,,,-221.99999E-6,1.3600,,,,,-221.99999E-6,779.999971E-3,
,,,-221.79999E-6,1.3600,,,,,-221.79999E-6,779.999971E-3,
,,,-221.59998E-6,1.3600,,,,,-221.59998E-6,779.999971E-3,
,,,-221.39998E-6,1.3600,,,,,-221.39998E-6,799.999952E-3,
,,,-221.19998E-6,1.4000,,,,,-221.19998E-6,779.999971E-3,
,,,-220.99998E-6,1.4400,,,,,-220.99998E-6,799.999952E-3,
,,,-220.79998E-6,1.3600,,,,,-220.79998E-6,799.999952E-3,
,,,-220.59998E-6,1.4000,,,,,-220.59998E-6,799.999952E-3,
,,,-220.39998E-6,1.4400,,,,,-220.39998E-6,779.999971E-3,
,,,-220.19999E-6,1.4400,,,,,-220.19999E-6,839.999974E-3,
,,,-219.99999E-6,1.4400,,,,,-219.99999E-6,799.999952E-3,
,,,-219.79999E-6,1.4400,,,,,-219.79999E-6,799.999952E-3,
,,,-219.59998E-6,1.4400,,,,,-219.59998E-6,799.999952E-3,
,,,-219.39998E-6,1.4400,,,,,-219.39998E-6,799.999952E-3,
,,,-219.19998E-6,1.4800,,,,,-219.19998E-6,799.999952E-3,
,,,-218.99998E-6,1.5200,,,,,-218.99998E-6,799.999952E-3,
,,,-218.79998E-6,1.4800,,,,,-218.79998E-6,819.999993E-3,
,,,-218.59998E-6,1.4800,,,,,-218.59998E-6,839.999974E-3,
,,,-218.39999E-6,1.5200,,,,,-218.39999E-6,839.999974E-3,
,,,-218.19999E-6,1.5600,,,,,-218.19999E-6,839.999974E-3,
,,,-217.99999E-6,1.5200,,,,,-217.99999E-6,839.999974E-3,
,,,-217.79998E-6,1.5200,,,,,-217.79998E-6,839.999974E-3,
,,,-217.59998E-6,1.5600,,,,,-217.59998E-6,819.999993E-3,
,,,-217.39998E-6,1.5200,,,,,-217.39998E-6,819.999993E-3,
,,,-217.19998E-6,1.6000,,,,,-217.19998E-6,839.999974E-3,
,,,-216.99998E-6,1.5600,,,,,-216.99998E-6,839.999974E-3,
,,,-216.79998E-6,1.5600,,,,,-216.79998E-6,839.999974E-3,
,,,-216.59998E-6,1.6000,,,,,-216.59998E-6,859.999955E-3,
,,,-216.39999E-6,1.5600,,,,,-216.39999E-6,879.999995E-3,
,,,-216.19999E-6,1.6000,,,,,-216.19999E-6,839.999974E-3,
,,,-215.99999E-6,1.6400,,,,,-215.99999E-6,839.999974E-3,
,,,-215.79998E-6,1.6400,,,,,-215.79998E-6,859.999955E-3,
,,,-215.59998E-6,1.6000,,,,,-215.59998E-6,839.999974E-3,
,,,-215.39998E-6,1.6000,,,,,-215.39998E-6,879.999995E-3,
,,,-215.19998E-6,1.6000,,,,,-215.19998E-6,879.999995E-3,
,,,-214.99998E-6,1.6800,,,,,-214.99998E-6,879.999995E-3,
,,,-214.79998E-6,1.6800,,,,,-214.79998E-6,879.999995E-3,
,,,-214.59998E-6,1.6800,,,,,-214.59998E-6,879.999995E-3,
,,,-214.39999E-6,1.6800,,,,,-214.39999E-6,879.999995E-3,
,,,-214.19999E-6,1.6800,,,,,-214.19999E-6,899.999976E-3,
,,,-213.99999E-6,1.6400,,,,,-213.99999E-6,879.999995E-3,
,,,-213.79998E-6,1.6800,,,,,-213.79998E-6,879.999995E-3,
,,,-213.59998E-6,1.6800,,,,,-213.59998E-6,879.999995E-3,
,,,-213.39998E-6,1.7200,,,,,-213.39998E-6,879.999995E-3,
,,,-213.19998E-6,1.7200,,,,,-213.19998E-6,919.999957E-3,
,,,-212.99998E-6,1.6800,,,,,-212.99998E-6,899.999976E-3,
,,,-212.79998E-6,1.7600,,,,,-212.79998E-6,919.999957E-3,
,,,-212.59999E-6,1.7600,,,,,-212.59999E-6,899.999976E-3,
,,,-212.39999E-6,1.7600,,,,,-212.39999E-6,899.999976E-3,
,,,-212.19999E-6,1.7600,,,,,-212.19999E-6,919.999957E-3,
,,,-211.99998E-6,1.7600,,,,,-211.99998E-6,899.999976E-3,
,,,-211.79998E-6,1.8000,,,,,-211.79998E-6,919.999957E-3,
,,,-211.59998E-6,1.7600,,,,,-211.59998E-6,919.999957E-3,
,,,-211.39998E-6,1.8400,,,,,-211.39998E-6,939.999998E-3,
,,,-211.19998E-6,1.8000,,,,,-211.19998E-6,939.999998E-3,
,,,-210.99998E-6,1.8800,,,,,-210.99998E-6,939.999998E-3,
,,,-210.79998E-6,1.8400,,,,,-210.79998E-6,919.999957E-3,
,,,-210.59999E-6,1.8000,,,,,-210.59999E-6,959.999979E-3,
,,,-210.39999E-6,1.8000,,,,,-210.39999E-6,939.999998E-3,
,,,-210.19999E-6,1.8400,,,,,-210.19999E-6,1.000,
,,,-209.99998E-6,1.8800,,,,,-209.99998E-6,979.999959E-3,
,,,-209.79998E-6,1.8400,,,,,-209.79998E-6,1.000,
,,,-209.59998E-6,1.8400,,,,,-209.59998E-6,959.999979E-3,
,,,-209.39998E-6,1.9200,,,,,-209.39998E-6,979.999959E-3,
,,,-209.19998E-6,1.8800,,,,,-209.19998E-6,959.999979E-3,
,,,-208.99998E-6,1.8800,,,,,-208.99998E-6,1.000,
,,,-208.79999E-6,1.8800,,,,,-208.79999E-6,1.000,
,,,-208.59999E-6,1.9200,,,,,-208.59999E-6,1.000,
,,,-208.39999E-6,1.9200,,,,,-208.39999E-6,979.999959E-3,
,,,-208.19998E-6,1.9600,,,,,-208.19998E-6,1.000,
,,,-207.99998E-6,1.9200,,,,,-207.99998E-6,1.0400,
,,,-207.79998E-6,1.9600,,,,,-207.79998E-6,1.0200,
,,,-207.59998E-6,2.0000,,,,,-207.59998E-6,1.0200,
,,,-207.39998E-6,2.0000,,,,,-207.39998E-6,1.0200,
,,,-207.19998E-6,2.0000,,,,,-207.19998E-6,1.0200,
,,,-206.99998E-6,2.0000,,,,,-206.99998E-6,1.0400,
,,,-206.79999E-6,2.0000,,,,,-206.79999E-6,1.0400,
,,,-206.59999E-6,1.9600,,,,,-206.59999E-6,1.0400,
,,,-206.39999E-6,2.0000,,,,,-206.39999E-6,1.0400,
,,,-206.19998E-6,2.0400,,,,,-206.19998E-6,1.0400,
,,,-205.99998E-6,2.0400,,,,,-205.99998E-6,1.0200,
,,,-205.79998E-6,2.0000,,,,,-205.79998E-6,1.0600,
,,,-205.59998E-6,2.0400,,,,,-205.59998E-6,1.0800,
,,,-205.39998E-6,2.0400,,,,,-205.39998E-6,1.1000,
,,,-205.19998E-6,2.0800,,,,,-205.19998E-6,1.1000,
,,,-204.99999E-6,2.0800,,,,,-204.99999E-6,1.1200,
,,,-204.79999E-6,2.0400,,,,,-204.79999E-6,1.1000,
,,,-204.59999E-6,2.0800,,,,,-204.59999E-6,1.1400,
,,,-204.39998E-6,2.0800,,,,,-204.39998E-6,1.0800,
,,,-204.19998E-6,2.1600,,,,,-204.19998E-6,1.1200,
,,,-203.99998E-6,2.0400,,,,,-203.99998E-6,1.1200,
,,,-203.79998E-6,2.1600,,,,,-203.79998E-6,1.1200,
,,,-203.59998E-6,2.0800,,,,,-203.59998E-6,1.1200,
,,,-203.39998E-6,2.1200,,,,,-203.39998E-6,1.1200,
,,,-203.19998E-6,2.2000,,,,,-203.19998E-6,1.1600,
,,,-202.99999E-6,2.1600,,,,,-202.99999E-6,1.1400,
,,,-202.79999E-6,2.2000,,,,,-202.79999E-6,1.1400,
,,,-202.59999E-6,2.1600,,,,,-202.59999E-6,1.1200,
,,,-202.39998E-6,2.2000,,,,,-202.39998E-6,1.1400,
,,,-202.19998E-6,2.2000,,,,,-202.19998E-6,1.1600,
,,,-201.99998E-6,2.1600,,,,,-201.99998E-6,1.1600,
,,,-201.79998E-6,2.2000,,,,,-201.79998E-6,1.1600,
,,,-201.59998E-6,2.2000,,,,,-201.59998E-6,1.2000,
,,,-201.39998E-6,2.2400,,,,,-201.39998E-6,1.1800,
,,,-201.19997E-6,2.2800,,,,,-201.19997E-6,1.2000,
,,,-200.99999E-6,2.2400,,,,,-200.99999E-6,1.2000,
,,,-200.79999E-6,2.2400,,,,,-200.79999E-6,1.2000,
,,,-200.59998E-6,2.2800,,,,,-200.59998E-6,1.2200,
,,,-200.39998E-6,2.2800,,,,,-200.39998E-6,1.2400,
,,,-200.19998E-6,2.2800,,,,,-200.19998E-6,1.2200,
,,,-199.99998E-6,2.2800,,,,,-199.99998E-6,1.2400,
,,,-199.79998E-6,2.2800,,,,,-199.79998E-6,1.2400,
,,,-199.59998E-6,2.3200,,,,,-199.59998E-6,1.2600,
,,,-199.39998E-6,2.2800,,,,,-199.39998E-6,1.2600,
,,,-199.19999E-6,2.3200,,,,,-199.19999E-6,1.3000,
,,,-198.99999E-6,2.3600,,,,,-198.99999E-6,1.2800,
,,,-198.79999E-6,2.3600,,,,,-198.79999E-6,1.2600,
,,,-198.59998E-6,2.3200,,,,,-198.59998E-6,1.2400,
,,,-198.39998E-6,2.3600,,,,,-198.39998E-6,1.3000,
,,,-198.19998E-6,2.3600,,,,,-198.19998E-6,1.2800,
,,,-197.99998E-6,2.3200,,,,,-197.99998E-6,1.3000,
,,,-197.79998E-6,2.4400,,,,,-197.79998E-6,1.3000,
,,,-197.59998E-6,2.3600,,,,,-197.59998E-6,1.3200,
,,,-197.39998E-6,2.4000,,,,,-197.39998E-6,1.3200,
,,,-197.19999E-6,2.4000,,,,,-197.19999E-6,1.3400,
,,,-196.99999E-6,2.4000,,,,,-196.99999E-6,1.3400,
,,,-196.79999E-6,2.4000,,,,,-196.79999E-6,1.3200,
,,,-196.59998E-6,2.3600,,,,,-196.59998E-6,1.3600,
,,,-196.39998E-6,2.4000,,,,,-196.39998E-6,1.3400,
,,,-196.19998E-6,2.4800,,,,,-196.19998E-6,1.3600,
,,,-195.99998E-6,2.4800,,,,,-195.99998E-6,1.3400,
,,,-195.79998E-6,2.4000,,,,,-195.79998E-6,1.3800,
,,,-195.59998E-6,2.4400,,,,,-195.59998E-6,1.3800,
,,,-195.39999E-6,2.4000,,,,,-195.39999E-6,1.3800,
,,,-195.19999E-6,2.4800,,,,,-195.19999E-6,1.3800,
,,,-194.99999E-6,2.5200,,,,,-194.99999E-6,1.4000,
,,,-194.79998E-6,2.5200,,,,,-194.79998E-6,1.4000,
,,,-194.59998E-6,2.4800,,,,,-194.59998E-6,1.4000,
,,,-194.39998E-6,2.4800,,,,,-194.39998E-6,1.4400,
,,,-194.19998E-6,2.5200,,,,,-194.19998E-6,1.4200,
,,,-193.99998E-6,2.5200,,,,,-193.99998E-6,1.4200,
,,,-193.79998E-6,2.5200,,,,,-193.79998E-6,1.4600,
,,,-193.59998E-6,2.5600,,,,,-193.59998E-6,1.4600,
,,,-193.39999E-6,2.5200,,,,,-193.39999E-6,1.5000,
,,,-193.19999E-6,2.5600,,,,,-193.19999E-6,1.4800,
,,,-192.99999E-6,2.6000,,,,,-192.99999E-6,1.4800,
,,,-192.79998E-6,2.5600,,,,,-192.79998E-6,1.4600,
,,,-192.59998E-6,2.6000,,,,,-192.59998E-6,1.5000,
,,,-192.39998E-6,2.5600,,,,,-192.39998E-6,1.5000,
,,,-192.19998E-6,2.5600,,,,,-192.19998E-6,1.5200,
,,,-191.99998E-6,2.6000,,,,,-191.99998E-6,1.5000,
,,,-191.79998E-6,2.6000,,,,,-191.79998E-6,1.5000,
,,,-191.59999E-6,2.6400,,,,,-191.59999E-6,1.5200,
,,,-191.39999E-6,2.6400,,,,,-191.39999E-6,1.5400,
,,,-191.19999E-6,2.6800,,,,,-191.19999E-6,1.5200,
,,,-190.99998E-6,2.6400,,,,,-190.99998E-6,1.5200,
,,,-190.79998E-6,2.6000,,,,,-190.79998E-6,1.5600,
,,,-190.59998E-6,2.5600,,,,,-190.59998E-6,1.6000,
,,,-190.39998E-6,2.6000,,,,,-190.39998E-6,1.6000,
,,,-190.19998E-6,2.6000,,,,,-190.19998E-6,1.5800,
,,,-189.99998E-6,2.5600,,,,,-189.99998E-6,1.6000,
,,,-189.79998E-6,2.5200,,,,,-189.79998E-6,1.6000,
,,,-189.59999E-6,2.5200,,,,,-189.59999E-6,1.6000,
,,,-189.39999E-6,2.5600,,,,,-189.39999E-6,1.6000,
,,,-189.19999E-6,2.5200,,,,,-189.19999E-6,1.6200,
,,,-188.99998E-6,2.5200,,,,,-188.99998E-6,1.5800,
,,,-188.79998E-6,2.5200,,,,,-188.79998E-6,1.6200,
,,,-188.59998E-6,2.5200,,,,,-188.59998E-6,1.6200,
,,,-188.39998E-6,2.5600,,,,,-188.39998E-6,1.6200,
,,,-188.19998E-6,2.5200,,,,,-188.19998E-6,1.6400,
,,,-187.99998E-6,2.4800,,,,,-187.99998E-6,1.6400,
,,,-187.79997E-6,2.4800,,,,,-187.79997E-6,1.6400,
,,,-187.59999E-6,2.4400,,,,,-187.59999E-6,1.6200,
,,,-187.39999E-6,2.4400,,,,,-187.39999E-6,1.6200,
,,,-187.19998E-6,2.4400,,,,,-187.19998E-6,1.6400,
,,,-186.99998E-6,2.4800,,,,,-186.99998E-6,1.6200,
,,,-186.79998E-6,2.4400,,,,,-186.79998E-6,1.6400,
,,,-186.59998E-6,2.4400,,,,,-186.59998E-6,1.6600,
,,,-186.39998E-6,2.4000,,,,,-186.39998E-6,1.6400,
,,,-186.19998E-6,2.4800,,,,,-186.19998E-6,1.6400,
,,,-185.99998E-6,2.4000,,,,,-185.99998E-6,1.6400,
,,,-185.79999E-6,2.3600,,,,,-185.79999E-6,1.6600,
,,,-185.59999E-6,2.3600,,,,,-185.59999E-6,1.6600,
,,,-185.39999E-6,2.4000,,,,,-185.39999E-6,1.6600,
,,,-185.19998E-6,2.3600,,,,,-185.19998E-6,1.6400,
,,,-184.99998E-6,2.4000,,,,,-184.99998E-6,1.6800,
,,,-184.79998E-6,2.3200,,,,,-184.79998E-6,1.6600,
,,,-184.59998E-6,2.3600,,,,,-184.59998E-6,1.6600,
,,,-184.39998E-6,2.3200,,,,,-184.39998E-6,1.6600,
,,,-184.19998E-6,2.3200,,,,,-184.19998E-6,1.6400,
,,,-183.99997E-6,2.3200,,,,,-183.99997E-6,1.6600,
,,,-183.79999E-6,2.3200,,,,,-183.79999E-6,1.6600,
,,,-183.59999E-6,2.2800,,,,,-183.59999E-6,1.6400,
,,,-183.39998E-6,2.3200,,,,,-183.39998E-6,1.6800,
,,,-183.19998E-6,2.2800,,,,,-183.19998E-6,1.6800,
,,,-182.99998E-6,2.2800,,,,,-182.99998E-6,1.6600,
,,,-182.79998E-6,2.2800,,,,,-182.79998E-6,1.6400,
,,,-182.59998E-6,2.2400,,,,,-182.59998E-6,1.6800,
,,,-182.39998E-6,2.2400,,,,,-182.39998E-6,1.6600,
,,,-182.19998E-6,2.2000,,,,,-182.19998E-6,1.7000,
,,,-181.99999E-6,2.2400,,,,,-181.99999E-6,1.6600,
,,,-181.79999E-6,2.2000,,,,,-181.79999E-6,1.6600,
,,,-181.59999E-6,2.2000,,,,,-181.59999E-6,1.6600,
,,,-181.39998E-6,2.2000,,,,,-181.39998E-6,1.6400,
,,,-181.19998E-6,2.2000,,,,,-181.19998E-6,1.6800,
,,,-180.99998E-6,2.2000,,,,,-180.99998E-6,1.6600,
,,,-180.79998E-6,2.2000,,,,,-180.79998E-6,1.6400,
,,,-180.59998E-6,2.1600,,,,,-180.59998E-6,1.6600,
