analog_multiplier/data/s4x2.5fx40k.2.csv

Record Length,2500,Points,-25.00000E-6,160.00000E-3,,Record Length,2500,Points,-25.00000E-6,1.8600,
Sample Interval,20.0000E-9,s,-24.98000E-6,239.99999E-3,,Sample Interval,20.0000E-9,s,-24.98000E-6,1.8520,
Trigger Point,1.2500E3,Samples,-24.96000E-6,239.99999E-3,,Trigger Point,1.2500E3,Samples,-24.96000E-6,1.8520,
,,,-24.94000E-6,239.99999E-3,,,,,-24.94000E-6,1.8560,
,,,-24.92000E-6,239.99999E-3,,,,,-24.92000E-6,1.8520,
,,,-24.90000E-6,239.99999E-3,,,,,-24.90000E-6,1.8480,
Source,CH2,,-24.88000E-6,280.00000E-3,,Source,CH3,,-24.88000E-6,1.8480,
Vertical Units,Volts,,-24.86000E-6,280.00000E-3,,Vertical Units,Volts,,-24.86000E-6,1.8520,
Vertical Scale,1.000,,-24.84000E-6,239.99999E-3,,Vertical Scale,100.0000E-3,,-24.84000E-6,1.8520,
Vertical Offset,0,,-24.82000E-6,319.99999E-3,,Vertical Offset,0,,-24.82000E-6,1.8480,
Horizontal Units,s,,-24.80000E-6,280.00000E-3,,Horizontal Units,s,,-24.80000E-6,1.8440,
Horizontal Scale,5.00000E-6,,-24.78000E-6,280.00000E-3,,Horizontal Scale,5.00000E-6,,-24.78000E-6,1.8440,
Pt Fmt,Y,,-24.76000E-6,280.00000E-3,,Pt Fmt,Y,,-24.76000E-6,1.8440,
Yzero,0.0,,-24.74000E-6,239.99999E-3,,Yzero,-19.4000,,-24.74000E-6,1.8360,
Probe Atten,1.000,,-24.72000E-6,359.99998E-3,,Probe Atten,1.000,,-24.72000E-6,1.8360,
,,,-24.70000E-6,319.99999E-3,,,,,-24.70000E-6,1.8360,
Note,TDS 224 - 1:17:50 AM   11/14/2015,,-24.68000E-6,319.99999E-3,,Note,TDS 224 - 1:17:50 AM   11/14/2015,,-24.68000E-6,1.8320,
,,,-24.66000E-6,359.99998E-3,,,,,-24.66000E-6,1.8320,
,,,-24.64000E-6,359.99998E-3,,,,,-24.64000E-6,1.8320,
,,,-24.62000E-6,359.99998E-3,,,,,-24.62000E-6,1.8280,
,,,-24.60000E-6,359.99998E-3,,,,,-24.60000E-6,1.8320,
,,,-24.58000E-6,399.99998E-3,,,,,-24.58000E-6,1.8280,
,,,-24.56000E-6,359.99998E-3,,,,,-24.56000E-6,1.8280,
,,,-24.54000E-6,399.99998E-3,,,,,-24.54000E-6,1.8200,
,,,-24.52000E-6,399.99998E-3,,,,,-24.52000E-6,1.8200,
,,,-24.50000E-6,359.99998E-3,,,,,-24.50000E-6,1.8200,
,,,-24.48000E-6,439.999998E-3,,,,,-24.48000E-6,1.8200,
,,,-24.46000E-6,439.999998E-3,,,,,-24.46000E-6,1.8160,
,,,-24.44000E-6,439.999998E-3,,,,,-24.44000E-6,1.8200,
,,,-24.42000E-6,479.999989E-3,,,,,-24.42000E-6,1.8120,
,,,-24.40000E-6,479.999989E-3,,,,,-24.40000E-6,1.8160,
,,,-24.38000E-6,519.999981E-3,,,,,-24.38000E-6,1.8120,
,,,-24.36000E-6,479.999989E-3,,,,,-24.36000E-6,1.8120,
,,,-24.34000E-6,519.999981E-3,,,,,-24.34000E-6,1.8080,
,,,-24.32000E-6,519.999981E-3,,,,,-24.32000E-6,1.8080,
,,,-24.30000E-6,519.999981E-3,,,,,-24.30000E-6,1.8080,
,,,-24.28000E-6,519.999981E-3,,,,,-24.28000E-6,1.8120,
,,,-24.26000E-6,560.000002E-3,,,,,-24.26000E-6,1.8000,
,,,-24.24000E-6,519.999981E-3,,,,,-24.24000E-6,1.8040,
,,,-24.22000E-6,560.000002E-3,,,,,-24.22000E-6,1.8000,
,,,-24.20000E-6,519.999981E-3,,,,,-24.20000E-6,1.8040,
,,,-24.18000E-6,560.000002E-3,,,,,-24.18000E-6,1.8000,
,,,-24.16000E-6,560.000002E-3,,,,,-24.16000E-6,1.7960,
,,,-24.14000E-6,560.000002E-3,,,,,-24.14000E-6,1.8000,
,,,-24.12000E-6,560.000002E-3,,,,,-24.12000E-6,1.7960,
,,,-24.10000E-6,599.999964E-3,,,,,-24.10000E-6,1.8000,
,,,-24.08000E-6,639.999986E-3,,,,,-24.08000E-6,1.7920,
,,,-24.06000E-6,599.999964E-3,,,,,-24.06000E-6,1.7960,
,,,-24.04000E-6,639.999986E-3,,,,,-24.04000E-6,1.7920,
,,,-24.02000E-6,639.999986E-3,,,,,-24.02000E-6,1.7920,
,,,-24.00000E-6,639.999986E-3,,,,,-24.00000E-6,1.7920,
,,,-23.98000E-6,639.999986E-3,,,,,-23.98000E-6,1.7920,
,,,-23.96000E-6,599.999964E-3,,,,,-23.96000E-6,1.7880,
,,,-23.94000E-6,639.999986E-3,,,,,-23.94000E-6,1.7840,
,,,-23.92000E-6,680.000007E-3,,,,,-23.92000E-6,1.7800,
,,,-23.90000E-6,680.000007E-3,,,,,-23.90000E-6,1.7840,
,,,-23.88000E-6,719.999969E-3,,,,,-23.88000E-6,1.7760,
,,,-23.86000E-6,680.000007E-3,,,,,-23.86000E-6,1.7800,
,,,-23.84000E-6,680.000007E-3,,,,,-23.84000E-6,1.7760,
,,,-23.82000E-6,680.000007E-3,,,,,-23.82000E-6,1.7800,
,,,-23.80000E-6,719.999969E-3,,,,,-23.80000E-6,1.7800,
,,,-23.78000E-6,719.999969E-3,,,,,-23.78000E-6,1.7760,
,,,-23.76000E-6,719.999969E-3,,,,,-23.76000E-6,1.7760,
,,,-23.74000E-6,719.999969E-3,,,,,-23.74000E-6,1.7800,
,,,-23.72000E-6,719.999969E-3,,,,,-23.72000E-6,1.7720,
,,,-23.70000E-6,719.999969E-3,,,,,-23.70000E-6,1.7760,
,,,-23.68000E-6,719.999969E-3,,,,,-23.68000E-6,1.7720,
,,,-23.66000E-6,759.999990E-3,,,,,-23.66000E-6,1.7720,
,,,-23.64000E-6,759.999990E-3,,,,,-23.64000E-6,1.7720,
,,,-23.62000E-6,799.999952E-3,,,,,-23.62000E-6,1.7720,
,,,-23.60000E-6,799.999952E-3,,,,,-23.60000E-6,1.7680,
,,,-23.58000E-6,799.999952E-3,,,,,-23.58000E-6,1.7680,
,,,-23.56000E-6,799.999952E-3,,,,,-23.56000E-6,1.7600,
,,,-23.54000E-6,839.999974E-3,,,,,-23.54000E-6,1.7680,
,,,-23.52000E-6,839.999974E-3,,,,,-23.52000E-6,1.7680,
,,,-23.50000E-6,839.999974E-3,,,,,-23.50000E-6,1.7600,
,,,-23.48000E-6,839.999974E-3,,,,,-23.48000E-6,1.7600,
,,,-23.46000E-6,879.999995E-3,,,,,-23.46000E-6,1.7640,
,,,-23.44000E-6,919.999957E-3,,,,,-23.44000E-6,1.7600,
,,,-23.42000E-6,919.999957E-3,,,,,-23.42000E-6,1.7600,
,,,-23.40000E-6,839.999974E-3,,,,,-23.40000E-6,1.7600,
,,,-23.38000E-6,919.999957E-3,,,,,-23.38000E-6,1.7520,
,,,-23.36000E-6,919.999957E-3,,,,,-23.36000E-6,1.7600,
,,,-23.34000E-6,919.999957E-3,,,,,-23.34000E-6,1.7560,
,,,-23.32000E-6,919.999957E-3,,,,,-23.32000E-6,1.7480,
,,,-23.30000E-6,879.999995E-3,,,,,-23.30000E-6,1.7520,
,,,-23.28000E-6,919.999957E-3,,,,,-23.28000E-6,1.7520,
,,,-23.26000E-6,959.999979E-3,,,,,-23.26000E-6,1.7520,
,,,-23.24000E-6,919.999957E-3,,,,,-23.24000E-6,1.7520,
,,,-23.22000E-6,959.999979E-3,,,,,-23.22000E-6,1.7480,
,,,-23.20000E-6,959.999979E-3,,,,,-23.20000E-6,1.7520,
,,,-23.18000E-6,959.999979E-3,,,,,-23.18000E-6,1.7480,
,,,-23.16000E-6,1.000,,,,,-23.16000E-6,1.7520,
,,,-23.14000E-6,959.999979E-3,,,,,-23.14000E-6,1.7520,
,,,-23.12000E-6,1.000,,,,,-23.12000E-6,1.7520,
,,,-23.10000E-6,1.000,,,,,-23.10000E-6,1.7440,
,,,-23.08000E-6,1.000,,,,,-23.08000E-6,1.7440,
,,,-23.06000E-6,1.0800,,,,,-23.06000E-6,1.7480,
,,,-23.04000E-6,1.0800,,,,,-23.04000E-6,1.7400,
,,,-23.02000E-6,1.0800,,,,,-23.02000E-6,1.7440,
,,,-23.00000E-6,1.0400,,,,,-23.00000E-6,1.7400,
,,,-22.98000E-6,1.0800,,,,,-22.98000E-6,1.7360,
,,,-22.96000E-6,1.0800,,,,,-22.96000E-6,1.7440,
,,,-22.94000E-6,1.1200,,,,,-22.94000E-6,1.7440,
,,,-22.92000E-6,1.1200,,,,,-22.92000E-6,1.7360,
,,,-22.90000E-6,1.0800,,,,,-22.90000E-6,1.7360,
,,,-22.88000E-6,1.1200,,,,,-22.88000E-6,1.7400,
,,,-22.86000E-6,1.0800,,,,,-22.86000E-6,1.7400,
,,,-22.84000E-6,1.1600,,,,,-22.84000E-6,1.7360,
,,,-22.82000E-6,1.1200,,,,,-22.82000E-6,1.7360,
,,,-22.80000E-6,1.1200,,,,,-22.80000E-6,1.7360,
,,,-22.78000E-6,1.1200,,,,,-22.78000E-6,1.7320,
,,,-22.76000E-6,1.1200,,,,,-22.76000E-6,1.7320,
,,,-22.74000E-6,1.1600,,,,,-22.74000E-6,1.7320,
,,,-22.72000E-6,1.2000,,,,,-22.72000E-6,1.7320,
,,,-22.70000E-6,1.2000,,,,,-22.70000E-6,1.7320,
,,,-22.68000E-6,1.2000,,,,,-22.68000E-6,1.7280,
,,,-22.66000E-6,1.2000,,,,,-22.66000E-6,1.7280,
,,,-22.64000E-6,1.2000,,,,,-22.64000E-6,1.7240,
,,,-22.62000E-6,1.2000,,,,,-22.62000E-6,1.7320,
,,,-22.60000E-6,1.2800,,,,,-22.60000E-6,1.7280,
,,,-22.58000E-6,1.2400,,,,,-22.58000E-6,1.7280,
,,,-22.56000E-6,1.2400,,,,,-22.56000E-6,1.7240,
,,,-22.54000E-6,1.2400,,,,,-22.54000E-6,1.7280,
,,,-22.52000E-6,1.2000,,,,,-22.52000E-6,1.7240,
,,,-22.50000E-6,1.2000,,,,,-22.50000E-6,1.7240,
,,,-22.48000E-6,1.2800,,,,,-22.48000E-6,1.7240,
,,,-22.46000E-6,1.2800,,,,,-22.46000E-6,1.7240,
,,,-22.44000E-6,1.3200,,,,,-22.44000E-6,1.7240,
,,,-22.42000E-6,1.2800,,,,,-22.42000E-6,1.7200,
,,,-22.40000E-6,1.3200,,,,,-22.40000E-6,1.7240,
,,,-22.38000E-6,1.3200,,,,,-22.38000E-6,1.7240,
,,,-22.36000E-6,1.3200,,,,,-22.36000E-6,1.7200,
,,,-22.34000E-6,1.3600,,,,,-22.34000E-6,1.7160,
,,,-22.32000E-6,1.3200,,,,,-22.32000E-6,1.7200,
,,,-22.30000E-6,1.2800,,,,,-22.30000E-6,1.7200,
,,,-22.28000E-6,1.3200,,,,,-22.28000E-6,1.7160,
,,,-22.26000E-6,1.3600,,,,,-22.26000E-6,1.7160,
,,,-22.24000E-6,1.4000,,,,,-22.24000E-6,1.7120,
,,,-22.22000E-6,1.3600,,,,,-22.22000E-6,1.7160,
,,,-22.20000E-6,1.4000,,,,,-22.20000E-6,1.7200,
,,,-22.18000E-6,1.4000,,,,,-22.18000E-6,1.7120,
,,,-22.16000E-6,1.4000,,,,,-22.16000E-6,1.7160,
,,,-22.14000E-6,1.3600,,,,,-22.14000E-6,1.7160,
,,,-22.12000E-6,1.4400,,,,,-22.12000E-6,1.7120,
,,,-22.10000E-6,1.4400,,,,,-22.10000E-6,1.7120,
,,,-22.08000E-6,1.4400,,,,,-22.08000E-6,1.7200,
,,,-22.06000E-6,1.4400,,,,,-22.06000E-6,1.7120,
,,,-22.04000E-6,1.4400,,,,,-22.04000E-6,1.7120,
,,,-22.02000E-6,1.5200,,,,,-22.02000E-6,1.7160,
,,,-22.00000E-6,1.5200,,,,,-22.00000E-6,1.7120,
,,,-21.98000E-6,1.4800,,,,,-21.98000E-6,1.7160,
,,,-21.96000E-6,1.4800,,,,,-21.96000E-6,1.7120,
,,,-21.94000E-6,1.5200,,,,,-21.94000E-6,1.7120,
,,,-21.92000E-6,1.4800,,,,,-21.92000E-6,1.7160,
,,,-21.90000E-6,1.5200,,,,,-21.90000E-6,1.7040,
,,,-21.88000E-6,1.4800,,,,,-21.88000E-6,1.7120,
,,,-21.86000E-6,1.5200,,,,,-21.86000E-6,1.7080,
,,,-21.84000E-6,1.5600,,,,,-21.84000E-6,1.7080,
,,,-21.82000E-6,1.5600,,,,,-21.82000E-6,1.7080,
,,,-21.80000E-6,1.5600,,,,,-21.80000E-6,1.7080,
,,,-21.78000E-6,1.5600,,,,,-21.78000E-6,1.7040,
,,,-21.76000E-6,1.5600,,,,,-21.76000E-6,1.7120,
,,,-21.74000E-6,1.5600,,,,,-21.74000E-6,1.7040,
,,,-21.72000E-6,1.6000,,,,,-21.72000E-6,1.7040,
,,,-21.70000E-6,1.6000,,,,,-21.70000E-6,1.7080,
,,,-21.68000E-6,1.6000,,,,,-21.68000E-6,1.7080,
,,,-21.66000E-6,1.6000,,,,,-21.66000E-6,1.7080,
,,,-21.64000E-6,1.6000,,,,,-21.64000E-6,1.7080,
,,,-21.62000E-6,1.6000,,,,,-21.62000E-6,1.7040,
,,,-21.60000E-6,1.6000,,,,,-21.60000E-6,1.7040,
,,,-21.58000E-6,1.6400,,,,,-21.58000E-6,1.7080,
,,,-21.56000E-6,1.6800,,,,,-21.56000E-6,1.7120,
,,,-21.54000E-6,1.6800,,,,,-21.54000E-6,1.7080,
,,,-21.52000E-6,1.7200,,,,,-21.52000E-6,1.7120,
,,,-21.50000E-6,1.6800,,,,,-21.50000E-6,1.7040,
,,,-21.48000E-6,1.6800,,,,,-21.48000E-6,1.7040,
,,,-21.46000E-6,1.7200,,,,,-21.46000E-6,1.7080,
,,,-21.44000E-6,1.7600,,,,,-21.44000E-6,1.7040,
,,,-21.42000E-6,1.7200,,,,,-21.42000E-6,1.7080,
,,,-21.40000E-6,1.7200,,,,,-21.40000E-6,1.7080,
,,,-21.38000E-6,1.7200,,,,,-21.38000E-6,1.7080,
,,,-21.36000E-6,1.7200,,,,,-21.36000E-6,1.7080,
,,,-21.34000E-6,1.7600,,,,,-21.34000E-6,1.7040,
,,,-21.32000E-6,1.7200,,,,,-21.32000E-6,1.7040,
,,,-21.30000E-6,1.8000,,,,,-21.30000E-6,1.7080,
,,,-21.28000E-6,1.7600,,,,,-21.28000E-6,1.7080,
,,,-21.26000E-6,1.7600,,,,,-21.26000E-6,1.7080,
,,,-21.24000E-6,1.8000,,,,,-21.24000E-6,1.7040,
,,,-21.22000E-6,1.7600,,,,,-21.22000E-6,1.7080,
,,,-21.20000E-6,1.8000,,,,,-21.20000E-6,1.7040,
,,,-21.18000E-6,1.8000,,,,,-21.18000E-6,1.7120,
,,,-21.16000E-6,1.8000,,,,,-21.16000E-6,1.7080,
,,,-21.14000E-6,1.8400,,,,,-21.14000E-6,1.7120,
,,,-21.12000E-6,1.8400,,,,,-21.12000E-6,1.7080,
,,,-21.10000E-6,1.8400,,,,,-21.10000E-6,1.7120,
,,,-21.08000E-6,1.8000,,,,,-21.08000E-6,1.7080,
,,,-21.06000E-6,1.8800,,,,,-21.06000E-6,1.7080,
,,,-21.04000E-6,1.8400,,,,,-21.04000E-6,1.7080,
,,,-21.02000E-6,1.8800,,,,,-21.02000E-6,1.7080,
,,,-21.00000E-6,1.8800,,,,,-21.00000E-6,1.7120,
,,,-20.98000E-6,1.8800,,,,,-20.98000E-6,1.7080,
,,,-20.96000E-6,1.9600,,,,,-20.96000E-6,1.7080,
,,,-20.94000E-6,1.9200,,,,,-20.94000E-6,1.7080,
,,,-20.92000E-6,1.8800,,,,,-20.92000E-6,1.7040,
,,,-20.90000E-6,1.9600,,,,,-20.90000E-6,1.7160,
,,,-20.88000E-6,1.9600,,,,,-20.88000E-6,1.7120,
,,,-20.86000E-6,1.9600,,,,,-20.86000E-6,1.7080,
,,,-20.84000E-6,1.9600,,,,,-20.84000E-6,1.7160,
,,,-20.82000E-6,1.8800,,,,,-20.82000E-6,1.7120,
,,,-20.80000E-6,1.9200,,,,,-20.80000E-6,1.7120,
,,,-20.78000E-6,1.9600,,,,,-20.78000E-6,1.7120,
,,,-20.76000E-6,2.0000,,,,,-20.76000E-6,1.7120,
,,,-20.74000E-6,2.0000,,,,,-20.74000E-6,1.7120,
,,,-20.72000E-6,2.0400,,,,,-20.72000E-6,1.7160,
,,,-20.70000E-6,1.9600,,,,,-20.70000E-6,1.7120,
,,,-20.68000E-6,2.0400,,,,,-20.68000E-6,1.7080,
,,,-20.66000E-6,2.0400,,,,,-20.66000E-6,1.7160,
,,,-20.64000E-6,2.0000,,,,,-20.64000E-6,1.7160,
,,,-20.62000E-6,2.0400,,,,,-20.62000E-6,1.7200,
,,,-20.60000E-6,2.0400,,,,,-20.60000E-6,1.7160,
,,,-20.58000E-6,2.0400,,,,,-20.58000E-6,1.7120,
,,,-20.56000E-6,2.0400,,,,,-20.56000E-6,1.7200,
,,,-20.54000E-6,2.0400,,,,,-20.54000E-6,1.7200,
,,,-20.52000E-6,2.0800,,,,,-20.52000E-6,1.7200,
,,,-20.50000E-6,2.1200,,,,,-20.50000E-6,1.7160,
,,,-20.48000E-6,2.1200,,,,,-20.48000E-6,1.7200,
,,,-20.46000E-6,2.1600,,,,,-20.46000E-6,1.7200,
,,,-20.44000E-6,2.1600,,,,,-20.44000E-6,1.7200,
,,,-20.42000E-6,2.2000,,,,,-20.42000E-6,1.7200,
,,,-20.40000E-6,2.2000,,,,,-20.40000E-6,1.7200,
,,,-20.38000E-6,2.1600,,,,,-20.38000E-6,1.7240,
,,,-20.36000E-6,2.1600,,,,,-20.36000E-6,1.7200,
,,,-20.34000E-6,2.1600,,,,,-20.34000E-6,1.7240,
,,,-20.32000E-6,2.1200,,,,,-20.32000E-6,1.7240,
,,,-20.30000E-6,2.2400,,,,,-20.30000E-6,1.7200,
,,,-20.28000E-6,2.1600,,,,,-20.28000E-6,1.7240,
,,,-20.26000E-6,2.2400,,,,,-20.26000E-6,1.7200,
,,,-20.24000E-6,2.2000,,,,,-20.24000E-6,1.7240,
,,,-20.22000E-6,2.2000,,,,,-20.22000E-6,1.7240,
,,,-20.20000E-6,2.2000,,,,,-20.20000E-6,1.7240,
,,,-20.18000E-6,2.2000,,,,,-20.18000E-6,1.7280,
,,,-20.16000E-6,2.2400,,,,,-20.16000E-6,1.7240,
,,,-20.14000E-6,2.2800,,,,,-20.14000E-6,1.7320,
,,,-20.12000E-6,2.2800,,,,,-20.12000E-6,1.7320,
,,,-20.10000E-6,2.2800,,,,,-20.10000E-6,1.7320,
,,,-20.0800E-6,2.2800,,,,,-20.0800E-6,1.7320,
,,,-20.0600E-6,2.3200,,,,,-20.0600E-6,1.7320,
,,,-20.0400E-6,2.3200,,,,,-20.0400E-6,1.7320,
,,,-20.0200E-6,2.3200,,,,,-20.0200E-6,1.7360,
,,,-20.0000E-6,2.2800,,,,,-20.0000E-6,1.7360,
,,,-19.9800E-6,2.3200,,,,,-19.9800E-6,1.7400,
,,,-19.9600E-6,2.3200,,,,,-19.9600E-6,1.7360,
,,,-19.9400E-6,2.3200,,,,,-19.9400E-6,1.7400,
,,,-19.9200E-6,2.3600,,,,,-19.9200E-6,1.7320,
,,,-19.9000E-6,2.3200,,,,,-19.9000E-6,1.7360,
,,,-19.8800E-6,2.2800,,,,,-19.8800E-6,1.7360,
,,,-19.8600E-6,2.3600,,,,,-19.8600E-6,1.7400,
,,,-19.8400E-6,2.3600,,,,,-19.8400E-6,1.7360,
,,,-19.8200E-6,2.4000,,,,,-19.8200E-6,1.7400,
,,,-19.8000E-6,2.4000,,,,,-19.8000E-6,1.7440,
,,,-19.7800E-6,2.3600,,,,,-19.7800E-6,1.7440,
,,,-19.7600E-6,2.3600,,,,,-19.7600E-6,1.7400,
,,,-19.7400E-6,2.4400,,,,,-19.7400E-6,1.7440,
,,,-19.7200E-6,2.4000,,,,,-19.7200E-6,1.7440,
,,,-19.7000E-6,2.4000,,,,,-19.7000E-6,1.7480,
,,,-19.6800E-6,2.4400,,,,,-19.6800E-6,1.7520,
,,,-19.6600E-6,2.4800,,,,,-19.6600E-6,1.7520,
,,,-19.6400E-6,2.4800,,,,,-19.6400E-6,1.7480,
,,,-19.6200E-6,2.4400,,,,,-19.6200E-6,1.7520,
,,,-19.6000E-6,2.4800,,,,,-19.6000E-6,1.7520,
,,,-19.5800E-6,2.4800,,,,,-19.5800E-6,1.7560,
,,,-19.5600E-6,2.4800,,,,,-19.5600E-6,1.7560,
,,,-19.5400E-6,2.4800,,,,,-19.5400E-6,1.7560,
,,,-19.5200E-6,2.5200,,,,,-19.5200E-6,1.7520,
,,,-19.5000E-6,2.5600,,,,,-19.5000E-6,1.7560,
,,,-19.4800E-6,2.5600,,,,,-19.4800E-6,1.7600,
,,,-19.4600E-6,2.5200,,,,,-19.4600E-6,1.7600,
,,,-19.4400E-6,2.5200,,,,,-19.4400E-6,1.7600,
,,,-19.4200E-6,2.5200,,,,,-19.4200E-6,1.7640,
,,,-19.4000E-6,2.5600,,,,,-19.4000E-6,1.7640,
,,,-19.3800E-6,2.5600,,,,,-19.3800E-6,1.7680,
,,,-19.3600E-6,2.6000,,,,,-19.3600E-6,1.7600,
,,,-19.3400E-6,2.5600,,,,,-19.3400E-6,1.7680,
,,,-19.3200E-6,2.6000,,,,,-19.3200E-6,1.7680,
,,,-19.3000E-6,2.6000,,,,,-19.3000E-6,1.7760,
,,,-19.2800E-6,2.6000,,,,,-19.2800E-6,1.7720,
,,,-19.2600E-6,2.6400,,,,,-19.2600E-6,1.7720,
,,,-19.2400E-6,2.6000,,,,,-19.2400E-6,1.7760,
,,,-19.2200E-6,2.6400,,,,,-19.2200E-6,1.7720,
,,,-19.2000E-6,2.6400,,,,,-19.2000E-6,1.7800,
,,,-19.1800E-6,2.6000,,,,,-19.1800E-6,1.7800,
,,,-19.1600E-6,2.6400,,,,,-19.1600E-6,1.7760,
,,,-19.1400E-6,2.6000,,,,,-19.1400E-6,1.7800,
,,,-19.1200E-6,2.5600,,,,,-19.1200E-6,1.7880,
,,,-19.1000E-6,2.6000,,,,,-19.1000E-6,1.7840,
,,,-19.0800E-6,2.6400,,,,,-19.0800E-6,1.7800,
,,,-19.0600E-6,2.5600,,,,,-19.0600E-6,1.7840,
,,,-19.0400E-6,2.5600,,,,,-19.0400E-6,1.7840,
,,,-19.0200E-6,2.5600,,,,,-19.0200E-6,1.7840,
,,,-19.0000E-6,2.5600,,,,,-19.0000E-6,1.7960,
,,,-18.9800E-6,2.6000,,,,,-18.9800E-6,1.7920,
,,,-18.9600E-6,2.5600,,,,,-18.9600E-6,1.7960,
,,,-18.9400E-6,2.4800,,,,,-18.9400E-6,1.7920,
,,,-18.9200E-6,2.5200,,,,,-18.9200E-6,1.7960,
,,,-18.9000E-6,2.5200,,,,,-18.9000E-6,1.8000,
,,,-18.8800E-6,2.5200,,,,,-18.8800E-6,1.8000,
,,,-18.8600E-6,2.4800,,,,,-18.8600E-6,1.8040,
,,,-18.8400E-6,2.5200,,,,,-18.8400E-6,1.8040,
,,,-18.8200E-6,2.4400,,,,,-18.8200E-6,1.8040,
,,,-18.8000E-6,2.4400,,,,,-18.8000E-6,1.8040,
,,,-18.7800E-6,2.4800,,,,,-18.7800E-6,1.8040,
,,,-18.7600E-6,2.4400,,,,,-18.7600E-6,1.8080,
,,,-18.7400E-6,2.4800,,,,,-18.7400E-6,1.8120,
,,,-18.7200E-6,2.4400,,,,,-18.7200E-6,1.8120,
,,,-18.7000E-6,2.4400,,,,,-18.7000E-6,1.8160,
,,,-18.6800E-6,2.4000,,,,,-18.6800E-6,1.8120,
,,,-18.6600E-6,2.4400,,,,,-18.6600E-6,1.8200,
,,,-18.6400E-6,2.4400,,,,,-18.6400E-6,1.8160,
,,,-18.6200E-6,2.4000,,,,,-18.6200E-6,1.8240,
,,,-18.6000E-6,2.4400,,,,,-18.6000E-6,1.8200,
,,,-18.5800E-6,2.3600,,,,,-18.5800E-6,1.8200,
,,,-18.5600E-6,2.3200,,,,,-18.5600E-6,1.8240,
,,,-18.5400E-6,2.3200,,,,,-18.5400E-6,1.8320,
,,,-18.5200E-6,2.3200,,,,,-18.5200E-6,1.8320,
,,,-18.5000E-6,2.3600,,,,,-18.5000E-6,1.8320,
,,,-18.4800E-6,2.3200,,,,,-18.4800E-6,1.8360,
,,,-18.4600E-6,2.3600,,,,,-18.4600E-6,1.8360,
,,,-18.4400E-6,2.3200,,,,,-18.4400E-6,1.8400,
,,,-18.4200E-6,2.3200,,,,,-18.4200E-6,1.8360,
,,,-18.4000E-6,2.3200,,,,,-18.4000E-6,1.8440,
,,,-18.3800E-6,2.3200,,,,,-18.3800E-6,1.8440,
,,,-18.3600E-6,2.2800,,,,,-18.3600E-6,1.8440,
,,,-18.3400E-6,2.2400,,,,,-18.3400E-6,1.8480,
,,,-18.3200E-6,2.2800,,,,,-18.3200E-6,1.8440,
,,,-18.3000E-6,2.2400,,,,,-18.3000E-6,1.8480,
,,,-18.2800E-6,2.2400,,,,,-18.2800E-6,1.8480,
,,,-18.2600E-6,2.2800,,,,,-18.2600E-6,1.8560,
,,,-18.2400E-6,2.2400,,,,,-18.2400E-6,1.8520,
,,,-18.2200E-6,2.2000,,,,,-18.2200E-6,1.8560,
,,,-18.2000E-6,2.2800,,,,,-18.2000E-6,1.8640,
,,,-18.1800E-6,2.1600,,,,,-18.1800E-6,1.8640,
,,,-18.1600E-6,2.2400,,,,,-18.1600E-6,1.8640,
,,,-18.1400E-6,2.2400,,,,,-18.1400E-6,1.8640,
,,,-18.1200E-6,2.2000,,,,,-18.1200E-6,1.8680,
,,,-18.1000E-6,2.1600,,,,,-18.1000E-6,1.8760,
,,,-18.0800E-6,2.2000,,,,,-18.0800E-6,1.8760,
,,,-18.0600E-6,2.1600,,,,,-18.0600E-6,1.8800,
,,,-18.0400E-6,2.2000,,,,,-18.0400E-6,1.8760,
,,,-18.0200E-6,2.1600,,,,,-18.0200E-6,1.8800,
,,,-18.0000E-6,2.0800,,,,,-18.0000E-6,1.8800,
,,,-17.9800E-6,2.1600,,,,,-17.9800E-6,1.8800,
,,,-17.9600E-6,2.1200,,,,,-17.9600E-6,1.8920,
,,,-17.9400E-6,2.1600,,,,,-17.9400E-6,1.8800,
,,,-17.9200E-6,2.0400,,,,,-17.9200E-6,1.8880,
,,,-17.9000E-6,2.0800,,,,,-17.9000E-6,1.8880,
,,,-17.8800E-6,2.1200,,,,,-17.8800E-6,1.8960,
,,,-17.8600E-6,2.0800,,,,,-17.8600E-6,1.8960,
,,,-17.8400E-6,2.0800,,,,,-17.8400E-6,1.8960,
,,,-17.8200E-6,2.0400,,,,,-17.8200E-6,1.9000,
,,,-17.8000E-6,2.0400,,,,,-17.8000E-6,1.9000,
,,,-17.7800E-6,2.0800,,,,,-17.7800E-6,1.9040,
,,,-17.7600E-6,2.0400,,,,,-17.7600E-6,1.9040,
,,,-17.7400E-6,2.0400,,,,,-17.7400E-6,1.9040,
,,,-17.7200E-6,2.0000,,,,,-17.7200E-6,1.9120,
,,,-17.7000E-6,1.9600,,,,,-17.7000E-6,1.9160,
,,,-17.6800E-6,2.0000,,,,,-17.6800E-6,1.9200,
,,,-17.6600E-6,1.9600,,,,,-17.6600E-6,1.9160,
,,,-17.6400E-6,1.9600,,,,,-17.6400E-6,1.9120,
,,,-17.6200E-6,1.9600,,,,,-17.6200E-6,1.9160,
,,,-17.6000E-6,2.0000,,,,,-17.6000E-6,1.9200,
,,,-17.5800E-6,1.9600,,,,,-17.5800E-6,1.9280,
,,,-17.5600E-6,1.9600,,,,,-17.5600E-6,1.9240,
,,,-17.5400E-6,1.9200,,,,,-17.5400E-6,1.9240,
,,,-17.5200E-6,1.9200,,,,,-17.5200E-6,1.9320,
,,,-17.5000E-6,1.9600,,,,,-17.5000E-6,1.9360,
,,,-17.4800E-6,1.9600,,,,,-17.4800E-6,1.9320,
,,,-17.4600E-6,1.9200,,,,,-17.4600E-6,1.9360,
,,,-17.4400E-6,1.9200,,,,,-17.4400E-6,1.9360,
,,,-17.4200E-6,1.8800,,,,,-17.4200E-6,1.9400,
,,,-17.4000E-6,1.8800,,,,,-17.4000E-6,1.9400,
,,,-17.3800E-6,1.8800,,,,,-17.3800E-6,1.9440,
,,,-17.3600E-6,1.8800,,,,,-17.3600E-6,1.9440,
,,,-17.3400E-6,1.8400,,,,,-17.3400E-6,1.9440,
,,,-17.3200E-6,1.8400,,,,,-17.3200E-6,1.9480,
,,,-17.3000E-6,1.8800,,,,,-17.3000E-6,1.9440,
,,,-17.2800E-6,1.8400,,,,,-17.2800E-6,1.9480,
,,,-17.2600E-6,1.8400,,,,,-17.2600E-6,1.9520,
,,,-17.2400E-6,1.8000,,,,,-17.2400E-6,1.9520,
,,,-17.2200E-6,1.8000,,,,,-17.2200E-6,1.9560,
,,,-17.2000E-6,1.7600,,,,,-17.2000E-6,1.9600,
,,,-17.1800E-6,1.8000,,,,,-17.1800E-6,1.9520,
,,,-17.1600E-6,1.7600,,,,,-17.1600E-6,1.9520,
,,,-17.1400E-6,1.7600,,,,,-17.1400E-6,1.9600,
,,,-17.1200E-6,1.7600,,,,,-17.1200E-6,1.9600,
,,,-17.1000E-6,1.7600,,,,,-17.1000E-6,1.9600,
,,,-17.0800E-6,1.7600,,,,,-17.0800E-6,1.9600,
,,,-17.0600E-6,1.7600,,,,,-17.0600E-6,1.9600,
,,,-17.0400E-6,1.7200,,,,,-17.0400E-6,1.9600,
